layer at (0,0) size 800x600
  LayoutView at (0,0) size 800x600
layer at (0,0) size 800x600
  LayoutBlockFlow {HTML} at (0,0) size 800x600
    LayoutBlockFlow {BODY} at (8,8) size 784x584
layer at (8,8) size 784x100
  LayoutBlockFlow {DIV} at (0,0) size 784x100
layer at (8,8) size 100x100 transparent
  LayoutBlockFlow {<pseudo:before>} at (0,0) size 100x100 [bgcolor=#008000]
    LayoutTextFragment at (0,0) size 0x0
