layer at (0,0) size 800x600
  LayoutView at (0,0) size 800x600
layer at (0,0) size 800x274
  LayoutBlockFlow {HTML} at (0,0) size 800x274
    LayoutBlockFlow {BODY} at (8,16) size 784x250
      LayoutBlockFlow {P} at (0,0) size 784x36
        LayoutText {#text} at (0,0) size 747x35
          text run at (0,0) width 747: "Test passes if the blue and orange boxes below are the same width, and the blue box is in the upper-left corner of the"
          text run at (0,18) width 67: "black box."
      LayoutBlockFlow {DIV} at (0,52) size 198x198 [border: (3px solid #000000)]
        LayoutBlockFlow {DIV} at (3,18) size 15x15 [bgcolor=#FFA500]
layer at (11,71) size 15x15
  LayoutImage (positioned) {IMG} at (11,71) size 15x15
