layer at (0,0) size 800x600
  LayoutView at (0,0) size 800x600
layer at (0,0) size 800x600
  LayoutSVGRoot {svg} at (0,0) size 800x600
    LayoutSVGContainer {g} at (28,0) size 772x427
      LayoutSVGText {text} at (19,-5) size 398x79 contains 1 chunk(s)
        LayoutSVGInlineText {#text} at (0,0) size 398x78
          chunk 1 text run 1 at (19.00,60.00) startOffset 0 endOffset 11 width 397.20: "Normal Text"
      LayoutSVGText {text} at (19,55) size 347x79 contains 1 chunk(s)
        LayoutSVGInlineText {#text} at (0,0) size 347x78
          chunk 1 text run 1 at (19.00,120.00) startOffset 0 endOffset 12 width 346.20: "Fill opacity"
      LayoutSVGText {text} at (19,115) size 467x79 contains 1 chunk(s)
        LayoutSVGInlineText {#text} at (0,0) size 467x78
          chunk 1 text run 1 at (19.00,180.00) startOffset 0 endOffset 14 width 466.80: "Stroke opacity"
      LayoutSVGText {text} at (19,175) size 244x79 contains 1 chunk(s)
        LayoutSVGInlineText {#text} at (0,0) size 244x78
          chunk 1 text run 1 at (19.00,240.00) startOffset 0 endOffset 7 width 243.60: "Opacity"
    LayoutSVGText {text} at (10,304) size 266x46 contains 1 chunk(s)
      LayoutSVGInlineText {#text} at (0,0) size 266x46
        chunk 1 text run 1 at (10.00,340.00) startOffset 0 endOffset 16 width 265.80: "$Revision: 1.3 $"
    LayoutSVGRect {rect} at (0,0) size 800x600 [stroke={[type=SOLID] [color=#000000]}] [x=1.00] [y=1.00] [width=478.00] [height=358.00]
selection start: position 0 of child 0 {#text} of child 1 {text} of child 13 {g} of child 14 {svg} of document
selection end:   position 16 of child 0 {#text} of child 15 {text} of child 14 {svg} of document
