layer at (0,0) size 800x600
  LayoutView at (0,0) size 800x600
layer at (0,0) size 800x554
  LayoutBlockFlow {HTML} at (0,0) size 800x554
    LayoutBlockFlow {BODY} at (8,16) size 784x530
      LayoutBlockFlow {UL} at (0,0) size 784x120
        LayoutListItem {LI} at (40,0) size 744x20 [bgcolor=#00FF00]
          LayoutListMarker at (-18,0) size 7x19: bullet
          LayoutText {#text} at (0,0) size 299x19
            text run at (0,0) width 299: "This first list item should have a green background"
        LayoutListItem {LI} at (40,20) size 744x20
          LayoutListMarker at (-18,0) size 7x19: bullet
          LayoutText {#text} at (0,0) size 95x19
            text run at (0,0) width 95: "Second list item"
        LayoutListItem {LI} at (40,40) size 744x20 [bgcolor=#00FF00]
          LayoutListMarker at (-18,0) size 7x19: bullet
          LayoutText {#text} at (0,0) size 304x19
            text run at (0,0) width 304: "This third list item should have a green background"
        LayoutListItem {LI} at (40,60) size 744x20
          LayoutListMarker at (-18,0) size 7x19: bullet
          LayoutText {#text} at (0,0) size 89x19
            text run at (0,0) width 89: "Fourth list item"
        LayoutListItem {LI} at (40,80) size 744x20 [bgcolor=#00FF00]
          LayoutListMarker at (-18,0) size 7x19: bullet
          LayoutText {#text} at (0,0) size 299x19
            text run at (0,0) width 299: "This fifth list item should have a green background"
        LayoutListItem {LI} at (40,100) size 744x20
          LayoutListMarker at (-18,0) size 7x19: bullet
          LayoutText {#text} at (0,0) size 79x19
            text run at (0,0) width 79: "Sixth list item"
      LayoutBlockFlow {OL} at (0,136) size 784x120
        LayoutListItem {LI} at (40,0) size 744x20
          LayoutListMarker at (-21,0) size 16x19: "1"
          LayoutText {#text} at (0,0) size 76x19
            text run at (0,0) width 76: "First list item"
        LayoutListItem {LI} at (40,20) size 744x20 [bgcolor=#00FF00]
          LayoutListMarker at (-21,0) size 16x19: "2"
          LayoutText {#text} at (0,0) size 320x19
            text run at (0,0) width 320: "This second list item should have a green background"
        LayoutListItem {LI} at (40,40) size 744x20
          LayoutListMarker at (-21,0) size 16x19: "3"
          LayoutText {#text} at (0,0) size 81x19
            text run at (0,0) width 81: "Third list item"
        LayoutListItem {LI} at (40,60) size 744x20 [bgcolor=#00FF00]
          LayoutListMarker at (-21,0) size 16x19: "4"
          LayoutText {#text} at (0,0) size 312x19
            text run at (0,0) width 312: "This fourth list item should have a green background"
        LayoutListItem {LI} at (40,80) size 744x20
          LayoutListMarker at (-21,0) size 16x19: "5"
          LayoutText {#text} at (0,0) size 76x19
            text run at (0,0) width 76: "Fifth list item"
        LayoutListItem {LI} at (40,100) size 744x20 [bgcolor=#00FF00]
          LayoutListMarker at (-21,0) size 16x19: "6"
          LayoutText {#text} at (0,0) size 304x19
            text run at (0,0) width 304: "This sixth list item should have a green background"
      LayoutBlockFlow {DIV} at (0,272) size 784x258
        LayoutTable {TABLE} at (0,0) size 158x160 [border: (1px outset #808080)]
          LayoutTableSection {TBODY} at (1,1) size 156x158
            LayoutTableRow {TR} at (0,2) size 156x24 [bgcolor=#00FF00]
              LayoutTableCell {TD} at (2,2) size 100x24 [border: (1px inset #808080)] [r=0 c=0 rs=1 cs=1]
                LayoutText {#text} at (2,2) size 96x19
                  text run at (2,2) width 96: "Green row : 1.1"
              LayoutTableCell {TD} at (104,2) size 24x24 [border: (1px inset #808080)] [r=0 c=1 rs=1 cs=1]
                LayoutText {#text} at (2,2) size 20x19
                  text run at (2,2) width 20: "1.2"
              LayoutTableCell {TD} at (130,2) size 24x24 [border: (1px inset #808080)] [r=0 c=2 rs=1 cs=1]
                LayoutText {#text} at (2,2) size 20x19
                  text run at (2,2) width 20: "1.3"
            LayoutTableRow {TR} at (0,28) size 156x24 [bgcolor=#00FF00]
              LayoutTableCell {TD} at (2,28) size 100x24 [border: (1px inset #808080)] [r=1 c=0 rs=1 cs=1]
                LayoutText {#text} at (2,2) size 96x19
                  text run at (2,2) width 96: "Green row : 2.1"
              LayoutTableCell {TD} at (104,28) size 24x24 [border: (1px inset #808080)] [r=1 c=1 rs=1 cs=1]
                LayoutText {#text} at (2,2) size 20x19
                  text run at (2,2) width 20: "2.2"
              LayoutTableCell {TD} at (130,28) size 24x24 [border: (1px inset #808080)] [r=1 c=2 rs=1 cs=1]
                LayoutText {#text} at (2,2) size 20x19
                  text run at (2,2) width 20: "2.3"
            LayoutTableRow {TR} at (0,54) size 156x24 [bgcolor=#00FF00]
              LayoutTableCell {TD} at (2,54) size 100x24 [border: (1px inset #808080)] [r=2 c=0 rs=1 cs=1]
                LayoutText {#text} at (2,2) size 96x19
                  text run at (2,2) width 96: "Green row : 3.1"
              LayoutTableCell {TD} at (104,54) size 24x24 [border: (1px inset #808080)] [r=2 c=1 rs=1 cs=1]
                LayoutText {#text} at (2,2) size 20x19
                  text run at (2,2) width 20: "3.2"
              LayoutTableCell {TD} at (130,54) size 24x24 [border: (1px inset #808080)] [r=2 c=2 rs=1 cs=1]
                LayoutText {#text} at (2,2) size 20x19
                  text run at (2,2) width 20: "3.3"
            LayoutTableRow {TR} at (0,80) size 156x24 [bgcolor=#00FF00]
              LayoutTableCell {TD} at (2,80) size 100x24 [border: (1px inset #808080)] [r=3 c=0 rs=1 cs=1]
                LayoutText {#text} at (2,2) size 96x19
                  text run at (2,2) width 96: "Green row : 4.1"
              LayoutTableCell {TD} at (104,80) size 24x24 [border: (1px inset #808080)] [r=3 c=1 rs=1 cs=1]
                LayoutText {#text} at (2,2) size 20x19
                  text run at (2,2) width 20: "4.2"
              LayoutTableCell {TD} at (130,80) size 24x24 [border: (1px inset #808080)] [r=3 c=2 rs=1 cs=1]
                LayoutText {#text} at (2,2) size 20x19
                  text run at (2,2) width 20: "4.3"
            LayoutTableRow {TR} at (0,106) size 156x24
              LayoutTableCell {TD} at (2,106) size 100x24 [border: (1px inset #808080)] [r=4 c=0 rs=1 cs=1]
                LayoutText {#text} at (2,2) size 20x19
                  text run at (2,2) width 20: "5.1"
              LayoutTableCell {TD} at (104,106) size 24x24 [border: (1px inset #808080)] [r=4 c=1 rs=1 cs=1]
                LayoutText {#text} at (2,2) size 20x19
                  text run at (2,2) width 20: "5.2"
              LayoutTableCell {TD} at (130,106) size 24x24 [border: (1px inset #808080)] [r=4 c=2 rs=1 cs=1]
                LayoutText {#text} at (2,2) size 20x19
                  text run at (2,2) width 20: "5.3"
            LayoutTableRow {TR} at (0,132) size 156x24
              LayoutTableCell {TD} at (2,132) size 100x24 [border: (1px inset #808080)] [r=5 c=0 rs=1 cs=1]
                LayoutText {#text} at (2,2) size 20x19
                  text run at (2,2) width 20: "6.1"
              LayoutTableCell {TD} at (104,132) size 24x24 [border: (1px inset #808080)] [r=5 c=1 rs=1 cs=1]
                LayoutText {#text} at (2,2) size 20x19
                  text run at (2,2) width 20: "6.2"
              LayoutTableCell {TD} at (130,132) size 24x24 [border: (1px inset #808080)] [r=5 c=2 rs=1 cs=1]
                LayoutText {#text} at (2,2) size 20x19
                  text run at (2,2) width 20: "6.3"
        LayoutBlockFlow {P} at (0,176) size 784x0
        LayoutTable {TABLE} at (0,176) size 323x82 [border: (1px outset #808080)]
          LayoutTableSection {TBODY} at (1,1) size 321x80
            LayoutTableRow {TR} at (0,2) size 321x24
              LayoutTableCell {TD} at (2,2) size 61x24 [bgcolor=#00FF00] [border: (1px inset #808080)] [r=0 c=0 rs=1 cs=1]
                LayoutText {#text} at (2,2) size 57x19
                  text run at (2,2) width 57: "green cell"
              LayoutTableCell {TD} at (65,2) size 24x24 [border: (1px inset #808080)] [r=0 c=1 rs=1 cs=1]
                LayoutText {#text} at (2,2) size 20x19
                  text run at (2,2) width 20: "1.2"
              LayoutTableCell {TD} at (91,2) size 24x24 [border: (1px inset #808080)] [r=0 c=2 rs=1 cs=1]
                LayoutText {#text} at (2,2) size 20x19
                  text run at (2,2) width 20: "1.3"
              LayoutTableCell {TD} at (117,2) size 61x24 [bgcolor=#00FF00] [border: (1px inset #808080)] [r=0 c=3 rs=1 cs=1]
                LayoutText {#text} at (2,2) size 57x19
                  text run at (2,2) width 57: "green cell"
              LayoutTableCell {TD} at (180,2) size 24x24 [border: (1px inset #808080)] [r=0 c=4 rs=1 cs=1]
                LayoutText {#text} at (2,2) size 20x19
                  text run at (2,2) width 20: "1.5"
              LayoutTableCell {TD} at (206,2) size 24x24 [border: (1px inset #808080)] [r=0 c=5 rs=1 cs=1]
                LayoutText {#text} at (2,2) size 20x19
                  text run at (2,2) width 20: "1.6"
              LayoutTableCell {TD} at (232,2) size 61x24 [bgcolor=#00FF00] [border: (1px inset #808080)] [r=0 c=6 rs=1 cs=1]
                LayoutText {#text} at (2,2) size 57x19
                  text run at (2,2) width 57: "green cell"
              LayoutTableCell {TD} at (295,2) size 24x24 [border: (1px inset #808080)] [r=0 c=7 rs=1 cs=1]
                LayoutText {#text} at (2,2) size 20x19
                  text run at (2,2) width 20: "1.8"
            LayoutTableRow {TR} at (0,28) size 321x24
              LayoutTableCell {TD} at (2,28) size 61x24 [bgcolor=#00FF00] [border: (1px inset #808080)] [r=1 c=0 rs=1 cs=1]
                LayoutText {#text} at (2,2) size 57x19
                  text run at (2,2) width 57: "green cell"
              LayoutTableCell {TD} at (65,28) size 24x24 [border: (1px inset #808080)] [r=1 c=1 rs=1 cs=1]
                LayoutText {#text} at (2,2) size 20x19
                  text run at (2,2) width 20: "2.2"
              LayoutTableCell {TD} at (91,28) size 24x24 [border: (1px inset #808080)] [r=1 c=2 rs=1 cs=1]
                LayoutText {#text} at (2,2) size 20x19
                  text run at (2,2) width 20: "2.3"
              LayoutTableCell {TD} at (117,28) size 61x24 [bgcolor=#00FF00] [border: (1px inset #808080)] [r=1 c=3 rs=1 cs=1]
                LayoutText {#text} at (2,2) size 57x19
                  text run at (2,2) width 57: "green cell"
              LayoutTableCell {TD} at (180,28) size 24x24 [border: (1px inset #808080)] [r=1 c=4 rs=1 cs=1]
                LayoutText {#text} at (2,2) size 20x19
                  text run at (2,2) width 20: "2.5"
              LayoutTableCell {TD} at (206,28) size 24x24 [border: (1px inset #808080)] [r=1 c=5 rs=1 cs=1]
                LayoutText {#text} at (2,2) size 20x19
                  text run at (2,2) width 20: "2.6"
              LayoutTableCell {TD} at (232,28) size 61x24 [bgcolor=#00FF00] [border: (1px inset #808080)] [r=1 c=6 rs=1 cs=1]
                LayoutText {#text} at (2,2) size 57x19
                  text run at (2,2) width 57: "green cell"
              LayoutTableCell {TD} at (295,28) size 24x24 [border: (1px inset #808080)] [r=1 c=7 rs=1 cs=1]
                LayoutText {#text} at (2,2) size 20x19
                  text run at (2,2) width 20: "2.8"
            LayoutTableRow {TR} at (0,54) size 321x24
              LayoutTableCell {TD} at (2,54) size 61x24 [bgcolor=#00FF00] [border: (1px inset #808080)] [r=2 c=0 rs=1 cs=1]
                LayoutText {#text} at (2,2) size 57x19
                  text run at (2,2) width 57: "green cell"
              LayoutTableCell {TD} at (65,54) size 24x24 [border: (1px inset #808080)] [r=2 c=1 rs=1 cs=1]
                LayoutText {#text} at (2,2) size 20x19
                  text run at (2,2) width 20: "3.2"
              LayoutTableCell {TD} at (91,54) size 24x24 [border: (1px inset #808080)] [r=2 c=2 rs=1 cs=1]
                LayoutText {#text} at (2,2) size 20x19
                  text run at (2,2) width 20: "3.3"
              LayoutTableCell {TD} at (117,54) size 61x24 [bgcolor=#00FF00] [border: (1px inset #808080)] [r=2 c=3 rs=1 cs=1]
                LayoutText {#text} at (2,2) size 57x19
                  text run at (2,2) width 57: "green cell"
              LayoutTableCell {TD} at (180,54) size 24x24 [border: (1px inset #808080)] [r=2 c=4 rs=1 cs=1]
                LayoutText {#text} at (2,2) size 20x19
                  text run at (2,2) width 20: "3.5"
              LayoutTableCell {TD} at (206,54) size 24x24 [border: (1px inset #808080)] [r=2 c=5 rs=1 cs=1]
                LayoutText {#text} at (2,2) size 20x19
                  text run at (2,2) width 20: "3.6"
              LayoutTableCell {TD} at (232,54) size 61x24 [bgcolor=#00FF00] [border: (1px inset #808080)] [r=2 c=6 rs=1 cs=1]
                LayoutText {#text} at (2,2) size 57x19
                  text run at (2,2) width 57: "green cell"
              LayoutTableCell {TD} at (295,54) size 24x24 [border: (1px inset #808080)] [r=2 c=7 rs=1 cs=1]
                LayoutText {#text} at (2,2) size 20x19
                  text run at (2,2) width 20: "3.8"
