layer at (0,0) size 824x711
  LayoutView at (0,0) size 800x600
layer at (0,0) size 800x600
  LayoutBlockFlow {HTML} at (0,0) size 800x600
    LayoutBlockFlow {BODY} at (8,8) size 784x584
layer at (8,8) size 1304x104 backgroundClip at (0,0) size 824x711 clip at (0,0) size 824x711 outlineClip at (0,0) size 824x711
  LayoutBlockFlow {DIV} at (0,0) size 1304x104 [bgcolor=#800080] [border: (2px solid #0000FF) (2px solid #00FFFF) (2px solid #008000) (2px solid #FF0000)]
