layer at (0,0) size 800x600
  LayoutView at (0,0) size 800x600
layer at (0,0) size 800x290
  LayoutBlockFlow {HTML} at (0,0) size 800x290
    LayoutBlockFlow {BODY} at (8,16) size 784x242
      LayoutBlockFlow {P} at (0,0) size 784x18
        LayoutText {#text} at (0,0) size 522x17
          text run at (0,0) width 522: "The following two blocks should be identical, including overflow. (Force bidi: \x{D7}\x{90})"
      LayoutBlockFlow {DIV} at (32,50) size 720x80 [color=#FFFF00] [bgcolor=#000000]
        LayoutTable at (24,24) size 261x32
          LayoutTableSection (anonymous) at (0,0) size 261x32
            LayoutTableRow {P} at (0,0) size 261x32
              LayoutTableCell (anonymous) at (0,0) size 261x32 [r=0 c=0 rs=1 cs=1]
                LayoutInline {SPAN} at (0,0) size 15x36
                  LayoutText {#text} at (0,-2) size 15x36
                    text run at (0,-2) width 15: "a"
                LayoutInline {SPAN} at (0,0) size 20x50 [color=#FF00FF] [border: (3px solid #FF00FF) none (3px solid #FF00FF)]
                  LayoutText {#text} at (33,-2) size 17x36
                    text run at (33,-2) width 17: "b"
                LayoutInline {SPAN} at (0,0) size 18x50 [color=#00FFFF] [border: (3px solid #00FFFF) none (3px solid #00FFFF)]
                  LayoutText {#text} at (68,-2) size 15x36
                    text run at (68,-2) width 15: "c"
                LayoutInline {SPAN} at (0,0) size 17x50 [color=#FF00FF] [border: (3px solid #FF00FF) none (3px solid #FF00FF) none]
                  LayoutText {#text} at (82,-2) size 17x36
                    text run at (82,-2) width 17: "d"
                LayoutInline {SPAN} at (0,0) size 15x50 [color=#00FFFF] [border: (3px solid #00FFFF) none (3px solid #00FFFF) none]
                  LayoutText {#text} at (98,-2) size 15x36
                    text run at (98,-2) width 15: "e"
                LayoutInline {SPAN} at (0,0) size 12x36
                  LayoutText {#text} at (112,-2) size 12x36
                    text run at (112,-2) width 12: "f"
                LayoutInline {SPAN} at (0,0) size 17x36
                  LayoutText {#text} at (123,-2) size 17x36
                    text run at (123,-2) width 17: "g"
                LayoutInline {SPAN} at (0,0) size 17x36
                  LayoutText {#text} at (139,-2) size 17x36
                    text run at (139,-2) width 17: "h"
                LayoutInline {SPAN} at (0,0) size 10x50 [color=#FF00FF] [border: (3px solid #FF00FF) none (3px solid #FF00FF) none]
                  LayoutText {#text} at (155,-2) size 10x36
                    text run at (155,-2) width 10: "i"
                LayoutInline {SPAN} at (0,0) size 13x50 [color=#00FFFF] [border: (3px solid #00FFFF) none]
                  LayoutText {#text} at (164,-2) size 10x36
                    text run at (164,-2) width 10: "j"
                LayoutInline {SPAN} at (0,0) size 20x50 [color=#FF00FF] [border: (3px solid #FF00FF) none]
                  LayoutText {#text} at (192,-2) size 17x36
                    text run at (192,-2) width 17: "k"
                LayoutInline {SPAN} at (0,0) size 9x36
                  LayoutText {#text} at (227,-2) size 9x36
                    text run at (227,-2) width 9: "l"
                LayoutInline {SPAN} at (0,0) size 26x36
                  LayoutText {#text} at (235,-2) size 26x36
                    text run at (235,-2) width 26: "m"
      LayoutBlockFlow {DIV} at (32,162) size 720x80 [color=#FFFF00] [bgcolor=#000000]
        LayoutTable at (24,24) size 261x32
          LayoutTableSection (anonymous) at (0,0) size 261x32
            LayoutTableRow {P} at (0,0) size 261x32
              LayoutTableCell (anonymous) at (0,0) size 261x32 [r=0 c=0 rs=1 cs=1]
                LayoutText {#text} at (0,-2) size 236x36
                  text run at (0,-2) width 15: "a"
                  text run at (49,-2) width 1 LTR override: "\x{202D}"
                  text run at (227,-2) width 9 RTL override: "\x{202E}l"
                LayoutInline {SPAN} at (0,0) size 112x50 [color=#00FFFF] [border: (3px solid #00FFFF)]
                  LayoutText {#text} at (68,-2) size 106x36
                    text run at (68,-2) width 15 LTR override: "c"
                    text run at (98,-2) width 15 LTR override: "\x{202D}e"
                    text run at (155,-2) width 1 RTL override: "\x{202E}"
                    text run at (164,-2) width 10 RTL override: "\x{202E}j"
                LayoutText {#text} at (112,-2) size 44x36
                  text run at (112,-2) width 12 RTL override: "\x{202C}f"
                  text run at (123,-2) width 17 LTR override: "\x{202D}g"
                  text run at (139,-2) width 17 RTL override: "h"
                LayoutInline {SPAN} at (0,0) size 182x50 [color=#FF00FF] [border: (3px solid #FF00FF)]
                  LayoutText {#text} at (33,-2) size 176x36
                    text run at (33,-2) width 17 RTL override: "\x{202C}b"
                    text run at (82,-2) width 17 RTL override: "\x{202C}d"
                    text run at (155,-2) width 10 LTR override: "\x{202C}i"
                    text run at (192,-2) width 17 LTR override: "\x{202C}k"
                LayoutText {#text} at (235,-2) size 26x36
                  text run at (235,-2) width 26: "\x{202C}m"
