layer at (0,0) size 800x600
  LayoutView at (0,0) size 800x600
layer at (0,0) size 800x294
  LayoutBlockFlow {HTML} at (0,0) size 800x294
    LayoutBlockFlow {BODY} at (8,16) size 784x270
      LayoutBlockFlow {P} at (0,0) size 784x18
        LayoutInline {A} at (0,0) size 310x17 [color=#0000EE]
          LayoutText {#text} at (0,0) size 310x17
            text run at (0,0) width 310: "https://bugs.webkit.org/show_bug.cgi?id=26095"
      LayoutBlockFlow {P} at (0,34) size 784x18
        LayoutText {#text} at (0,0) size 395x17
          text run at (0,0) width 395: "Tests that a 3D transform on a generated node does not crash."
      LayoutBlockFlow {DIV} at (0,68) size 202x202 [border: (1px solid #000000)]
layer at (9,85) size 200x200
  LayoutBlockFlow {<pseudo:after>} at (1,1) size 200x200
    LayoutTextFragment at (0,0) size 66x17
      text run at (0,0) width 66: "Generated"
