layer at (0,0) size 800x600
  LayoutView at (0,0) size 800x600
layer at (0,0) size 800x331
  LayoutBlockFlow {HTML} at (0,0) size 800x331.09
    LayoutBlockFlow {BODY} at (5.55,5.55) size 788.91x320
      LayoutTable {TABLE} at (0,0) size 462x320
        LayoutTableSection {TBODY} at (0,0) size 462x320
          LayoutTableRow {TR} at (0,1) size 462x14
            LayoutTableCell {TH} at (1,1) size 64x14 [bgcolor=#DDDD99] [r=0 c=0 rs=1 cs=1]
              LayoutText {#text} at (6,0) size 52x14
                text run at (6,0) width 52: "viewBox?"
            LayoutTableCell {TH} at (66,1) size 113x14 [bgcolor=#DDDD99] [r=0 c=1 rs=1 cs=1]
              LayoutText {#text} at (0,0) size 113x14
                text run at (0,0) width 113: "preserve\x{AD}Aspect\x{AD}Ratio"
            LayoutTableCell {TH} at (180,1) size 140x14 [bgcolor=#DDDD99] [r=0 c=2 rs=1 cs=1]
              LayoutText {#text} at (53,0) size 34x14
                text run at (53,0) width 34: "<img>"
            LayoutTableCell {TH} at (321,1) size 140x14 [bgcolor=#DDDD99] [r=0 c=3 rs=1 cs=1]
              LayoutText {#text} at (47,0) size 46x14
                text run at (47,0) width 46: "<object>"
          LayoutTableRow {TR} at (0,16) size 462x37
            LayoutTableCell {TH} at (1,84) size 64x14 [bgcolor=#DDDD99] [r=1 c=0 rs=4 cs=1]
              LayoutText {#text} at (0,0) size 64x14
                text run at (0,0) width 64: "No viewBox"
            LayoutTableCell {TH} at (66,34) size 113x0 [bgcolor=#DDDD99] [r=1 c=1 rs=1 cs=1]
            LayoutTableCell {TD} at (180,16) size 140x37 [r=1 c=2 rs=1 cs=1]
              LayoutImage {IMG} at (0,0) size 138.88x34.72 [border: (1px dashed #800000)]
              LayoutText {#text} at (0,0) size 0x0
            LayoutTableCell {TD} at (321,16) size 140x37 [r=1 c=3 rs=1 cs=1]
              LayoutText {#text} at (0,0) size 0x0
          LayoutTableRow {TR} at (0,54) size 462x37
            LayoutTableCell {TH} at (66,65) size 113x14 [bgcolor=#DDDD99] [r=2 c=1 rs=1 cs=1]
              LayoutText {#text} at (43,0) size 27x14
                text run at (43,0) width 27: "none"
            LayoutTableCell {TD} at (180,54) size 140x37 [r=2 c=2 rs=1 cs=1]
              LayoutImage {IMG} at (0,0) size 138.88x34.72 [border: (1px dashed #800000)]
              LayoutText {#text} at (0,0) size 0x0
            LayoutTableCell {TD} at (321,54) size 140x37 [r=2 c=3 rs=1 cs=1]
              LayoutText {#text} at (0,0) size 0x0
          LayoutTableRow {TR} at (0,92) size 462x37
            LayoutTableCell {TH} at (66,103) size 113x14 [bgcolor=#DDDD99] [r=3 c=1 rs=1 cs=1]
              LayoutText {#text} at (43,0) size 27x14
                text run at (43,0) width 27: "meet"
            LayoutTableCell {TD} at (180,92) size 140x37 [r=3 c=2 rs=1 cs=1]
              LayoutImage {IMG} at (0,0) size 138.88x34.72 [border: (1px dashed #800000)]
              LayoutText {#text} at (0,0) size 0x0
            LayoutTableCell {TD} at (321,92) size 140x37 [r=3 c=3 rs=1 cs=1]
              LayoutText {#text} at (0,0) size 0x0
          LayoutTableRow {TR} at (0,130) size 462x37
            LayoutTableCell {TH} at (66,141) size 113x14 [bgcolor=#DDDD99] [r=4 c=1 rs=1 cs=1]
              LayoutText {#text} at (44,0) size 25x14
                text run at (44,0) width 25: "slice"
            LayoutTableCell {TD} at (180,130) size 140x37 [r=4 c=2 rs=1 cs=1]
              LayoutImage {IMG} at (0,0) size 138.88x34.72 [border: (1px dashed #800000)]
              LayoutText {#text} at (0,0) size 0x0
            LayoutTableCell {TD} at (321,130) size 140x37 [r=4 c=3 rs=1 cs=1]
              LayoutText {#text} at (0,0) size 0x0
          LayoutTableRow {TR} at (0,168) size 462x37
            LayoutTableCell {TH} at (1,236) size 64x14 [bgcolor=#DDDD99] [r=5 c=0 rs=4 cs=1]
              LayoutText {#text} at (9,0) size 46x14
                text run at (9,0) width 46: "viewBox"
            LayoutTableCell {TH} at (66,186) size 113x0 [bgcolor=#DDDD99] [r=5 c=1 rs=1 cs=1]
            LayoutTableCell {TD} at (180,168) size 140x37 [r=5 c=2 rs=1 cs=1]
              LayoutImage {IMG} at (0,0) size 138.88x34.72 [border: (1px dashed #800000)]
              LayoutText {#text} at (0,0) size 0x0
            LayoutTableCell {TD} at (321,168) size 140x37 [r=5 c=3 rs=1 cs=1]
              LayoutText {#text} at (0,0) size 0x0
          LayoutTableRow {TR} at (0,206) size 462x37
            LayoutTableCell {TH} at (66,217) size 113x14 [bgcolor=#DDDD99] [r=6 c=1 rs=1 cs=1]
              LayoutText {#text} at (43,0) size 27x14
                text run at (43,0) width 27: "none"
            LayoutTableCell {TD} at (180,206) size 140x37 [r=6 c=2 rs=1 cs=1]
              LayoutImage {IMG} at (0,0) size 138.88x34.72 [border: (1px dashed #800000)]
              LayoutText {#text} at (0,0) size 0x0
            LayoutTableCell {TD} at (321,206) size 140x37 [r=6 c=3 rs=1 cs=1]
              LayoutText {#text} at (0,0) size 0x0
          LayoutTableRow {TR} at (0,244) size 462x37
            LayoutTableCell {TH} at (66,255) size 113x14 [bgcolor=#DDDD99] [r=7 c=1 rs=1 cs=1]
              LayoutText {#text} at (43,0) size 27x14
                text run at (43,0) width 27: "meet"
            LayoutTableCell {TD} at (180,244) size 140x37 [r=7 c=2 rs=1 cs=1]
              LayoutImage {IMG} at (0,0) size 138.88x34.72 [border: (1px dashed #800000)]
              LayoutText {#text} at (0,0) size 0x0
            LayoutTableCell {TD} at (321,244) size 140x37 [r=7 c=3 rs=1 cs=1]
              LayoutText {#text} at (0,0) size 0x0
          LayoutTableRow {TR} at (0,282) size 462x37
            LayoutTableCell {TH} at (66,293) size 113x14 [bgcolor=#DDDD99] [r=8 c=1 rs=1 cs=1]
              LayoutText {#text} at (44,0) size 25x14
                text run at (44,0) width 25: "slice"
            LayoutTableCell {TD} at (180,282) size 140x37 [r=8 c=2 rs=1 cs=1]
              LayoutImage {IMG} at (0,0) size 138.88x34.72 [border: (1px dashed #800000)]
              LayoutText {#text} at (0,0) size 0x0
            LayoutTableCell {TD} at (321,282) size 140x37 [r=8 c=3 rs=1 cs=1]
              LayoutText {#text} at (0,0) size 0x0
layer at (327,22) size 139x35
  LayoutEmbeddedObject {OBJECT} at (0,0) size 138.88x34.72 [border: (1px dashed #008000)]
    layer at (0,0) size 133x29
      LayoutView at (0,0) size 133x29
    layer at (0,0) size 133x29
      LayoutSVGRoot {svg} at (0,0) size 133x29
        LayoutSVGEllipse {circle} at (0,0) size 133x29 [stroke={[type=SOLID] [color=#000000]}] [fill={[type=SOLID] [color=#D9BB7A] [fill rule=EVEN-ODD]}] [cx=110.00] [cy=110.00] [r=110.00]
layer at (327,60) size 139x35
  LayoutEmbeddedObject {OBJECT} at (0,0) size 138.88x34.72 [border: (1px dashed #008000)]
    layer at (0,0) size 133x29
      LayoutView at (0,0) size 133x29
    layer at (0,0) size 133x29
      LayoutSVGRoot {svg} at (0,0) size 133x29
        LayoutSVGHiddenContainer {defs} at (0,0) size 0x0
        LayoutSVGContainer {g} at (0,0) size 133x29 [transform={m=((1.00,0.00)(0.00,1.00)) t=(-162.36,-403.29)}]
          LayoutSVGPath {path} at (0,0) size 133x29 [stroke={[type=SOLID] [color=#000000]}] [fill={[type=SOLID] [color=#D9BB7A] [fill rule=EVEN-ODD]}] [data="M 525.714 585.219 C 525.714 685.419 444.486 766.648 344.286 766.648 C 244.085 766.648 162.857 685.42 162.857 585.219 C 162.857 485.019 244.085 403.791 344.286 403.791 C 444.486 403.791 525.714 485.019 525.714 585.219 Z"]
layer at (327,98) size 139x35
  LayoutEmbeddedObject {OBJECT} at (0,0) size 138.88x34.72 [border: (1px dashed #008000)]
    layer at (0,0) size 133x29
      LayoutView at (0,0) size 133x29
    layer at (0,0) size 133x29
      LayoutSVGRoot {svg} at (0,0) size 133x29
        LayoutSVGHiddenContainer {defs} at (0,0) size 0x0
        LayoutSVGContainer {g} at (0,0) size 133x29 [transform={m=((1.00,0.00)(0.00,1.00)) t=(-162.36,-403.29)}]
          LayoutSVGPath {path} at (0,0) size 133x29 [stroke={[type=SOLID] [color=#000000]}] [fill={[type=SOLID] [color=#D9BB7A] [fill rule=EVEN-ODD]}] [data="M 525.714 585.219 C 525.714 685.419 444.486 766.648 344.286 766.648 C 244.085 766.648 162.857 685.42 162.857 585.219 C 162.857 485.019 244.085 403.791 344.286 403.791 C 444.486 403.791 525.714 485.019 525.714 585.219 Z"]
layer at (327,136) size 139x35
  LayoutEmbeddedObject {OBJECT} at (0,0) size 138.88x34.72 [border: (1px dashed #008000)]
    layer at (0,0) size 133x29
      LayoutView at (0,0) size 133x29
    layer at (0,0) size 133x29
      LayoutSVGRoot {svg} at (0,0) size 133x29
        LayoutSVGHiddenContainer {defs} at (0,0) size 0x0
        LayoutSVGContainer {g} at (0,0) size 133x29 [transform={m=((1.00,0.00)(0.00,1.00)) t=(-162.36,-403.29)}]
          LayoutSVGPath {path} at (0,0) size 133x29 [stroke={[type=SOLID] [color=#000000]}] [fill={[type=SOLID] [color=#D9BB7A] [fill rule=EVEN-ODD]}] [data="M 525.714 585.219 C 525.714 685.419 444.486 766.648 344.286 766.648 C 244.085 766.648 162.857 685.42 162.857 585.219 C 162.857 485.019 244.085 403.791 344.286 403.791 C 444.486 403.791 525.714 485.019 525.714 585.219 Z"]
layer at (327,174) size 139x35
  LayoutEmbeddedObject {OBJECT} at (0,0) size 138.88x34.72 [border: (1px dashed #008000)]
    layer at (0,0) size 133x29
      LayoutView at (0,0) size 133x29
    layer at (0,0) size 133x29
      LayoutSVGRoot {svg} at (52,0) size 22x22
        LayoutSVGHiddenContainer {defs} at (0,0) size 0x0
        LayoutSVGContainer {g} at (52,0) size 22x22 [transform={m=((1.00,0.00)(0.00,1.00)) t=(-162.36,-403.29)}]
          LayoutSVGPath {path} at (52,0) size 22x22 [stroke={[type=SOLID] [color=#000000]}] [fill={[type=SOLID] [color=#D9BB7A] [fill rule=EVEN-ODD]}] [data="M 525.714 585.219 C 525.714 685.419 444.486 766.648 344.286 766.648 C 244.085 766.648 162.857 685.42 162.857 585.219 C 162.857 485.019 244.085 403.791 344.286 403.791 C 444.486 403.791 525.714 485.019 525.714 585.219 Z"]
layer at (327,212) size 139x35
  LayoutEmbeddedObject {OBJECT} at (0,0) size 138.88x34.72 [border: (1px dashed #008000)]
    layer at (0,0) size 133x29
      LayoutView at (0,0) size 133x29
    layer at (0,0) size 133x29
      LayoutSVGRoot {svg} at (0,0) size 97x22
        LayoutSVGHiddenContainer {defs} at (0,0) size 0x0
        LayoutSVGContainer {g} at (0,0) size 97x22 [transform={m=((1.00,0.00)(0.00,1.00)) t=(-162.36,-403.29)}]
          LayoutSVGPath {path} at (0,0) size 97x22 [stroke={[type=SOLID] [color=#000000]}] [fill={[type=SOLID] [color=#D9BB7A] [fill rule=EVEN-ODD]}] [data="M 525.714 585.219 C 525.714 685.419 444.486 766.648 344.286 766.648 C 244.085 766.648 162.857 685.42 162.857 585.219 C 162.857 485.019 244.085 403.791 344.286 403.791 C 444.486 403.791 525.714 485.019 525.714 585.219 Z"]
layer at (327,250) size 139x35
  LayoutEmbeddedObject {OBJECT} at (0,0) size 138.88x34.72 [border: (1px dashed #008000)]
    layer at (0,0) size 133x29
      LayoutView at (0,0) size 133x29
    layer at (0,0) size 133x29
      LayoutSVGRoot {svg} at (52,0) size 22x22
        LayoutSVGHiddenContainer {defs} at (0,0) size 0x0
        LayoutSVGContainer {g} at (52,0) size 22x22 [transform={m=((1.00,0.00)(0.00,1.00)) t=(-162.36,-403.29)}]
          LayoutSVGPath {path} at (52,0) size 22x22 [stroke={[type=SOLID] [color=#000000]}] [fill={[type=SOLID] [color=#D9BB7A] [fill rule=EVEN-ODD]}] [data="M 525.714 585.219 C 525.714 685.419 444.486 766.648 344.286 766.648 C 244.085 766.648 162.857 685.42 162.857 585.219 C 162.857 485.019 244.085 403.791 344.286 403.791 C 444.486 403.791 525.714 485.019 525.714 585.219 Z"]
layer at (327,288) size 139x35
  LayoutEmbeddedObject {OBJECT} at (0,0) size 138.88x34.72 [border: (1px dashed #008000)]
    layer at (0,0) size 133x29
      LayoutView at (0,0) size 133x29
    layer at (0,0) size 133x29
      LayoutSVGRoot {svg} at (0,0) size 97x29
        LayoutSVGHiddenContainer {defs} at (0,0) size 0x0
        LayoutSVGContainer {g} at (0,0) size 97x29 [transform={m=((1.00,0.00)(0.00,1.00)) t=(-162.36,-403.29)}]
          LayoutSVGPath {path} at (0,0) size 97x29 [stroke={[type=SOLID] [color=#000000]}] [fill={[type=SOLID] [color=#D9BB7A] [fill rule=EVEN-ODD]}] [data="M 525.714 585.219 C 525.714 685.419 444.486 766.648 344.286 766.648 C 244.085 766.648 162.857 685.42 162.857 585.219 C 162.857 485.019 244.085 403.791 344.286 403.791 C 444.486 403.791 525.714 485.019 525.714 585.219 Z"]
