layer at (0,0) size 800x600
  LayoutView at (0,0) size 800x600
layer at (0,0) size 800x600
  LayoutBlockFlow {HTML} at (0,0) size 800x600
    LayoutBlockFlow {BODY} at (8,8) size 784x584
      LayoutText {#text} at (0,0) size 731x17
        text run at (0,0) width 731: "The select item below has a label specified, and no enclosed text. There should be no text shown in the select box."
      LayoutBR {BR} at (730,14) size 1x0
      LayoutMenuList {SELECT} at (0,18) size 25x20 [bgcolor=#FFFFFF] [border: (1px solid #A9A9A9)]
        LayoutBlockFlow (anonymous) at (1,1) size 23x18
          LayoutBR at (4,1) size 0x16 [bgcolor=#FFFFFF]
      LayoutText {#text} at (0,0) size 0x0
