layer at (0,0) size 800x600
  LayoutView at (0,0) size 800x600
layer at (0,0) size 800x600
  LayoutBlockFlow {HTML} at (0,0) size 800x600
    LayoutBlockFlow {BODY} at (8,8) size 784x576
      LayoutBlockFlow {P} at (0,0) size 784x36
        LayoutText {#text} at (0,0) size 108x17
          text run at (0,0) width 108: "This is a test for "
        LayoutInline {I} at (0,0) size 769x35
          LayoutText {#text} at (107,0) size 769x35
            text run at (107,0) width 662: "http://bugzilla.opendarwin.org/show_bug.cgi?id=6139 ATSUI code path should implement small caps,"
            text run at (0,18) width 412: "synthetic bold and oblique and correct metrics for fallback fonts"
        LayoutText {#text} at (411,18) size 5x17
          text run at (411,18) width 5: "."
      LayoutBlockFlow {HR} at (0,52) size 784x2 [border: (1px inset #EEEEEE)]
      LayoutBlockFlow {P} at (0,70) size 784x18
        LayoutText {#text} at (0,0) size 611x17
          text run at (0,0) width 611: "The two columns should be identical except for the accent over the e and the umlaut over the u."
      LayoutTable {TABLE} at (0,104) size 239x131 [border: none]
        LayoutTableSection {TBODY} at (0,0) size 238x130
          LayoutTableRow {TR} at (0,0) size 238x26
            LayoutTableCell {TD} at (0,0) size 119x26 [border: (1px solid #008000)] [r=0 c=0 rs=1 cs=1]
              LayoutText {#text} at (2,2) size 59x22
                text run at (2,2) width 59: "Lore\x{300}m "
              LayoutInline {SPAN} at (0,0) size 50x22
                LayoutText {#text} at (60,2) size 50x22
                  text run at (60,2) width 50: "ipsu\x{308}m"
              LayoutText {#text} at (0,0) size 0x0
            LayoutTableCell {TD} at (119,0) size 119x26 [border: (1px solid #008000)] [r=0 c=1 rs=1 cs=1]
              LayoutText {#text} at (2,2) size 59x22
                text run at (2,2) width 59: "Lorem "
              LayoutInline {SPAN} at (0,0) size 50x22
                LayoutText {#text} at (60,2) size 50x22
                  text run at (60,2) width 50: "ipsum"
              LayoutText {#text} at (0,0) size 0x0
          LayoutTableRow {TR} at (0,26) size 238x26
            LayoutTableCell {TD} at (0,26) size 119x26 [border: (1px solid #008000)] [r=1 c=0 rs=1 cs=1]
              LayoutText {#text} at (2,2) size 63x22
                text run at (2,2) width 63: "Lore\x{300}m "
              LayoutInline {SPAN} at (0,0) size 53x22
                LayoutText {#text} at (64,2) size 53x22
                  text run at (64,2) width 53: "ipsu\x{308}m"
              LayoutText {#text} at (0,0) size 0x0
            LayoutTableCell {TD} at (119,26) size 119x26 [border: (1px solid #008000)] [r=1 c=1 rs=1 cs=1]
              LayoutText {#text} at (2,2) size 63x22
                text run at (2,2) width 63: "Lorem "
              LayoutInline {SPAN} at (0,0) size 53x22
                LayoutText {#text} at (64,2) size 53x22
                  text run at (64,2) width 53: "ipsum"
              LayoutText {#text} at (0,0) size 0x0
          LayoutTableRow {TR} at (0,52) size 238x26
            LayoutTableCell {TD} at (0,52) size 119x26 [border: (1px solid #008000)] [r=2 c=0 rs=1 cs=1]
              LayoutText {#text} at (2,2) size 58x22
                text run at (2,2) width 58: "Lore\x{300}m "
              LayoutInline {SPAN} at (0,0) size 49x22
                LayoutText {#text} at (59,2) size 49x22
                  text run at (59,2) width 49: "ipsu\x{308}m"
              LayoutText {#text} at (0,0) size 0x0
            LayoutTableCell {TD} at (119,52) size 119x26 [border: (1px solid #008000)] [r=2 c=1 rs=1 cs=1]
              LayoutText {#text} at (2,2) size 58x22
                text run at (2,2) width 58: "Lorem "
              LayoutInline {SPAN} at (0,0) size 49x22
                LayoutText {#text} at (59,2) size 49x22
                  text run at (59,2) width 49: "ipsum"
              LayoutText {#text} at (0,0) size 0x0
          LayoutTableRow {TR} at (0,78) size 238x26
            LayoutTableCell {TD} at (0,78) size 119x26 [border: (1px solid #008000)] [r=3 c=0 rs=1 cs=1]
              LayoutText {#text} at (2,2) size 60x22
                text run at (2,2) width 60: "Lore\x{300}m "
              LayoutInline {SPAN} at (0,0) size 51x22
                LayoutText {#text} at (61,2) size 51x22
                  text run at (61,2) width 51: "ipsu\x{308}m"
              LayoutText {#text} at (0,0) size 0x0
            LayoutTableCell {TD} at (119,78) size 119x26 [border: (1px solid #008000)] [r=3 c=1 rs=1 cs=1]
              LayoutText {#text} at (2,2) size 60x22
                text run at (2,2) width 60: "Lorem "
              LayoutInline {SPAN} at (0,0) size 51x22
                LayoutText {#text} at (61,2) size 51x22
                  text run at (61,2) width 51: "ipsum"
              LayoutText {#text} at (0,0) size 0x0
          LayoutTableRow {TR} at (0,104) size 238x26
            LayoutTableCell {TD} at (0,104) size 119x26 [border: (1px solid #008000)] [r=4 c=0 rs=1 cs=1]
              LayoutText {#text} at (2,2) size 101x22
                text run at (2,2) width 101: "Lore\x{300}m ipsu\x{308}m"
            LayoutTableCell {TD} at (119,104) size 119x26 [border: (1px solid #008000)] [r=4 c=1 rs=1 cs=1]
              LayoutText {#text} at (2,2) size 101x22
                text run at (2,2) width 101: "Lorem ipsum"
      LayoutBlockFlow {HR} at (0,243) size 784x2 [border: (1px inset #EEEEEE)]
      LayoutBlockFlow {P} at (0,261) size 784x18
        LayoutText {#text} at (0,0) size 283x17
          text run at (0,0) width 283: "The following two lines should be identical."
      LayoutBlockFlow {P} at (0,295) size 784x23
        LayoutInline {SPAN} at (0,0) size 349x22 [border: (1px solid #008000)]
          LayoutText {#text} at (1,2) size 347x20
            text run at (1,2) width 347: "\x{E01}\x{E02}\x{E03}\x{E04}\x{E05}\x{E06}\x{E07}\x{E08}\x{E01}\x{E02}\x{E03}\x{E04}\x{E05}\x{E06}\x{E07}\x{E08}\x{E01}\x{E02}\x{E03}\x{E04}\x{E05}\x{E06}\x{E07}\x{E08}\x{E01}\x{E02}\x{E03}\x{E04}\x{E05}\x{E06}\x{E07}\x{E08}"
        LayoutText {#text} at (0,0) size 0x0
      LayoutBlockFlow {P} at (0,334) size 784x23
        LayoutInline {SPAN} at (0,0) size 349x22 [border: (1px solid #008000)]
          LayoutText {#text} at (1,2) size 347x20
            text run at (1,2) width 347: "\x{E01}\x{E02}\x{E03}\x{E04}\x{E05}\x{E06}\x{E07}\x{E08}\x{E01}\x{E02}\x{E03}\x{E04}\x{E05}\x{E06}\x{E07}\x{E08}\x{E01}\x{E02}\x{E03}\x{E04}\x{E05}\x{E06}\x{E07}\x{E08}\x{E01}\x{E02}\x{E03}\x{E04}\x{E05}\x{E06}\x{E07}\x{E08}"
        LayoutText {#text} at (0,0) size 0x0
