layer at (0,0) size 800x600
  LayoutView at (0,0) size 800x600
layer at (0,0) size 800x294
  LayoutBlockFlow {HTML} at (0,0) size 800x294
    LayoutBlockFlow {BODY} at (8,16) size 784x262 [color=#0000FF]
      LayoutBlockFlow {P} at (0,0) size 784x49
        LayoutText {#text} at (0,21) size 489x17
          text run at (0,21) width 489: "There should be a solid blue line to the left of every occurance of the word \""
        LayoutInline {SPAN} at (0,0) size 136x36 [border: none (2px solid #0000FF)]
          LayoutText {#text} at (490,6) size 134x36
            text run at (490,6) width 134: "\x{21E6}THERE"
        LayoutText {#text} at (623,21) size 11x17
          text run at (623,21) width 11: "\"."
      LayoutTable {TABLE} at (0,65) size 290x163
        LayoutTableSection {TBODY} at (0,0) size 290x163
          LayoutTableRow {TR} at (0,2) size 290x51
            LayoutTableCell {TD} at (2,2) size 286x51 [border: none (2px solid #0000FF)] [r=0 c=0 rs=1 cs=2]
              LayoutText {#text} at (3,7) size 134x36
                text run at (3,7) width 134: "\x{21E6}THERE"
          LayoutTableRow {TR} at (0,55) size 290x106
            LayoutTableCell {TD} at (2,82) size 138x51 [border: none (2px solid #0000FF)] [r=1 c=0 rs=1 cs=1]
              LayoutText {#text} at (3,7) size 134x36
                text run at (3,7) width 134: "\x{21E6}THERE"
            LayoutTableCell {TD} at (142,55) size 146x106 [border: none (2px solid #0000FF)] [r=1 c=1 rs=1 cs=1]
              LayoutBlockFlow (anonymous) at (3,1) size 142x49
                LayoutText {#text} at (0,6) size 134x36
                  text run at (0,6) width 134: "\x{21E6}THERE"
              LayoutTable {TABLE} at (3,50) size 142x55
                LayoutTableSection {TBODY} at (0,0) size 142x55
                  LayoutTableRow {TR} at (0,2) size 142x51
                    LayoutTableCell {TD} at (2,2) size 138x51 [border: none (2px solid #0000FF)] [r=0 c=0 rs=1 cs=1]
                      LayoutText {#text} at (3,7) size 134x36
                        text run at (3,7) width 134: "\x{21E6}THERE"
      LayoutBlockFlow {P} at (0,244) size 784x18
        LayoutText {#text} at (0,0) size 344x17
          text run at (0,0) width 344: "There should be 3 short lines and 2 long lines in total."
