layer at (0,0) size 800x600
  LayoutView at (0,0) size 800x600
layer at (0,0) size 800x484
  LayoutBlockFlow {HTML} at (0,0) size 800x484
    LayoutBlockFlow {BODY} at (8,16) size 784x452
      LayoutBlockFlow {P} at (0,0) size 784x54 [color=#000080]
        LayoutText {#text} at (0,0) size 784x53
          text run at (0,0) width 416: "The big coloured boxes should be level with the top of the small "
          text run at (415,0) width 337: "coloured boxes of the same color (unless there is not"
          text run at (0,18) width 89: "enough room "
          text run at (88,18) width 401: "for the big box to fit on the small box's line, in which case the "
          text run at (488,18) width 296: "big box should be level with the bottom of the"
          text run at (0,36) width 108: "respective small "
          text run at (107,36) width 34: "box)."
      LayoutBlockFlow {DIV} at (16,70) size 752x382 [color=#C0C0C0] [border: (5px solid #800080)]
        LayoutText {#text} at (133,22) size 486x17
          text run at (133,22) width 486: "dummy text dummy text dummy text dummy text dummy text dummy text "
        LayoutInline {SPAN} at (0,0) size 22x23 [color=#FFFFFF] [bgcolor=#008080] [border: (3px solid #00FFFF)]
          LayoutText {#text} at (621,22) size 16x17
            text run at (621,22) width 16: "\x{21E6}"
        LayoutText {#text} at (639,22) size 5x17
          text run at (639,22) width 5: " "
        LayoutImage {IMG} at (21,21) size 112x112 [color=#FF0000]
        LayoutText {#text} at (643,22) size 588x37
          text run at (643,22) width 78: "dummy text"
          text run at (133,42) width 405: "dummy text dummy text dummy text dummy text dummy text "
        LayoutInline {SPAN} at (0,0) size 22x23 [color=#FFFFFF] [bgcolor=#800080] [border: (3px solid #FF00FF)]
          LayoutText {#text} at (540,42) size 16x17
            text run at (540,42) width 16: "\x{21E8}"
        LayoutText {#text} at (558,42) size 5x17
          text run at (558,42) width 5: " "
        LayoutImage {IMG} at (619,41) size 112x112 [color=#FF0000]
        LayoutText {#text} at (562,42) size 696x317
          text run at (562,42) width 50: "dummy"
          text run at (133,62) width 433: "text dummy text dummy text dummy text dummy text dummy text "
          text run at (565,62) width 50: "dummy"
          text run at (133,82) width 433: "text dummy text dummy text dummy text dummy text dummy text "
          text run at (565,82) width 50: "dummy"
          text run at (133,102) width 433: "text dummy text dummy text dummy text dummy text dummy text "
          text run at (565,102) width 50: "dummy"
          text run at (133,122) width 433: "text dummy text dummy text dummy text dummy text dummy text "
          text run at (565,122) width 50: "dummy"
          text run at (21,142) width 433: "text dummy text dummy text dummy text dummy text dummy text "
          text run at (453,142) width 159: "dummy text dummy text"
          text run at (21,162) width 324: "dummy text dummy text dummy text dummy text "
          text run at (344,162) width 373: "dummy text dummy text dummy text dummy text dummy"
          text run at (21,182) width 109: "text dummy text "
          text run at (129,182) width 487: "dummy text dummy text dummy text dummy text dummy text dummy text "
          text run at (615,182) width 78: "dummy text"
          text run at (21,202) width 405: "dummy text dummy text dummy text dummy text dummy text "
          text run at (425,202) width 292: "dummy text dummy text dummy text dummy"
          text run at (21,222) width 190: "text dummy text dummy text "
          text run at (210,222) width 483: "dummy text dummy text dummy text dummy text dummy text dummy text"
          text run at (21,242) width 486: "dummy text dummy text dummy text dummy text dummy text dummy text "
          text run at (506,242) width 211: "dummy text dummy text dummy"
          text run at (21,262) width 271: "text dummy text dummy text dummy text "
          text run at (291,262) width 402: "dummy text dummy text dummy text dummy text dummy text"
          text run at (21,282) width 81: "dummy text "
          text run at (101,282) width 487: "dummy text dummy text dummy text dummy text dummy text dummy text "
          text run at (587,282) width 130: "dummy text dummy"
          text run at (21,302) width 352: "text dummy text dummy text dummy text dummy text "
          text run at (372,302) width 321: "dummy text dummy text dummy text dummy text"
          text run at (21,322) width 162: "dummy text dummy text "
          text run at (182,322) width 487: "dummy text dummy text dummy text dummy text dummy text dummy text "
          text run at (668,322) width 49: "dummy"
          text run at (21,342) width 429: "text dummy text dummy text dummy text dummy text dummy text"
