layer at (0,0) size 800x600
  LayoutView at (0,0) size 800x600
layer at (0,0) size 800x94
  LayoutBlockFlow {HTML} at (0,0) size 800x94
    LayoutBlockFlow {BODY} at (8,16) size 784x70
      LayoutBlockFlow {P} at (0,0) size 784x18
        LayoutText {#text} at (0,0) size 237x17
          text run at (0,0) width 237: "The following two lines should look "
        LayoutInline {EM} at (0,0) size 93x17
          LayoutText {#text} at (236,0) size 93x17
            text run at (236,0) width 93: "approximately"
        LayoutText {#text} at (328,0) size 66x17
          text run at (328,0) width 66: " the same:"
      LayoutBlockFlow {DIV} at (0,34) size 784x18
        LayoutInline {SPAN} at (0,0) size 6x17
          LayoutInline {<pseudo:before>} at (0,0) size 6x17
            LayoutCounter at (0,0) size 6x17
              text run at (0,0) width 6: "\x{2022}"
        LayoutText {#text} at (5,0) size 5x17
          text run at (5,0) width 5: " "
        LayoutInline {SPAN} at (0,0) size 7x17
          LayoutInline {<pseudo:before>} at (0,0) size 7x17
            LayoutCounter at (9,0) size 7x17
              text run at (9,0) width 7: "\x{2022}"
        LayoutText {#text} at (15,0) size 5x17
          text run at (15,0) width 5: " "
        LayoutInline {SPAN} at (0,0) size 6x17
          LayoutInline {<pseudo:before>} at (0,0) size 6x17
            LayoutCounter at (19,0) size 6x17
              text run at (19,0) width 6: "\x{2022}"
        LayoutText {#text} at (24,0) size 5x17
          text run at (24,0) width 5: " "
        LayoutInline {SPAN} at (0,0) size 7x17
          LayoutInline {<pseudo:before>} at (0,0) size 7x17
            LayoutCounter at (28,0) size 7x17
              text run at (28,0) width 7: "\x{2022}"
        LayoutText {#text} at (34,0) size 5x17
          text run at (34,0) width 5: " "
        LayoutInline {SPAN} at (0,0) size 7x17
          LayoutInline {<pseudo:before>} at (0,0) size 7x17
            LayoutCounter at (38,0) size 7x17
              text run at (38,0) width 7: "\x{2022}"
        LayoutText {#text} at (44,0) size 5x17
          text run at (44,0) width 5: " "
        LayoutInline {SPAN} at (0,0) size 6x17
          LayoutInline {<pseudo:before>} at (0,0) size 6x17
            LayoutCounter at (48,0) size 6x17
              text run at (48,0) width 6: "\x{2022}"
        LayoutText {#text} at (53,0) size 5x17
          text run at (53,0) width 5: " "
        LayoutInline {SPAN} at (0,0) size 7x17
          LayoutInline {<pseudo:before>} at (0,0) size 7x17
            LayoutCounter at (57,0) size 7x17
              text run at (57,0) width 7: "\x{2022}"
        LayoutText {#text} at (63,0) size 5x17
          text run at (63,0) width 5: " "
        LayoutInline {SPAN} at (0,0) size 6x17
          LayoutInline {<pseudo:before>} at (0,0) size 6x17
            LayoutCounter at (67,0) size 6x17
              text run at (67,0) width 6: "\x{2022}"
        LayoutText {#text} at (72,0) size 5x17
          text run at (72,0) width 5: " "
        LayoutInline {SPAN} at (0,0) size 7x17
          LayoutInline {<pseudo:before>} at (0,0) size 7x17
            LayoutCounter at (76,0) size 7x17
              text run at (76,0) width 7: "\x{2022}"
        LayoutText {#text} at (82,0) size 5x17
          text run at (82,0) width 5: " "
        LayoutInline {SPAN} at (0,0) size 7x17
          LayoutInline {<pseudo:before>} at (0,0) size 7x17
            LayoutCounter at (86,0) size 7x17
              text run at (86,0) width 7: "\x{2022}"
        LayoutText {#text} at (92,0) size 5x17
          text run at (92,0) width 5: " "
        LayoutInline {SPAN} at (0,0) size 6x17
          LayoutInline {<pseudo:before>} at (0,0) size 6x17
            LayoutCounter at (96,0) size 6x17
              text run at (96,0) width 6: "\x{2022}"
        LayoutText {#text} at (101,0) size 5x17
          text run at (101,0) width 5: " "
        LayoutInline {SPAN} at (0,0) size 7x17
          LayoutInline {<pseudo:before>} at (0,0) size 7x17
            LayoutCounter at (105,0) size 7x17
              text run at (105,0) width 7: "\x{2022}"
        LayoutText {#text} at (0,0) size 0x0
      LayoutBlockFlow {DIV} at (0,52) size 784x18
        LayoutText {#text} at (0,0) size 112x17
          text run at (0,0) width 10: "\x{2022} "
          text run at (9,0) width 11: "\x{2022} "
          text run at (19,0) width 10: "\x{2022} "
          text run at (28,0) width 11: "\x{2022} "
          text run at (38,0) width 11: "\x{2022} "
          text run at (48,0) width 10: "\x{2022} "
          text run at (57,0) width 11: "\x{2022} "
          text run at (67,0) width 10: "\x{2022} "
          text run at (76,0) width 11: "\x{2022} "
          text run at (86,0) width 11: "\x{2022} "
          text run at (96,0) width 10: "\x{2022} "
          text run at (105,0) width 7: "\x{2022}"
