layer at (0,0) size 480x360
  LayoutView at (0,0) size 480x360
layer at (0,0) size 480x360
  LayoutSVGRoot {svg} at (0,0) size 480x360
    LayoutSVGContainer {g} at (38,2) size 394x291
      LayoutSVGText {text} at (150,2) size 180x17 contains 1 chunk(s)
        LayoutSVGInlineText {#text} at (0,0) size 179x17
          chunk 1 (middle anchor) text run 1 at (150.69,16.00) startOffset 0 endOffset 27 width 178.62: "Filter Effect: feMorphology"
      LayoutSVGContainer {g} at (38,22) size 394x271 [transform={m=((1.00,0.00)(0.00,1.00)) t=(0.00,-6.00)}]
        LayoutSVGHiddenContainer {defs} at (0,0) size 0x0
          LayoutSVGResourceFilter {filter} [id="erode1"] [filterUnits=objectBoundingBox] [primitiveUnits=userSpaceOnUse]
            [feMorphology operator="ERODE" radius="1.00, 1.00"]
              [SourceGraphic]
          LayoutSVGResourceFilter {filter} [id="erode2"] [filterUnits=objectBoundingBox] [primitiveUnits=userSpaceOnUse]
            [feMorphology operator="ERODE" radius="2.00, 2.00"]
              [SourceGraphic]
          LayoutSVGResourceFilter {filter} [id="dilate1"] [filterUnits=objectBoundingBox] [primitiveUnits=userSpaceOnUse]
            [feMorphology operator="DILATE" radius="1.00, 1.00"]
              [SourceGraphic]
          LayoutSVGResourceFilter {filter} [id="dilate2"] [filterUnits=objectBoundingBox] [primitiveUnits=userSpaceOnUse]
            [feMorphology operator="DILATE" radius="3.00, 3.00"]
              [SourceGraphic]
          LayoutSVGContainer {g} at (0,0) size 149x118
            LayoutSVGContainer {g} at (0,0) size 149x118
              LayoutSVGContainer {g} at (0,0) size 149x118
                LayoutSVGPath {path} at (0,3) size 85x73 [stroke={[type=SOLID] [color=#6666FF] [stroke width=7.17]}] [fill={[type=SOLID] [color=#FFFFFF]}] [data="M 81.403 78.289 L 3.585 78.289 L 3.585 13.539 L 81.403 13.539 L 81.403 78.289 Z"]
                LayoutSVGPath {path} at (6,25) size 91x93 [stroke={[type=SOLID] [color=#00FF00] [stroke width=7.17]}] [data="M 93.261 77.536 C 93.261 100.821 74.68 119.699 51.758 119.699 C 28.837 119.699 10.255 100.822 10.255 77.536 C 10.255 54.25 28.837 35.373 51.758 35.373 C 74.68 35.373 93.261 54.25 93.261 77.536 Z"]
                LayoutSVGPath {path} at (47,14) size 102x99 [stroke={[type=SOLID] [color=#FF0000] [stroke width=7.17]}] [data="M 98.31 28.445 L 111.598 55.799 L 141.312 60.184 L 119.811 81.476 L 124.887 111.54 L 98.31 97.347 L 71.733 111.541 L 76.809 81.477 L 55.307 60.184 L 85.021 55.799 L 98.31 28.445 Z"]
                LayoutSVGPath {path} at (36,0) size 100x76 [stroke={[type=SOLID] [color=#FFFF00] [stroke width=7.17]}] [data="M 131.563 26.338 C 131.563 54.897 108.773 78.047 80.662 78.047 C 58.173 78.047 39.942 59.526 39.942 36.68 C 39.942 18.402 54.526 3.585 72.518 3.585 C 86.912 3.585 98.579 15.439 98.579 30.06 C 98.579 41.758 89.245 51.241 77.73 51.241 C 68.519 51.241 61.05 43.655 61.05 34.297 C 61.05 26.811 67.025 20.742 74.394 20.742 C 80.289 20.742 85.068 25.597 85.068 31.586 C 85.068 36.377 81.245 40.262 76.528 40.262 C 72.755 40.262 69.696 37.155 69.696 33.321"]
        LayoutSVGContainer {g} at (38,22) size 394x271
          LayoutSVGContainer {g} at (38,22) size 139x131
            LayoutSVGContainer {use} at (38,22) size 139x117 [transform={m=((1.00,0.00)(0.00,1.00)) t=(35.00,25.00)}]
              [filter="erode1"] LayoutSVGResourceFilter {filter} at (3.59,3.58) size 137.73x116.11
              LayoutSVGContainer {g} at (34,18) size 150x125
                LayoutSVGContainer {g} at (34,18) size 150x125
                  LayoutSVGContainer {g} at (34,18) size 150x125
                    LayoutSVGPath {path} at (34,28) size 86x73 [stroke={[type=SOLID] [color=#6666FF] [stroke width=7.17]}] [fill={[type=SOLID] [color=#FFFFFF]}] [data="M 81.403 78.289 L 3.585 78.289 L 3.585 13.539 L 81.403 13.539 L 81.403 78.289 Z"]
                    LayoutSVGPath {path} at (41,50) size 91x93 [stroke={[type=SOLID] [color=#00FF00] [stroke width=7.17]}] [data="M 93.261 77.536 C 93.261 100.821 74.68 119.699 51.758 119.699 C 28.837 119.699 10.255 100.822 10.255 77.536 C 10.255 54.25 28.837 35.373 51.758 35.373 C 74.68 35.373 93.261 54.25 93.261 77.536 Z"]
                    LayoutSVGPath {path} at (82,39) size 102x99 [stroke={[type=SOLID] [color=#FF0000] [stroke width=7.17]}] [data="M 98.31 28.445 L 111.598 55.799 L 141.312 60.184 L 119.811 81.476 L 124.887 111.54 L 98.31 97.347 L 71.733 111.541 L 76.809 81.477 L 55.307 60.184 L 85.021 55.799 L 98.31 28.445 Z"]
                    LayoutSVGPath {path} at (71,18) size 100x83 [stroke={[type=SOLID] [color=#FFFF00] [stroke width=7.17]}] [data="M 131.563 26.338 C 131.563 54.897 108.773 78.047 80.662 78.047 C 58.173 78.047 39.942 59.526 39.942 36.68 C 39.942 18.402 54.526 3.585 72.518 3.585 C 86.912 3.585 98.579 15.439 98.579 30.06 C 98.579 41.758 89.245 51.241 77.73 51.241 C 68.519 51.241 61.05 43.655 61.05 34.297 C 61.05 26.811 67.025 20.742 74.394 20.742 C 80.289 20.742 85.068 25.597 85.068 31.586 C 85.068 36.377 81.245 40.262 76.528 40.262 C 72.755 40.262 69.696 37.155 69.696 33.321"]
            LayoutSVGText {text} at (43,142) size 134x17 contains 1 chunk(s)
              LayoutSVGInlineText {#text} at (0,0) size 133x17
                chunk 1 (middle anchor) text run 1 at (43.89,156.00) startOffset 0 endOffset 19 width 132.23: "type=erode radius=1"
          LayoutSVGContainer {g} at (293,22) size 139x131 [transform={m=((1.00,0.00)(0.00,1.00)) t=(255.00,0.00)}]
            LayoutSVGContainer {use} at (293,22) size 139x117 [transform={m=((1.00,0.00)(0.00,1.00)) t=(35.00,25.00)}]
              [filter="erode2"] LayoutSVGResourceFilter {filter} at (3.59,3.58) size 137.73x116.11
              LayoutSVGContainer {g} at (289,18) size 150x125
                LayoutSVGContainer {g} at (289,18) size 150x125
                  LayoutSVGContainer {g} at (289,18) size 150x125
                    LayoutSVGPath {path} at (289,28) size 86x73 [stroke={[type=SOLID] [color=#6666FF] [stroke width=7.17]}] [fill={[type=SOLID] [color=#FFFFFF]}] [data="M 81.403 78.289 L 3.585 78.289 L 3.585 13.539 L 81.403 13.539 L 81.403 78.289 Z"]
                    LayoutSVGPath {path} at (296,50) size 91x93 [stroke={[type=SOLID] [color=#00FF00] [stroke width=7.17]}] [data="M 93.261 77.536 C 93.261 100.821 74.68 119.699 51.758 119.699 C 28.837 119.699 10.255 100.822 10.255 77.536 C 10.255 54.25 28.837 35.373 51.758 35.373 C 74.68 35.373 93.261 54.25 93.261 77.536 Z"]
                    LayoutSVGPath {path} at (337,39) size 102x99 [stroke={[type=SOLID] [color=#FF0000] [stroke width=7.17]}] [data="M 98.31 28.445 L 111.598 55.799 L 141.312 60.184 L 119.811 81.476 L 124.887 111.54 L 98.31 97.347 L 71.733 111.541 L 76.809 81.477 L 55.307 60.184 L 85.021 55.799 L 98.31 28.445 Z"]
                    LayoutSVGPath {path} at (326,18) size 100x83 [stroke={[type=SOLID] [color=#FFFF00] [stroke width=7.17]}] [data="M 131.563 26.338 C 131.563 54.897 108.773 78.047 80.662 78.047 C 58.173 78.047 39.942 59.526 39.942 36.68 C 39.942 18.402 54.526 3.585 72.518 3.585 C 86.912 3.585 98.579 15.439 98.579 30.06 C 98.579 41.758 89.245 51.241 77.73 51.241 C 68.519 51.241 61.05 43.655 61.05 34.297 C 61.05 26.811 67.025 20.742 74.394 20.742 C 80.289 20.742 85.068 25.597 85.068 31.586 C 85.068 36.377 81.245 40.262 76.528 40.262 C 72.755 40.262 69.696 37.155 69.696 33.321"]
            LayoutSVGText {text} at (43,142) size 134x17 contains 1 chunk(s)
              LayoutSVGInlineText {#text} at (0,0) size 133x17
                chunk 1 (middle anchor) text run 1 at (43.89,156.00) startOffset 0 endOffset 19 width 132.23: "type=erode radius=2"
          LayoutSVGContainer {g} at (38,162) size 139x131 [transform={m=((1.00,0.00)(0.00,1.00)) t=(0.00,140.00)}]
            LayoutSVGContainer {use} at (38,162) size 139x117 [transform={m=((1.00,0.00)(0.00,1.00)) t=(35.00,25.00)}]
              [filter="dilate1"] LayoutSVGResourceFilter {filter} at (3.59,3.58) size 137.73x116.11
              LayoutSVGContainer {g} at (34,158) size 150x125
                LayoutSVGContainer {g} at (34,158) size 150x125
                  LayoutSVGContainer {g} at (34,158) size 150x125
                    LayoutSVGPath {path} at (34,168) size 86x73 [stroke={[type=SOLID] [color=#6666FF] [stroke width=7.17]}] [fill={[type=SOLID] [color=#FFFFFF]}] [data="M 81.403 78.289 L 3.585 78.289 L 3.585 13.539 L 81.403 13.539 L 81.403 78.289 Z"]
                    LayoutSVGPath {path} at (41,190) size 91x93 [stroke={[type=SOLID] [color=#00FF00] [stroke width=7.17]}] [data="M 93.261 77.536 C 93.261 100.821 74.68 119.699 51.758 119.699 C 28.837 119.699 10.255 100.822 10.255 77.536 C 10.255 54.25 28.837 35.373 51.758 35.373 C 74.68 35.373 93.261 54.25 93.261 77.536 Z"]
                    LayoutSVGPath {path} at (82,179) size 102x99 [stroke={[type=SOLID] [color=#FF0000] [stroke width=7.17]}] [data="M 98.31 28.445 L 111.598 55.799 L 141.312 60.184 L 119.811 81.476 L 124.887 111.54 L 98.31 97.347 L 71.733 111.541 L 76.809 81.477 L 55.307 60.184 L 85.021 55.799 L 98.31 28.445 Z"]
                    LayoutSVGPath {path} at (71,158) size 100x83 [stroke={[type=SOLID] [color=#FFFF00] [stroke width=7.17]}] [data="M 131.563 26.338 C 131.563 54.897 108.773 78.047 80.662 78.047 C 58.173 78.047 39.942 59.526 39.942 36.68 C 39.942 18.402 54.526 3.585 72.518 3.585 C 86.912 3.585 98.579 15.439 98.579 30.06 C 98.579 41.758 89.245 51.241 77.73 51.241 C 68.519 51.241 61.05 43.655 61.05 34.297 C 61.05 26.811 67.025 20.742 74.394 20.742 C 80.289 20.742 85.068 25.597 85.068 31.586 C 85.068 36.377 81.245 40.262 76.528 40.262 C 72.755 40.262 69.696 37.155 69.696 33.321"]
            LayoutSVGText {text} at (43,142) size 134x17 contains 1 chunk(s)
              LayoutSVGInlineText {#text} at (0,0) size 133x17
                chunk 1 (middle anchor) text run 1 at (43.88,156.00) startOffset 0 endOffset 20 width 132.23: "type=dilate radius=1"
          LayoutSVGContainer {g} at (293,162) size 139x131 [transform={m=((1.00,0.00)(0.00,1.00)) t=(255.00,140.00)}]
            LayoutSVGContainer {use} at (293,162) size 139x117 [transform={m=((1.00,0.00)(0.00,1.00)) t=(35.00,25.00)}]
              [filter="dilate2"] LayoutSVGResourceFilter {filter} at (3.59,3.58) size 137.73x116.11
              LayoutSVGContainer {g} at (289,158) size 150x125
                LayoutSVGContainer {g} at (289,158) size 150x125
                  LayoutSVGContainer {g} at (289,158) size 150x125
                    LayoutSVGPath {path} at (289,168) size 86x73 [stroke={[type=SOLID] [color=#6666FF] [stroke width=7.17]}] [fill={[type=SOLID] [color=#FFFFFF]}] [data="M 81.403 78.289 L 3.585 78.289 L 3.585 13.539 L 81.403 13.539 L 81.403 78.289 Z"]
                    LayoutSVGPath {path} at (296,190) size 91x93 [stroke={[type=SOLID] [color=#00FF00] [stroke width=7.17]}] [data="M 93.261 77.536 C 93.261 100.821 74.68 119.699 51.758 119.699 C 28.837 119.699 10.255 100.822 10.255 77.536 C 10.255 54.25 28.837 35.373 51.758 35.373 C 74.68 35.373 93.261 54.25 93.261 77.536 Z"]
                    LayoutSVGPath {path} at (337,179) size 102x99 [stroke={[type=SOLID] [color=#FF0000] [stroke width=7.17]}] [data="M 98.31 28.445 L 111.598 55.799 L 141.312 60.184 L 119.811 81.476 L 124.887 111.54 L 98.31 97.347 L 71.733 111.541 L 76.809 81.477 L 55.307 60.184 L 85.021 55.799 L 98.31 28.445 Z"]
                    LayoutSVGPath {path} at (326,158) size 100x83 [stroke={[type=SOLID] [color=#FFFF00] [stroke width=7.17]}] [data="M 131.563 26.338 C 131.563 54.897 108.773 78.047 80.662 78.047 C 58.173 78.047 39.942 59.526 39.942 36.68 C 39.942 18.402 54.526 3.585 72.518 3.585 C 86.912 3.585 98.579 15.439 98.579 30.06 C 98.579 41.758 89.245 51.241 77.73 51.241 C 68.519 51.241 61.05 43.655 61.05 34.297 C 61.05 26.811 67.025 20.742 74.394 20.742 C 80.289 20.742 85.068 25.597 85.068 31.586 C 85.068 36.377 81.245 40.262 76.528 40.262 C 72.755 40.262 69.696 37.155 69.696 33.321"]
            LayoutSVGText {text} at (43,142) size 134x17 contains 1 chunk(s)
              LayoutSVGInlineText {#text} at (0,0) size 133x17
                chunk 1 (middle anchor) text run 1 at (43.88,156.00) startOffset 0 endOffset 20 width 132.23: "type=dilate radius=3"
    LayoutSVGText {text} at (10,304) size 264x45 contains 1 chunk(s)
      LayoutSVGInlineText {#text} at (0,0) size 264x45
        chunk 1 text run 1 at (10.00,340.00) startOffset 0 endOffset 16 width 263.34: "$Revision: 1.6 $"
    LayoutSVGRect {rect} at (0,0) size 480x360 [stroke={[type=SOLID] [color=#000000]}] [x=1.00] [y=1.00] [width=478.00] [height=358.00]
