layer at (0,0) size 800x600
  LayoutView at (0,0) size 800x600
layer at (0,0) size 800x600
  LayoutSVGRoot {svg} at (0,0) size 463x154
    LayoutSVGHiddenContainer {defs} at (0,0) size 0x0
      LayoutSVGResourceClipper {clipPath} [id="nothing"] [clipPathUnits=userSpaceOnUse]
      LayoutSVGResourceClipper {clipPath} [id="emptyrect"] [clipPathUnits=userSpaceOnUse]
        LayoutSVGRect {rect} at (0,0) size 0x0 [fill={[type=SOLID] [color=#000000]}] [x=0.00] [y=0.00] [width=0.00] [height=0.00]
    LayoutSVGRect {rect} at (0,0) size 100x100 [fill={[type=SOLID] [color=#008000]}] [x=0.00] [y=0.00] [width=100.00] [height=100.00]
    LayoutSVGContainer {g} at (0,0) size 0x0
      [clipPath="nothing"] LayoutSVGResourceClipper {clipPath} at (0,0) size 0x0
      LayoutSVGRect {rect} at (0,0) size 100x100 [fill={[type=SOLID] [color=#FF0000]}] [x=0.00] [y=0.00] [width=100.00] [height=100.00]
    LayoutSVGContainer {g} at (0,0) size 0x0
      [clipPath="emptyrect"] LayoutSVGResourceClipper {clipPath} at (0,0) size 0x0
      LayoutSVGRect {rect} at (0,0) size 100x100 [fill={[type=SOLID] [color=#FF0000]}] [x=0.00] [y=0.00] [width=100.00] [height=100.00]
    LayoutSVGContainer {g} at (0,116) size 463x38
      LayoutSVGText {text} at (0,116) size 292x18 contains 1 chunk(s)
        LayoutSVGInlineText {#text} at (0,0) size 292x18
          chunk 1 text run 1 at (0.00,130.00) startOffset 0 endOffset 44 width 291.01: "Above a green rectangle should be displayed."
      LayoutSVGText {text} at (0,136) size 463x18 contains 1 chunk(s)
        LayoutSVGInlineText {#text} at (0,0) size 463x18
          chunk 1 text run 1 at (0.00,150.00) startOffset 0 endOffset 74 width 462.09: "It tests that an empty clip path clips the referencing graphic. Bug 15289."
