{
  "bounds": [800, 600],
  "children": [
    {
      "bounds": [800, 600],
      "contentsOpaque": true,
      "drawsContent": true,
      "repaintRects": [
        [37, 11, 9, 16],
        [10, 11, 149, 16],
        [8, 298, 10, 10],
        [8, 288, 10, 20]
      ]
    }
  ]
}

