layer at (0,0) size 800x600
  LayoutView at (0,0) size 800x600
layer at (0,0) size 450x500
  LayoutSVGRoot {svg} at (0,0) size 448x498
    LayoutSVGHiddenContainer {defs} at (0,0) size 0x0
      LayoutSVGText {text} at (-23,-14) size 46x17 contains 1 chunk(s)
        LayoutSVGInlineText {#text} at (0,0) size 46x17
          chunk 1 (middle anchor) text run 1 at (-22.66,0.00) startOffset 0 endOffset 6 width 45.32: "sample"
    LayoutSVGContainer {g} at (31,36) size 383x392
      LayoutSVGText {text} at (136,36) size 178x17 contains 1 chunk(s)
        LayoutSVGInlineText {#text} at (0,0) size 178x17
          chunk 1 (middle anchor) text run 1 at (136.00,50.00) startOffset 0 endOffset 26 width 178.00: "Text Font Faces and Styles"
      LayoutSVGText {text} at (184,65) size 82x12 contains 1 chunk(s)
        LayoutSVGInlineText {#text} at (0,0) size 82x12
          chunk 1 (middle anchor) text run 1 at (184.00,75.00) startOffset 0 endOffset 19 width 82.00: "Standard Font Faces"
      LayoutSVGContainer {g} at (41,83) size 118x45 [transform={m=((1.00,0.00)(0.00,1.00)) t=(100.00,110.00)}]
        LayoutSVGContainer {use} at (57,83) size 86x33
          LayoutSVGText {text} at (-43,-27) size 86x33 contains 1 chunk(s)
            LayoutSVGInlineText {#text} at (0,0) size 85x33
              chunk 1 (middle anchor) text run 1 at (-42.49,0.00) startOffset 0 endOffset 6 width 84.98: "sample"
        LayoutSVGText {text} at (-59,3) size 118x15 contains 1 chunk(s)
          LayoutSVGInlineText {#text} at (0,0) size 118x15
            chunk 1 (middle anchor) text run 1 at (-59.00,15.00) startOffset 0 endOffset 24 width 118.00: "SansSerif, normal weight"
      LayoutSVGContainer {g} at (180,83) size 90x45 [transform={m=((1.00,0.00)(0.00,1.00)) t=(225.00,110.00)}]
        LayoutSVGContainer {use} at (180,83) size 90x33
          LayoutSVGText {text} at (-45,-27) size 90x33 contains 1 chunk(s)
            LayoutSVGInlineText {#text} at (0,0) size 90x33
              chunk 1 (middle anchor) text run 1 at (-45.00,0.00) startOffset 0 endOffset 6 width 90.00: "sample"
        LayoutSVGText {text} at (-36,3) size 72x15 contains 1 chunk(s)
          LayoutSVGInlineText {#text} at (0,0) size 71x15
            chunk 1 (middle anchor) text run 1 at (-35.50,15.00) startOffset 0 endOffset 15 width 71.00: "SansSerif, bold"
      LayoutSVGContainer {g} at (307,83) size 86x45 [transform={m=((1.00,0.00)(0.00,1.00)) t=(350.00,110.00)}]
        LayoutSVGContainer {use} at (307,83) size 86x33
          LayoutSVGText {text} at (-43,-27) size 86x33 contains 1 chunk(s)
            LayoutSVGInlineText {#text} at (0,0) size 85x33
              chunk 1 (middle anchor) text run 1 at (-42.50,0.00) startOffset 0 endOffset 6 width 84.99: "sample"
        LayoutSVGText {text} at (-43,3) size 86x15 contains 1 chunk(s)
          LayoutSVGInlineText {#text} at (0,0) size 85x15
            chunk 1 (middle anchor) text run 1 at (-42.50,15.00) startOffset 0 endOffset 18 width 85.00: "SansSerif, oblique"
      LayoutSVGContainer {g} at (52,133) size 96x45 [transform={m=((1.00,0.00)(0.00,1.00)) t=(100.00,160.00)}]
        LayoutSVGContainer {use} at (57,133) size 86x33
          LayoutSVGText {text} at (-43,-27) size 86x33 contains 1 chunk(s)
            LayoutSVGInlineText {#text} at (0,0) size 85x33
              chunk 1 (middle anchor) text run 1 at (-42.49,0.00) startOffset 0 endOffset 6 width 84.98: "sample"
        LayoutSVGText {text} at (-48,3) size 96x15 contains 1 chunk(s)
          LayoutSVGInlineText {#text} at (0,0) size 96x15
            chunk 1 (middle anchor) text run 1 at (-48.00,15.00) startOffset 0 endOffset 20 width 96.00: "Serif, normal weight"
      LayoutSVGContainer {g} at (180,133) size 90x45 [transform={m=((1.00,0.00)(0.00,1.00)) t=(225.00,160.00)}]
        LayoutSVGContainer {use} at (180,133) size 90x33
          LayoutSVGText {text} at (-45,-27) size 90x33 contains 1 chunk(s)
            LayoutSVGInlineText {#text} at (0,0) size 90x33
              chunk 1 (middle anchor) text run 1 at (-45.00,0.00) startOffset 0 endOffset 6 width 90.00: "sample"
        LayoutSVGText {text} at (-25,3) size 50x15 contains 1 chunk(s)
          LayoutSVGInlineText {#text} at (0,0) size 49x15
            chunk 1 (middle anchor) text run 1 at (-24.50,15.00) startOffset 0 endOffset 11 width 49.00: "Serif, bold"
      LayoutSVGContainer {g} at (307,133) size 86x45 [transform={m=((1.00,0.00)(0.00,1.00)) t=(350.00,160.00)}]
        LayoutSVGContainer {use} at (307,133) size 86x33
          LayoutSVGText {text} at (-43,-27) size 86x33 contains 1 chunk(s)
            LayoutSVGInlineText {#text} at (0,0) size 85x33
              chunk 1 (middle anchor) text run 1 at (-42.50,0.00) startOffset 0 endOffset 6 width 84.99: "sample"
        LayoutSVGText {text} at (-32,3) size 64x15 contains 1 chunk(s)
          LayoutSVGInlineText {#text} at (0,0) size 63x15
            chunk 1 (middle anchor) text run 1 at (-31.50,15.00) startOffset 0 endOffset 14 width 63.00: "Serif, oblique"
      LayoutSVGContainer {g} at (31,183) size 138x45 [transform={m=((1.00,0.00)(0.00,1.00)) t=(100.00,210.00)}]
        LayoutSVGContainer {use} at (57,183) size 86x33
          LayoutSVGText {text} at (-43,-27) size 86x33 contains 1 chunk(s)
            LayoutSVGInlineText {#text} at (0,0) size 85x33
              chunk 1 (middle anchor) text run 1 at (-42.49,0.00) startOffset 0 endOffset 6 width 84.98: "sample"
        LayoutSVGText {text} at (-69,3) size 138x15 contains 1 chunk(s)
          LayoutSVGInlineText {#text} at (0,0) size 137x15
            chunk 1 (middle anchor) text run 1 at (-68.50,15.00) startOffset 0 endOffset 25 width 137.00: "Monospaced, normal weight"
      LayoutSVGContainer {g} at (180,183) size 90x45 [transform={m=((1.00,0.00)(0.00,1.00)) t=(225.00,210.00)}]
        LayoutSVGContainer {use} at (180,183) size 90x33
          LayoutSVGText {text} at (-45,-27) size 90x33 contains 1 chunk(s)
            LayoutSVGInlineText {#text} at (0,0) size 90x33
              chunk 1 (middle anchor) text run 1 at (-45.00,0.00) startOffset 0 endOffset 6 width 90.00: "sample"
        LayoutSVGText {text} at (-45,3) size 90x15 contains 1 chunk(s)
          LayoutSVGInlineText {#text} at (0,0) size 90x15
            chunk 1 (middle anchor) text run 1 at (-45.00,15.00) startOffset 0 endOffset 16 width 90.00: "Monospaced, bold"
      LayoutSVGContainer {g} at (298,183) size 104x45 [transform={m=((1.00,0.00)(0.00,1.00)) t=(350.00,210.00)}]
        LayoutSVGContainer {use} at (307,183) size 86x33
          LayoutSVGText {text} at (-43,-27) size 86x33 contains 1 chunk(s)
            LayoutSVGInlineText {#text} at (0,0) size 85x33
              chunk 1 (middle anchor) text run 1 at (-42.50,0.00) startOffset 0 endOffset 6 width 84.99: "sample"
        LayoutSVGText {text} at (-52,3) size 104x15 contains 1 chunk(s)
          LayoutSVGInlineText {#text} at (0,0) size 104x15
            chunk 1 (middle anchor) text run 1 at (-52.00,15.00) startOffset 0 endOffset 19 width 104.00: "Monospaced, oblique"
      LayoutSVGContainer {g} at (57,233) size 86x45 [transform={m=((1.00,0.00)(0.00,1.00)) t=(100.00,260.00)}]
        LayoutSVGContainer {use} at (57,233) size 86x33
          LayoutSVGText {text} at (-43,-27) size 86x33 contains 1 chunk(s)
            LayoutSVGInlineText {#text} at (0,0) size 85x33
              chunk 1 (middle anchor) text run 1 at (-42.49,0.00) startOffset 0 endOffset 6 width 84.98: "sample"
        LayoutSVGText {text} at (-21,3) size 42x15 contains 1 chunk(s)
          LayoutSVGInlineText {#text} at (0,0) size 41x15
            chunk 1 (middle anchor) text run 1 at (-20.50,15.00) startOffset 0 endOffset 9 width 41.00: "(default)"
      LayoutSVGContainer {g} at (174,233) size 102x45 [transform={m=((1.00,0.00)(0.00,1.00)) t=(225.00,260.00)}]
        LayoutSVGContainer {use} at (181,233) size 88x33
          LayoutSVGText {text} at (-44,-27) size 88x33 contains 1 chunk(s)
            LayoutSVGInlineText {#text} at (0,0) size 87x33
              chunk 1 (middle anchor) text run 1 at (-43.33,0.00) startOffset 0 endOffset 6 width 86.66: "sample"
        LayoutSVGText {text} at (-51,3) size 102x15 contains 1 chunk(s)
          LayoutSVGInlineText {#text} at (0,0) size 101x15
            chunk 1 (middle anchor) text run 1 at (-50.50,15.00) startOffset 0 endOffset 22 width 101.00: "default, bold, oblique"
      LayoutSVGContainer {g} at (288,232) size 124x46 [transform={m=((1.00,0.00)(0.00,1.00)) t=(350.00,260.00)}]
        LayoutSVGContainer {use} at (306,232) size 88x35
          LayoutSVGText {text} at (-43,-27) size 86x33 contains 1 chunk(s)
            LayoutSVGInlineText {#text} at (0,0) size 85x33
              chunk 1 (middle anchor) text run 1 at (-42.49,0.00) startOffset 0 endOffset 6 width 84.98: "sample"
        LayoutSVGText {text} at (-62,3) size 124x15 contains 1 chunk(s)
          LayoutSVGInlineText {#text} at (0,0) size 124x15
            chunk 1 (middle anchor) text run 1 at (-62.00,15.00) startOffset 0 endOffset 25 width 124.00: "stroke-width=1, fill=none"
      LayoutSVGText {text} at (181,300) size 88x12 contains 1 chunk(s)
        LayoutSVGInlineText {#text} at (0,0) size 88x12
          chunk 1 (middle anchor) text run 1 at (181.00,310.00) startOffset 0 endOffset 19 width 88.00: "Named Font Families"
      LayoutSVGText {text} at (128,315) size 194x12 contains 1 chunk(s)
        LayoutSVGInlineText {#text} at (0,0) size 194x12
          chunk 1 (middle anchor) text run 1 at (128.00,325.00) startOffset 0 endOffset 49 width 194.00: "(Not all typefaces are available on all systems.)"
      LayoutSVGContainer {g} at (57,333) size 86x45 [transform={m=((1.00,0.00)(0.00,1.00)) t=(100.00,360.00)}]
        LayoutSVGContainer {use} at (57,333) size 86x33
          LayoutSVGText {text} at (-43,-27) size 86x33 contains 1 chunk(s)
            LayoutSVGInlineText {#text} at (0,0) size 85x33
              chunk 1 (middle anchor) text run 1 at (-42.49,0.00) startOffset 0 endOffset 6 width 84.98: "sample"
        LayoutSVGText {text} at (-15,3) size 30x15 contains 1 chunk(s)
          LayoutSVGInlineText {#text} at (0,0) size 30x15
            chunk 1 (middle anchor) text run 1 at (-15.00,15.00) startOffset 0 endOffset 5 width 30.00: "Times"
      LayoutSVGContainer {g} at (171,330) size 108x48 [transform={m=((1.00,0.00)(0.00,1.00)) t=(225.00,360.00)}]
        LayoutSVGContainer {use} at (171,330) size 108x36
          LayoutSVGText {text} at (-54,-30) size 108x36 contains 1 chunk(s)
            LayoutSVGInlineText {#text} at (0,0) size 108x36
              chunk 1 (middle anchor) text run 1 at (-53.81,0.00) startOffset 0 endOffset 6 width 107.62: "sample"
        LayoutSVGText {text} at (-20,3) size 40x15 contains 1 chunk(s)
          LayoutSVGInlineText {#text} at (0,0) size 39x15
            chunk 1 (middle anchor) text run 1 at (-19.50,15.00) startOffset 0 endOffset 7 width 39.00: "Verdana"
      LayoutSVGContainer {g} at (301,333) size 98x45 [transform={m=((1.00,0.00)(0.00,1.00)) t=(350.00,360.00)}]
        LayoutSVGContainer {use} at (301,333) size 98x33
          LayoutSVGText {text} at (-49,-27) size 98x33 contains 1 chunk(s)
            LayoutSVGInlineText {#text} at (0,0) size 97x33
              chunk 1 (middle anchor) text run 1 at (-48.35,0.00) startOffset 0 endOffset 6 width 96.71: "sample"
        LayoutSVGText {text} at (-23,3) size 46x15 contains 1 chunk(s)
          LayoutSVGInlineText {#text} at (0,0) size 45x15
            chunk 1 (middle anchor) text run 1 at (-22.50,15.00) startOffset 0 endOffset 9 width 45.00: "Helvetica"
      LayoutSVGContainer {g} at (57,413) size 86x15 [transform={m=((1.00,0.00)(0.00,1.00)) t=(100.00,410.00)}]
        LayoutSVGText {text}
        LayoutSVGText {text} at (-43,3) size 86x15 contains 1 chunk(s)
          LayoutSVGInlineText {#text} at (0,0) size 85x15
            chunk 1 (middle anchor) text run 1 at (-42.50,15.00) startOffset 0 endOffset 18 width 85.00: "Arial (underlined)"
      LayoutSVGContainer {g} at (179,380) size 92x48 [transform={m=((1.00,0.00)(0.00,1.00)) t=(225.00,410.00)}]
        LayoutSVGContainer {use} at (179,380) size 92x36
          LayoutSVGText {text} at (-46,-30) size 92x36 contains 1 chunk(s)
            LayoutSVGInlineText {#text} at (0,0) size 92x36
              chunk 1 (middle anchor) text run 1 at (-45.75,0.00) startOffset 0 endOffset 6 width 91.49: "sample"
        LayoutSVGText {text} at (-17,3) size 34x15 contains 1 chunk(s)
          LayoutSVGInlineText {#text} at (0,0) size 34x15
            chunk 1 (middle anchor) text run 1 at (-17.00,15.00) startOffset 0 endOffset 6 width 34.00: "Impact"
      LayoutSVGContainer {g} at (286,413) size 128x15 [transform={m=((1.00,0.00)(0.00,1.00)) t=(350.00,410.00)}]
        LayoutSVGText {text}
        LayoutSVGText {text} at (-64,3) size 128x15 contains 1 chunk(s)
          LayoutSVGInlineText {#text} at (0,0) size 128x15
            chunk 1 (middle anchor) text run 1 at (-64.00,15.00) startOffset 0 endOffset 25 width 128.00: "AvantGarde (line-through)"
    LayoutSVGContainer {use} at (0,0) size 448x498
      LayoutSVGContainer {g} at (0,0) size 448x498
        LayoutSVGRect {rect} at (0,0) size 448x498 [stroke={[type=SOLID] [color=#000000]}] [x=1.00] [y=1.00] [width=446.00] [height=496.00]
        LayoutSVGContainer {g} at (418,466) size 28x30 [transform={m=((1.00,0.00)(0.00,1.00)) t=(418.00,467.00)}]
          LayoutSVGViewportContainer {svg} at (418,466) size 28x30
            LayoutSVGPath {path} at (418,468) size 14x19 [fill={[type=SOLID] [color=#6666FF]}] [data="M 172 44 C 137 60 31 135 11 199 C 3 226 33 247 55 232 C 14 306 -1 332 0 356 C 0 370 13 398 44 383 C 52 379 79 358 96 342 C 110 341 120 331 138 314 C 155 328 174 324 190 307 C 212 309 272 229 234 199 C 231 175 204 162 181 181 C 175 179 168 180 163 182 C 185 147 206 100 212 77 C 219 47 188 36 172 44 Z"]
            LayoutSVGPath {path} at (432,466) size 14x17 [fill={[type=SOLID] [color=#FF0000]}] [data="M 400 0 C 382 3 351 31 351 31 C 322 54 308 89 323 126 C 310 140 294 170 294 193 C 294 221 314 245 344 222 C 351 230 365 238 381 227 C 376 256 384 275 407 276 C 408 286 420 307 443 293 C 459 283 501 254 522 237 C 547 214 547 143 504 148 C 537 89 501 52 477 64 C 467 68 431 89 425 94 C 424 87 420 82 414 80 C 436 45 436 -5 401 0 Z"]
            LayoutSVGPath {path} at (425,484) size 16x12 [fill={[type=SOLID] [color=#33CC33]}] [data="M 275 353 C 229 365 187 396 161 444 C 152 460 167 481 186 477 C 172 501 146 544 171 558 C 199 574 223 550 231 543 C 249 564 281 553 312 526 C 353 540 380 524 415 473 C 423 461 445 430 445 408 C 445 392 430 378 410 387 C 409 375 401 349 357 368 C 347 362 326 363 303 385 C 308 375 300 347 275 353 Z"]
