layer at (0,0) size 800x600
  LayoutView at (0,0) size 800x600
layer at (0,0) size 450x500
  LayoutSVGRoot {svg} at (0,0) size 450x498
    LayoutSVGHiddenContainer {defs} at (0,0) size 0x0
    LayoutSVGContainer {g} at (12,26) size 438x307
      LayoutSVGText {text} at (144,26) size 162x17 contains 1 chunk(s)
        LayoutSVGInlineText {#text} at (0,0) size 162x17
          chunk 1 (middle anchor) text run 1 at (144.00,40.00) startOffset 0 endOffset 28 width 162.00: "Text display and visibility."
      LayoutSVGText {text} at (140,60) size 170x17 contains 1 chunk(s)
        LayoutSVGInlineText {#text} at (0,0) size 169x17
          chunk 1 (middle anchor) text run 1 at (140.55,74.00) startOffset 0 endOffset 27 width 168.89: "Visibility on text & tspans"
      LayoutSVGText {text} at (145,186) size 160x17 contains 1 chunk(s)
        LayoutSVGInlineText {#text} at (0,0) size 159x17
          chunk 1 (middle anchor) text run 1 at (145.89,200.00) startOffset 0 endOffset 24 width 158.21: "Display on text & tspans"
      LayoutSVGContainer {g} at (12,81) size 426x252
        LayoutSVGRect {rect} at (12,81) size 426x27 [stroke={[type=SOLID] [color=#000000]}] [fill={[type=SOLID] [color=#EEEEEE]}] [x=12.50] [y=82.00] [width=425.00] [height=25.00]
        LayoutSVGRect {rect} at (12,106) size 426x27 [stroke={[type=SOLID] [color=#000000]}] [fill={[type=SOLID] [color=#CCCCCC]}] [x=12.50] [y=107.00] [width=425.00] [height=25.00]
        LayoutSVGRect {rect} at (12,131) size 426x27 [stroke={[type=SOLID] [color=#000000]}] [fill={[type=SOLID] [color=#EEEEEE]}] [x=12.50] [y=132.00] [width=425.00] [height=25.00]
        LayoutSVGRect {rect} at (12,156) size 426x27 [stroke={[type=SOLID] [color=#000000]}] [fill={[type=SOLID] [color=#CCCCCC]}] [x=12.50] [y=157.00] [width=425.00] [height=25.00]
        LayoutSVGPath {line} at (339,82) size 2x100 [stroke={[type=SOLID] [color=#000000]}] [fill={[type=SOLID] [color=#000000]}] [x1=340.00] [y1=82.00] [x2=340.00] [y2=182.00]
        LayoutSVGRect {rect} at (12,206) size 426x27 [stroke={[type=SOLID] [color=#000000]}] [fill={[type=SOLID] [color=#EEEEEE]}] [x=12.50] [y=207.00] [width=425.00] [height=25.00]
        LayoutSVGRect {rect} at (12,231) size 426x27 [stroke={[type=SOLID] [color=#000000]}] [fill={[type=SOLID] [color=#CCCCCC]}] [x=12.50] [y=232.00] [width=425.00] [height=25.00]
        LayoutSVGRect {rect} at (12,256) size 426x27 [stroke={[type=SOLID] [color=#000000]}] [fill={[type=SOLID] [color=#EEEEEE]}] [x=12.50] [y=257.00] [width=425.00] [height=25.00]
        LayoutSVGRect {rect} at (12,281) size 426x27 [stroke={[type=SOLID] [color=#000000]}] [fill={[type=SOLID] [color=#CCCCCC]}] [x=12.50] [y=282.00] [width=425.00] [height=25.00]
        LayoutSVGRect {rect} at (12,306) size 426x27 [stroke={[type=SOLID] [color=#000000]}] [fill={[type=SOLID] [color=#EEEEEE]}] [x=12.50] [y=307.00] [width=425.00] [height=25.00]
        LayoutSVGPath {line} at (339,207) size 2x125 [stroke={[type=SOLID] [color=#000000]}] [fill={[type=SOLID] [color=#000000]}] [x1=340.00] [y1=207.00] [x2=340.00] [y2=332.00]
      LayoutSVGText {text} at (360,83) size 73x17 contains 1 chunk(s)
        LayoutSVGInlineText {#text} at (0,0) size 73x17
          chunk 1 text run 1 at (360.00,97.00) startOffset 0 endOffset 13 width 72.02: "vis, vis, vis"
      LayoutSVGText {text} at (360,108) size 74x17 contains 1 chunk(s)
        LayoutSVGInlineText {#text} at (0,0) size 74x17
          chunk 1 text run 1 at (360.00,122.00) startOffset 0 endOffset 13 width 73.79: "vis, hid, vis"
      LayoutSVGText {text} at (360,133) size 76x17 contains 1 chunk(s)
        LayoutSVGInlineText {#text} at (0,0) size 76x17
          chunk 1 text run 1 at (360.00,147.00) startOffset 0 endOffset 13 width 75.56: "vis, hid, hid"
      LayoutSVGText {text} at (360,158) size 76x17 contains 1 chunk(s)
        LayoutSVGInlineText {#text} at (0,0) size 76x17
          chunk 1 text run 1 at (360.00,172.00) startOffset 0 endOffset 13 width 75.56: "hid, vis, hid"
      LayoutSVGText {text} at (360,209) size 126x17 contains 1 chunk(s)
        LayoutSVGInlineText {#text} at (0,0) size 126x17
          chunk 1 text run 1 at (360.00,223.00) startOffset 0 endOffset 22 width 125.31: "inline, inline, inline"
      LayoutSVGText {text} at (360,234) size 120x17 contains 1 chunk(s)
        LayoutSVGInlineText {#text} at (0,0) size 120x17
          chunk 1 text run 1 at (360.00,248.00) startOffset 0 endOffset 20 width 119.98: "inline, inline, none"
      LayoutSVGText {text} at (360,259) size 120x17 contains 1 chunk(s)
        LayoutSVGInlineText {#text} at (0,0) size 120x17
          chunk 1 text run 1 at (360.00,273.00) startOffset 0 endOffset 20 width 119.98: "inline, none, inline"
      LayoutSVGText {text} at (360,284) size 115x17 contains 1 chunk(s)
        LayoutSVGInlineText {#text} at (0,0) size 115x17
          chunk 1 text run 1 at (360.00,298.00) startOffset 0 endOffset 18 width 114.64: "inline, none, none"
      LayoutSVGText {text} at (360,309) size 115x17 contains 1 chunk(s)
        LayoutSVGInlineText {#text} at (0,0) size 115x17
          chunk 1 text run 1 at (360.00,323.00) startOffset 0 endOffset 18 width 114.64: "none, inline, none"
      LayoutSVGContainer {g} at (25,81) size 350x224 [transform={m=((1.25,0.00)(0.00,1.25)) t=(0.00,12.50)}]
        LayoutSVGText {text} at (20,55) size 280x19 contains 1 chunk(s)
          LayoutSVGInlineText {#text} at (0,0) size 34x18
            chunk 1 text run 1 at (20.00,70.00) startOffset 0 endOffset 5 width 33.32: "Text "
          LayoutSVGTSpan {tspan} at (0,0) size 179x18
            LayoutSVGInlineText {#text} at (33,0) size 50x18
              chunk 1 text run 1 at (53.32,70.00) startOffset 0 endOffset 8 width 49.77: "tspan 1 "
            LayoutSVGTSpan {tspan} at (0,0) size 46x18
              LayoutSVGInlineText {#text} at (83,0) size 46x18
                chunk 1 text run 1 at (103.09,70.00) startOffset 0 endOffset 7 width 45.77: "tspan 2"
            LayoutSVGInlineText {#text} at (128,0) size 83x18
              chunk 1 text run 1 at (148.87,70.00) startOffset 0 endOffset 12 width 82.20: " more span 1"
          LayoutSVGInlineText {#text} at (211,0) size 69x18
            chunk 1 text run 1 at (231.07,70.00) startOffset 0 endOffset 12 width 68.44: " finish text"
        LayoutSVGText {text} at (20,75) size 280x19 contains 1 chunk(s)
          LayoutSVGInlineText {#text} at (0,0) size 34x18
            chunk 1 text run 1 at (20.00,90.00) startOffset 0 endOffset 5 width 33.32: "Text "
          LayoutSVGTSpan {tspan} at (0,0) size 179x18
            LayoutSVGInlineText {#text} at (33,0) size 50x18
              chunk 1 text run 1 at (53.32,90.00) startOffset 0 endOffset 8 width 49.77: "tspan 1 "
            LayoutSVGTSpan {tspan} at (0,0) size 46x18
              LayoutSVGInlineText {#text} at (83,0) size 46x18
                chunk 1 text run 1 at (103.09,90.00) startOffset 0 endOffset 7 width 45.77: "tspan 2"
            LayoutSVGInlineText {#text} at (128,0) size 83x18
              chunk 1 text run 1 at (148.87,90.00) startOffset 0 endOffset 12 width 82.20: " more span 1"
          LayoutSVGInlineText {#text} at (211,0) size 69x18
            chunk 1 text run 1 at (231.07,90.00) startOffset 0 endOffset 12 width 68.44: " finish text"
        LayoutSVGText {text} at (20,95) size 280x19 contains 1 chunk(s)
          LayoutSVGInlineText {#text} at (0,0) size 34x18
            chunk 1 text run 1 at (20.00,110.00) startOffset 0 endOffset 5 width 33.32: "Text "
          LayoutSVGTSpan {tspan} at (0,0) size 179x18
            LayoutSVGInlineText {#text} at (33,0) size 50x18
              chunk 1 text run 1 at (53.32,110.00) startOffset 0 endOffset 8 width 49.77: "tspan 1 "
            LayoutSVGTSpan {tspan} at (0,0) size 46x18
              LayoutSVGInlineText {#text} at (83,0) size 46x18
                chunk 1 text run 1 at (103.09,110.00) startOffset 0 endOffset 7 width 45.77: "tspan 2"
            LayoutSVGInlineText {#text} at (128,0) size 83x18
              chunk 1 text run 1 at (148.87,110.00) startOffset 0 endOffset 12 width 82.20: " more span 1"
          LayoutSVGInlineText {#text} at (211,0) size 69x18
            chunk 1 text run 1 at (231.07,110.00) startOffset 0 endOffset 12 width 68.44: " finish text"
        LayoutSVGText {text} at (20,115) size 280x19 contains 1 chunk(s)
          LayoutSVGInlineText {#text} at (0,0) size 34x18
            chunk 1 text run 1 at (20.00,130.00) startOffset 0 endOffset 5 width 33.32: "Text "
          LayoutSVGTSpan {tspan} at (0,0) size 179x18
            LayoutSVGInlineText {#text} at (33,0) size 50x18
              chunk 1 text run 1 at (53.32,130.00) startOffset 0 endOffset 8 width 49.77: "tspan 1 "
            LayoutSVGTSpan {tspan} at (0,0) size 46x18
              LayoutSVGInlineText {#text} at (83,0) size 46x18
                chunk 1 text run 1 at (103.09,130.00) startOffset 0 endOffset 7 width 45.77: "tspan 2"
            LayoutSVGInlineText {#text} at (128,0) size 83x18
              chunk 1 text run 1 at (148.87,130.00) startOffset 0 endOffset 12 width 82.20: " more span 1"
          LayoutSVGInlineText {#text} at (211,0) size 69x18
            chunk 1 text run 1 at (231.07,130.00) startOffset 0 endOffset 12 width 68.44: " finish text"
        LayoutSVGText {text} at (20,155) size 280x19 contains 1 chunk(s)
          LayoutSVGInlineText {#text} at (0,0) size 34x18
            chunk 1 text run 1 at (20.00,170.00) startOffset 0 endOffset 5 width 33.32: "Text "
          LayoutSVGTSpan {tspan} at (0,0) size 179x18
            LayoutSVGInlineText {#text} at (33,0) size 50x18
              chunk 1 text run 1 at (53.32,170.00) startOffset 0 endOffset 8 width 49.77: "tspan 1 "
            LayoutSVGTSpan {tspan} at (0,0) size 50x18
              LayoutSVGInlineText {#text} at (83,0) size 50x18
                chunk 1 text run 1 at (103.09,170.00) startOffset 0 endOffset 8 width 49.77: "tspan 2 "
            LayoutSVGInlineText {#text} at (132,0) size 79x18
              chunk 1 text run 1 at (152.87,170.00) startOffset 0 endOffset 11 width 78.20: "more span 1"
          LayoutSVGInlineText {#text} at (211,0) size 69x18
            chunk 1 text run 1 at (231.07,170.00) startOffset 0 endOffset 12 width 68.44: " finish text"
        LayoutSVGText {text} at (20,175) size 230x19 contains 1 chunk(s)
          LayoutSVGInlineText {#text} at (0,0) size 34x18
            chunk 1 text run 1 at (20.00,190.00) startOffset 0 endOffset 5 width 33.32: "Text "
          LayoutSVGTSpan {tspan} at (0,0) size 129x18
            LayoutSVGInlineText {#text} at (33,0) size 50x18
              chunk 1 text run 1 at (53.32,190.00) startOffset 0 endOffset 8 width 49.77: "tspan 1 "
            LayoutSVGInlineText {#text} at (83,0) size 79x18
              chunk 1 text run 1 at (103.09,190.00) startOffset 0 endOffset 11 width 78.20: "more span 1"
          LayoutSVGInlineText {#text} at (161,0) size 69x18
            chunk 1 text run 1 at (181.30,190.00) startOffset 0 endOffset 12 width 68.44: " finish text"
        LayoutSVGText {text} at (20,195) size 98x19 contains 1 chunk(s)
          LayoutSVGInlineText {#text} at (0,0) size 34x18
            chunk 1 text run 1 at (20.00,210.00) startOffset 0 endOffset 5 width 33.32: "Text "
          LayoutSVGInlineText {#text} at (33,0) size 65x18
            chunk 1 text run 1 at (53.32,210.00) startOffset 0 endOffset 11 width 64.44: "finish text"
        LayoutSVGText {text} at (20,215) size 98x19 contains 1 chunk(s)
          LayoutSVGInlineText {#text} at (0,0) size 34x18
            chunk 1 text run 1 at (20.00,230.00) startOffset 0 endOffset 5 width 33.32: "Text "
          LayoutSVGInlineText {#text} at (33,0) size 65x18
            chunk 1 text run 1 at (53.32,230.00) startOffset 0 endOffset 11 width 64.44: "finish text"
    LayoutSVGContainer {use} at (0,0) size 448x498
      LayoutSVGContainer {g} at (0,0) size 448x498
        LayoutSVGRect {rect} at (0,0) size 448x498 [stroke={[type=SOLID] [color=#000000]}] [x=1.00] [y=1.00] [width=446.00] [height=496.00]
        LayoutSVGContainer {g} at (418,466) size 28x30 [transform={m=((1.00,0.00)(0.00,1.00)) t=(418.00,467.00)}]
          LayoutSVGViewportContainer {svg} at (418,466) size 28x30
            LayoutSVGPath {path} at (418,468) size 14x19 [fill={[type=SOLID] [color=#6666FF]}] [data="M 172 44 C 137 60 31 135 11 199 C 3 226 33 247 55 232 C 14 306 -1 332 0 356 C 0 370 13 398 44 383 C 52 379 79 358 96 342 C 110 341 120 331 138 314 C 155 328 174 324 190 307 C 212 309 272 229 234 199 C 231 175 204 162 181 181 C 175 179 168 180 163 182 C 185 147 206 100 212 77 C 219 47 188 36 172 44 Z"]
            LayoutSVGPath {path} at (432,466) size 14x17 [fill={[type=SOLID] [color=#FF0000]}] [data="M 400 0 C 382 3 351 31 351 31 C 322 54 308 89 323 126 C 310 140 294 170 294 193 C 294 221 314 245 344 222 C 351 230 365 238 381 227 C 376 256 384 275 407 276 C 408 286 420 307 443 293 C 459 283 501 254 522 237 C 547 214 547 143 504 148 C 537 89 501 52 477 64 C 467 68 431 89 425 94 C 424 87 420 82 414 80 C 436 45 436 -5 401 0 Z"]
            LayoutSVGPath {path} at (425,484) size 16x12 [fill={[type=SOLID] [color=#33CC33]}] [data="M 275 353 C 229 365 187 396 161 444 C 152 460 167 481 186 477 C 172 501 146 544 171 558 C 199 574 223 550 231 543 C 249 564 281 553 312 526 C 353 540 380 524 415 473 C 423 461 445 430 445 408 C 445 392 430 378 410 387 C 409 375 401 349 357 368 C 347 362 326 363 303 385 C 308 375 300 347 275 353 Z"]
