layer at (0,0) size 800x600
  LayoutView at (0,0) size 800x600
layer at (0,0) size 800x600
  LayoutBlockFlow {HTML} at (0,0) size 800x600
    LayoutBlockFlow {BODY} at (8,8) size 784x584
      LayoutBlockFlow {DIV} at (0,0) size 784x30 [bgcolor=#000000]
      LayoutBlockFlow {DIV} at (0,30) size 784x20
        LayoutText {#text} at (0,0) size 140x19
          text run at (0,0) width 140: "This test requires DRT."
