{
  "bounds": [800, 600],
  "children": [
    {
      "bounds": [800, 600],
      "contentsOpaque": true,
      "drawsContent": true,
      "children": [
        {
          "position": [98, 90],
          "bounds": [300, 300],
          "contentsOpaque": true,
          "drawsContent": true,
          "backfaceVisibility": "hidden",
          "backgroundColor": "#FFEFD5",
          "children": [
            {
              "bounds": [102, 102],
              "drawsContent": true,
              "children": [
                {
                  "position": [1, 1],
                  "bounds": [100, 100],
                  "children": [
                    {
                      "bounds": [100, 180],
                      "children": [
                        {

                        }
                      ]
                    }
                  ]
                }
              ]
            }
          ]
        },
        {
          "position": [60, 60],
          "bounds": [80, 80],
          "contentsOpaque": true,
          "drawsContent": true,
          "backgroundColor": "#008000"
        },
        {
          "shouldFlattenTransform": false,
          "children": [
            {
              "position": [103, 95],
              "bounds": [60, 40],
              "contentsOpaque": true,
              "drawsContent": true,
              "backgroundColor": "#0000FF"
            },
            {
              "position": [103, 139],
              "bounds": [60, 128],
              "drawsContent": true
            }
          ]
        },
        {
          "position": [98, 90],
          "children": [
            {
              "position": [94, 1],
              "bounds": [7, 100],
              "drawsContent": true
            }
          ]
        }
      ]
    }
  ]
}

