{
  "bounds": [785, 1895],
  "children": [
    {
      "bounds": [785, 1895],
      "contentsOpaque": true,
      "drawsContent": true,
      "repaintRects": [
        [677, 252, 100, 100],
        [677, 252, 100, 100],
        [677, 252, 100, 100],
        [677, 252, 100, 100],
        [677, 52, 100, 100],
        [677, 52, 100, 100],
        [677, 52, 100, 100],
        [677, 52, 100, 100]
      ],
      "paintInvalidationClients": [
        "LayoutBlockFlow (positioned) DIV id='scrollpanel'",
        "LayoutBlockFlow (relative positioned) DIV class='container'",
        "LayoutBlockFlow (relative positioned) DIV id='ul'",
        "LayoutBlockFlow DIV"
      ]
    }
  ]
}

