layer at (0,0) size 800x600
  LayoutView at (0,0) size 800x600
layer at (0,0) size 450x500
  LayoutSVGRoot {svg} at (0,0) size 448x498
    LayoutSVGContainer {g} at (38,16) size 392x387
      LayoutSVGText {text} at (97,16) size 256x17 contains 1 chunk(s)
        LayoutSVGInlineText {#text} at (0,0) size 255x17
          chunk 1 (middle anchor) text run 1 at (97.81,30.00) startOffset 0 endOffset 37 width 254.38: "Gradient and filter on text and tspan"
      LayoutSVGText {text} at (104,36) size 242x17 contains 1 chunk(s)
        LayoutSVGInlineText {#text} at (0,0) size 241x17
          chunk 1 (middle anchor) text run 1 at (104.50,50.00) startOffset 0 endOffset 32 width 240.99: "(Using System font and SVG font)"
      LayoutSVGHiddenContainer {defs} at (0,0) size 0x0
        LayoutSVGResourceLinearGradient {linearGradient} [id="linearGradient"] [gradientUnits=objectBoundingBox] [start=(0,0)] [end=(1,0)]
          LayoutSVGGradientStop {stop} [offset=0.00] [color=#FFD700]
          LayoutSVGGradientStop {stop} [offset=0.50] [color=#FFA500]
          LayoutSVGGradientStop {stop} [offset=1.00] [color=#DC143C]
        LayoutSVGResourceRadialGradient {radialGradient} [id="radialGradient"] [gradientUnits=objectBoundingBox] [center=(0.50,0.50)] [focal=(0.50,0.50)] [radius=0.50] [focalRadius=0.00]
          LayoutSVGGradientStop {stop} [offset=0.00] [color=#FFD700]
          LayoutSVGGradientStop {stop} [offset=0.50] [color=#FFA500]
          LayoutSVGGradientStop {stop} [offset=1.00] [color=#DC143C]
        LayoutSVGResourceFilter {filter} [id="dropShadow"] [filterUnits=objectBoundingBox] [primitiveUnits=userSpaceOnUse]
          [feGaussianBlur stdDeviation="2.00, 2.00"]
            [SourceGraphic]
      LayoutSVGText {text} at (53,92) size 148x79 contains 1 chunk(s)
        LayoutSVGInlineText {#text} at (0,20) size 36x59
          chunk 1 (middle anchor) text run 1 at (53.69,160.00) startOffset 0 endOffset 1 width 35.57: "B"
        LayoutSVGTSpan {tspan} at (0,0) size 19x30
          LayoutSVGInlineText {#text} at (35,24) size 18x30
            chunk 1 (middle anchor) text run 1 at (89.26,140.00) startOffset 0 endOffset 1 width 17.78: "A"
        LayoutSVGInlineText {#text} at (53,0) size 33x59
          chunk 1 (middle anchor) text run 1 at (107.05,140.00) startOffset 0 endOffset 1 width 32.58: "T"
        LayoutSVGTSpan {tspan} at (0,0) size 13x44
          LayoutSVGInlineText {#text} at (85,12) size 12x44
            chunk 1 (middle anchor) text run 1 at (139.62,140.00) startOffset 0 endOffset 1 width 11.11: "I"
        LayoutSVGTSpan {tspan} at (0,0) size 54x69
          LayoutSVGInlineText {#text} at (93,2) size 54x68
            chunk 1 (middle anchor) text run 1 at (150.74,140.00) startOffset 0 endOffset 1 width 35.57: "K"
        LayoutSVGInlineText {#text} at (0,0) size 0x0
      LayoutSVGText {text} at (260,92) size 154x81 contains 1 chunk(s)
        LayoutSVGInlineText {#text} at (0,20) size 36x61
          chunk 1 (middle anchor) text run 1 at (260.38,160.00) startOffset 0 endOffset 1 width 35.57: "B"
        LayoutSVGTSpan {tspan} at (0,0) size 20x31
          LayoutSVGInlineText {#text} at (35,24) size 20x31
            chunk 1 (middle anchor) text run 1 at (295.95,140.00) startOffset 0 endOffset 1 width 19.25: "A"
        LayoutSVGInlineText {#text} at (54,0) size 33x61
          chunk 1 (middle anchor) text run 1 at (315.21,140.00) startOffset 0 endOffset 1 width 32.58: "T"
        LayoutSVGTSpan {tspan} at (0,0) size 14x46
          LayoutSVGInlineText {#text} at (87,12) size 14x46
            chunk 1 (middle anchor) text run 1 at (347.78,140.00) startOffset 0 endOffset 1 width 13.32: "I"
        LayoutSVGTSpan {tspan} at (0,0) size 58x72
          LayoutSVGInlineText {#text} at (96,2) size 58x71
            chunk 1 (middle anchor) text run 1 at (361.10,140.00) startOffset 0 endOffset 1 width 38.51: "K"
        LayoutSVGInlineText {#text} at (0,0) size 0x0
      LayoutSVGText {text} at (53,192) size 148x79 contains 1 chunk(s)
        LayoutSVGInlineText {#text} at (0,20) size 36x59
          chunk 1 (middle anchor) text run 1 at (53.69,260.00) startOffset 0 endOffset 1 width 35.57: "B"
        LayoutSVGTSpan {tspan} at (0,0) size 19x30
          LayoutSVGInlineText {#text} at (35,24) size 18x30
            chunk 1 (middle anchor) text run 1 at (89.26,240.00) startOffset 0 endOffset 1 width 17.78: "A"
        LayoutSVGInlineText {#text} at (53,0) size 33x59
          chunk 1 (middle anchor) text run 1 at (107.05,240.00) startOffset 0 endOffset 1 width 32.58: "T"
        LayoutSVGTSpan {tspan} at (0,0) size 13x44
          LayoutSVGInlineText {#text} at (85,12) size 12x44
            chunk 1 (middle anchor) text run 1 at (139.62,240.00) startOffset 0 endOffset 1 width 11.11: "I"
        LayoutSVGTSpan {tspan} at (0,0) size 54x69
          LayoutSVGInlineText {#text} at (93,2) size 54x68
            chunk 1 (middle anchor) text run 1 at (150.74,240.00) startOffset 0 endOffset 1 width 35.57: "K"
        LayoutSVGInlineText {#text} at (0,0) size 0x0
      LayoutSVGText {text} at (260,192) size 154x81 contains 1 chunk(s)
        LayoutSVGInlineText {#text} at (0,20) size 36x61
          chunk 1 (middle anchor) text run 1 at (260.38,260.00) startOffset 0 endOffset 1 width 35.57: "B"
        LayoutSVGTSpan {tspan} at (0,0) size 20x31
          LayoutSVGInlineText {#text} at (35,24) size 20x31
            chunk 1 (middle anchor) text run 1 at (295.95,240.00) startOffset 0 endOffset 1 width 19.25: "A"
        LayoutSVGInlineText {#text} at (54,0) size 33x61
          chunk 1 (middle anchor) text run 1 at (315.21,240.00) startOffset 0 endOffset 1 width 32.58: "T"
        LayoutSVGTSpan {tspan} at (0,0) size 14x46
          LayoutSVGInlineText {#text} at (87,12) size 14x46
            chunk 1 (middle anchor) text run 1 at (347.78,240.00) startOffset 0 endOffset 1 width 13.32: "I"
        LayoutSVGTSpan {tspan} at (0,0) size 58x72
          LayoutSVGInlineText {#text} at (96,2) size 58x71
            chunk 1 (middle anchor) text run 1 at (361.10,240.00) startOffset 0 endOffset 1 width 38.51: "K"
        LayoutSVGInlineText {#text} at (0,0) size 0x0
      LayoutSVGText {text} at (53,292) size 148x79 contains 1 chunk(s)
        [filter="dropShadow"] LayoutSVGResourceFilter {filter} at (39,284.10) size 176.29x94.80
        LayoutSVGInlineText {#text} at (0,20) size 36x59
          [filter="dropShadow"] LayoutSVGResourceFilter {filter} at (50.14,306.10) size 42.68x70.80
          chunk 1 (middle anchor) text run 1 at (53.69,360.00) startOffset 0 endOffset 1 width 35.57: "B"
        LayoutSVGTSpan {tspan} at (0,0) size 19x30
          LayoutSVGInlineText {#text} at (35,24) size 18x30
            chunk 1 (middle anchor) text run 1 at (89.26,340.00) startOffset 0 endOffset 1 width 17.78: "A"
        LayoutSVGInlineText {#text} at (53,0) size 33x59
          [filter="dropShadow"] LayoutSVGResourceFilter {filter} at (103.79,286.10) size 39.09x70.80
          chunk 1 (middle anchor) text run 1 at (107.05,340.00) startOffset 0 endOffset 1 width 32.58: "T"
        LayoutSVGTSpan {tspan} at (0,0) size 13x44
          LayoutSVGInlineText {#text} at (85,12) size 12x44
            chunk 1 (middle anchor) text run 1 at (139.62,340.00) startOffset 0 endOffset 1 width 11.11: "I"
        LayoutSVGTSpan {tspan} at (0,0) size 54x69
          LayoutSVGInlineText {#text} at (93,2) size 54x68
            chunk 1 (middle anchor) text run 1 at (150.74,340.00) startOffset 0 endOffset 1 width 35.57: "K"
        LayoutSVGInlineText {#text} at (0,0) size 0x0
          [filter="dropShadow"] LayoutSVGResourceFilter {filter} at (-45,-50) size 540x600
      LayoutSVGText {text} at (260,292) size 154x81 contains 1 chunk(s)
        [filter="dropShadow"] LayoutSVGResourceFilter {filter} at (245.04,283.90) size 184.01x97.20
        LayoutSVGInlineText {#text} at (0,20) size 36x61
          [filter="dropShadow"] LayoutSVGResourceFilter {filter} at (256.83,305.90) size 42.68x73.20
          chunk 1 (middle anchor) text run 1 at (260.38,360.00) startOffset 0 endOffset 1 width 35.57: "B"
        LayoutSVGTSpan {tspan} at (0,0) size 20x31
          LayoutSVGInlineText {#text} at (35,24) size 20x31
            chunk 1 (middle anchor) text run 1 at (295.95,340.00) startOffset 0 endOffset 1 width 19.25: "A"
        LayoutSVGInlineText {#text} at (54,0) size 33x61
          [filter="dropShadow"] LayoutSVGResourceFilter {filter} at (311.95,285.90) size 39.09x73.20
          chunk 1 (middle anchor) text run 1 at (315.21,340.00) startOffset 0 endOffset 1 width 32.58: "T"
        LayoutSVGTSpan {tspan} at (0,0) size 14x46
          LayoutSVGInlineText {#text} at (87,12) size 14x46
            chunk 1 (middle anchor) text run 1 at (347.78,340.00) startOffset 0 endOffset 1 width 13.32: "I"
        LayoutSVGTSpan {tspan} at (0,0) size 58x72
          LayoutSVGInlineText {#text} at (96,2) size 58x71
            chunk 1 (middle anchor) text run 1 at (361.10,340.00) startOffset 0 endOffset 1 width 38.51: "K"
        LayoutSVGInlineText {#text} at (0,0) size 0x0
          [filter="dropShadow"] LayoutSVGResourceFilter {filter} at (-45,-50) size 540x600
      LayoutSVGText {text} at (87,389) size 66x14 contains 1 chunk(s)
        LayoutSVGInlineText {#text} at (0,0) size 66x14
          chunk 1 (middle anchor) text run 1 at (87.17,400.00) startOffset 0 endOffset 13 width 65.66: "(System font)"
      LayoutSVGText {text} at (302,389) size 56x14 contains 1 chunk(s)
        LayoutSVGInlineText {#text} at (0,0) size 55x14
          chunk 1 (middle anchor) text run 1 at (302.84,400.00) startOffset 0 endOffset 10 width 54.33: "(SVG font)"
    LayoutSVGContainer {use} at (0,0) size 448x498
      LayoutSVGContainer {g} at (0,0) size 448x498
        LayoutSVGRect {rect} at (0,0) size 448x498 [stroke={[type=SOLID] [color=#000000]}] [x=1.00] [y=1.00] [width=446.00] [height=496.00]
        LayoutSVGContainer {g} at (418,466) size 28x30 [transform={m=((1.00,0.00)(0.00,1.00)) t=(418.00,467.00)}]
          LayoutSVGViewportContainer {svg} at (418,466) size 28x30
            LayoutSVGPath {path} at (418,468) size 14x19 [fill={[type=SOLID] [color=#6666FF]}] [data="M 172 44 C 137 60 31 135 11 199 C 3 226 33 247 55 232 C 14 306 -1 332 0 356 C 0 370 13 398 44 383 C 52 379 79 358 96 342 C 110 341 120 331 138 314 C 155 328 174 324 190 307 C 212 309 272 229 234 199 C 231 175 204 162 181 181 C 175 179 168 180 163 182 C 185 147 206 100 212 77 C 219 47 188 36 172 44 Z"]
            LayoutSVGPath {path} at (432,466) size 14x17 [fill={[type=SOLID] [color=#FF0000]}] [data="M 400 0 C 382 3 351 31 351 31 C 322 54 308 89 323 126 C 310 140 294 170 294 193 C 294 221 314 245 344 222 C 351 230 365 238 381 227 C 376 256 384 275 407 276 C 408 286 420 307 443 293 C 459 283 501 254 522 237 C 547 214 547 143 504 148 C 537 89 501 52 477 64 C 467 68 431 89 425 94 C 424 87 420 82 414 80 C 436 45 436 -5 401 0 Z"]
            LayoutSVGPath {path} at (425,484) size 16x12 [fill={[type=SOLID] [color=#33CC33]}] [data="M 275 353 C 229 365 187 396 161 444 C 152 460 167 481 186 477 C 172 501 146 544 171 558 C 199 574 223 550 231 543 C 249 564 281 553 312 526 C 353 540 380 524 415 473 C 423 461 445 430 445 408 C 445 392 430 378 410 387 C 409 375 401 349 357 368 C 347 362 326 363 303 385 C 308 375 300 347 275 353 Z"]
