layer at (0,0) size 480x360
  LayoutView at (0,0) size 480x360
layer at (0,0) size 480x360
  LayoutSVGRoot {svg} at (0,0) size 480x360
    LayoutSVGHiddenContainer {defs} at (0,0) size 0x0
    LayoutSVGContainer {g} at (0,0) size 480x212
      LayoutSVGText {text} at (-1,82) size 485x118 contains 1 chunk(s)
        LayoutSVGInlineText {#text} at (19,0) size 381x58
          chunk 1 text run 1 at (20.00,120.00) startOffset 0 endOffset 1 width 25.28: "N"
          chunk 1 text run 2 at (45.28,120.00) startOffset 1 endOffset 2 width 19.47: "o"
          chunk 1 text run 3 at (64.74,120.00) startOffset 2 endOffset 3 width 9.72: "t"
          chunk 1 text run 4 at (74.47,120.00) startOffset 3 endOffset 4 width 9.72: " "
          chunk 1 text run 5 at (84.19,120.00) startOffset 4 endOffset 5 width 19.47: "a"
          chunk 1 text run 6 at (103.65,120.00) startOffset 5 endOffset 6 width 7.78: "l"
          chunk 1 text run 7 at (111.43,120.00) startOffset 6 endOffset 7 width 7.78: "l"
          chunk 1 text run 8 at (119.21,120.00) startOffset 7 endOffset 8 width 9.72: " "
          chunk 1 text run 9 at (128.93,120.00) startOffset 8 endOffset 9 width 17.50: "c"
          chunk 1 text run 10 at (146.43,120.00) startOffset 9 endOffset 10 width 19.47: "h"
          chunk 1 text run 11 at (165.90,120.00) startOffset 10 endOffset 11 width 19.47: "a"
          chunk 1 text run 12 at (185.36,120.00) startOffset 11 endOffset 12 width 11.66: "r"
          chunk 1 text run 13 at (197.02,120.00) startOffset 12 endOffset 13 width 19.47: "a"
          chunk 1 text run 14 at (216.48,120.00) startOffset 13 endOffset 14 width 17.50: "c"
          chunk 1 text run 15 at (233.98,120.00) startOffset 14 endOffset 15 width 9.72: "t"
          chunk 1 text run 16 at (243.71,120.00) startOffset 15 endOffset 16 width 19.47: "e"
          chunk 1 text run 17 at (263.17,120.00) startOffset 16 endOffset 17 width 11.66: "r"
          chunk 1 text run 18 at (274.83,120.00) startOffset 17 endOffset 18 width 17.50: "s"
          chunk 1 text run 19 at (292.33,120.00) startOffset 18 endOffset 19 width 9.72: " "
          chunk 1 text run 20 at (302.05,120.00) startOffset 19 endOffset 20 width 7.78: "i"
          chunk 1 text run 21 at (309.83,120.00) startOffset 20 endOffset 21 width 19.47: "n"
          chunk 1 text run 22 at (329.29,120.00) startOffset 21 endOffset 22 width 9.72: " "
          chunk 1 text run 23 at (339.02,120.00) startOffset 22 endOffset 23 width 9.72: "t"
          chunk 1 text run 24 at (348.74,120.00) startOffset 23 endOffset 24 width 19.47: "h"
          chunk 1 text run 25 at (368.21,120.00) startOffset 24 endOffset 25 width 19.47: "e"
          chunk 1 text run 26 at (387.67,120.00) startOffset 25 endOffset 26 width 9.72: " "
        LayoutSVGTSpan {tspan} at (0,0) size 485x57
          LayoutSVGInlineText {#text} at (0,60) size 485x57
            chunk 1 text run 1 at (20.00,180.00) startOffset 0 endOffset 1 width 9.72: "t"
            chunk 1 text run 2 at (29.72,180.00) startOffset 1 endOffset 2 width 19.47: "e"
            chunk 1 text run 3 at (49.19,180.00) startOffset 2 endOffset 3 width 17.50: "x"
            chunk 1 text run 4 at (66.69,180.00) startOffset 3 endOffset 4 width 9.72: "t"
            chunk 1 text run 5 at (76.41,180.00) startOffset 4 endOffset 5 width 9.72: " "
            chunk 1 text run 6 at (86.14,180.00) startOffset 5 endOffset 6 width 19.47: "h"
            chunk 1 text run 7 at (105.60,180.00) startOffset 6 endOffset 7 width 19.47: "a"
            chunk 1 text run 8 at (125.07,180.00) startOffset 7 endOffset 8 width 17.50: "v"
            chunk 1 text run 9 at (142.57,180.00) startOffset 8 endOffset 9 width 19.47: "e"
            chunk 1 text run 10 at (162.03,180.00) startOffset 9 endOffset 10 width 9.72: " "
            chunk 1 text run 11 at (171.76,180.00) startOffset 10 endOffset 11 width 19.47: "a"
            chunk 1 text run 12 at (191.22,180.00) startOffset 11 endOffset 12 width 9.72: " "
            chunk 1 text run 13 at (200.95,180.00) startOffset 12 endOffset 13 width 17.50: "s"
            chunk 1 text run 14 at (218.45,180.00) startOffset 13 endOffset 14 width 19.47: "p"
            chunk 1 text run 15 at (237.91,180.00) startOffset 14 endOffset 15 width 19.47: "e"
            chunk 1 text run 16 at (257.38,180.00) startOffset 15 endOffset 16 width 17.50: "c"
            chunk 1 text run 17 at (274.88,180.00) startOffset 16 endOffset 17 width 7.78: "i"
            chunk 1 text run 18 at (282.65,180.00) startOffset 17 endOffset 18 width 9.72: "f"
            chunk 1 text run 19 at (292.38,180.00) startOffset 18 endOffset 19 width 7.78: "i"
            chunk 1 text run 20 at (300.15,180.00) startOffset 19 endOffset 20 width 19.47: "e"
            chunk 1 text run 21 at (319.62,180.00) startOffset 20 endOffset 21 width 19.47: "d"
            chunk 1 text run 22 at (339.08,180.00) startOffset 21 endOffset 22 width 9.72: " "
            chunk 1 text run 23 at (348.81,180.00) startOffset 22 endOffset 23 width 11.66: "r"
            chunk 1 text run 24 at (360.46,180.00) startOffset 23 endOffset 24 width 19.47: "o"
            chunk 1 text run 25 at (379.93,180.00) startOffset 24 endOffset 25 width 9.72: "t"
            chunk 1 text run 26 at (389.65,180.00) startOffset 25 endOffset 26 width 19.47: "a"
            chunk 1 text run 27 at (409.12,180.00) startOffset 26 endOffset 27 width 9.72: "t"
            chunk 1 text run 28 at (418.84,180.00) startOffset 27 endOffset 28 width 7.78: "i"
            chunk 1 text run 29 at (426.62,180.00) startOffset 28 endOffset 29 width 19.47: "o"
            chunk 1 text run 30 at (446.08,180.00) startOffset 29 endOffset 30 width 19.47: "n"
        LayoutSVGInlineText {#text} at (0,0) size 0x0
      LayoutSVGText {text} at (-1,82) size 485x118 contains 1 chunk(s)
        LayoutSVGInlineText {#text} at (19,5) size 82x44
          chunk 1 text run 1 at (20.00,120.00) startOffset 0 endOffset 1 width 25.28: "N"
          chunk 1 text run 2 at (45.28,120.00) startOffset 1 endOffset 2 width 19.47: "o"
          chunk 1 text run 3 at (64.74,120.00) startOffset 2 endOffset 3 width 9.72: "t"
          chunk 1 text run 4 at (74.47,120.00) startOffset 3 endOffset 4 width 9.72: " "
        LayoutSVGTSpan {tspan} at (0,0) size 404x103
          LayoutSVGInlineText {#text} at (79,0) size 226x44
            chunk 1 text run 1 at (84.19,120.00) startOffset 0 endOffset 1 width 19.47: "a"
            chunk 1 text run 2 at (103.65,120.00) startOffset 1 endOffset 2 width 7.78: "l"
            chunk 1 text run 3 at (111.43,120.00) startOffset 2 endOffset 3 width 7.78: "l"
            chunk 1 text run 4 at (119.21,120.00) startOffset 3 endOffset 4 width 9.72: " "
            chunk 1 text run 5 at (128.93,120.00) startOffset 4 endOffset 5 width 17.50: "c"
            chunk 1 text run 6 at (146.43,120.00) startOffset 5 endOffset 6 width 19.47: "h"
            chunk 1 text run 7 at (165.90,120.00) startOffset 6 endOffset 7 width 19.47: "a"
            chunk 1 text run 8 at (185.36,120.00) startOffset 7 endOffset 8 width 11.66: "r"
            chunk 1 text run 9 at (197.02,120.00) startOffset 8 endOffset 9 width 19.47: "a"
            chunk 1 text run 10 at (216.48,120.00) startOffset 9 endOffset 10 width 17.50: "c"
            chunk 1 text run 11 at (233.98,120.00) startOffset 10 endOffset 11 width 9.72: "t"
            chunk 1 text run 12 at (243.71,120.00) startOffset 11 endOffset 12 width 19.47: "e"
            chunk 1 text run 13 at (263.17,120.00) startOffset 12 endOffset 13 width 11.66: "r"
            chunk 1 text run 14 at (274.83,120.00) startOffset 13 endOffset 14 width 17.50: "s"
            chunk 1 text run 15 at (292.33,120.00) startOffset 14 endOffset 15 width 9.72: " "
          LayoutSVGTSpan {tspan} at (0,0) size 108x53
            LayoutSVGInlineText {#text} at (296,16) size 65x41
              chunk 1 text run 1 at (302.05,120.00) startOffset 0 endOffset 1 width 7.78: "i"
              chunk 1 text run 2 at (309.83,120.00) startOffset 1 endOffset 2 width 19.47: "n"
              chunk 1 text run 3 at (329.29,120.00) startOffset 2 endOffset 3 width 9.72: " "
            LayoutSVGTSpan {tspan} at (0,0) size 69x48
              LayoutSVGInlineText {#text} at (335,5) size 69x48
                chunk 1 text run 1 at (339.02,120.00) startOffset 0 endOffset 1 width 9.72: "t"
                chunk 1 text run 2 at (348.74,120.00) startOffset 1 endOffset 2 width 19.47: "h"
                chunk 1 text run 3 at (368.21,120.00) startOffset 2 endOffset 3 width 19.47: "e"
                chunk 1 text run 4 at (387.67,120.00) startOffset 3 endOffset 4 width 9.72: " "
            LayoutSVGInlineText {#text} at (0,0) size 0x0
          LayoutSVGInlineText {#text} at (0,0) size 0x0
          LayoutSVGTSpan {tspan} at (0,0) size 89x43
            LayoutSVGInlineText {#text} at (0,60) size 89x43
              chunk 1 text run 1 at (20.00,180.00) startOffset 0 endOffset 1 width 9.72: "t"
              chunk 1 text run 2 at (29.72,180.00) startOffset 1 endOffset 2 width 19.47: "e"
              chunk 1 text run 3 at (49.19,180.00) startOffset 2 endOffset 3 width 17.50: "x"
              chunk 1 text run 4 at (66.69,180.00) startOffset 3 endOffset 4 width 9.72: "t"
              chunk 1 text run 5 at (76.41,180.00) startOffset 4 endOffset 5 width 9.72: " "
          LayoutSVGInlineText {#text} at (66,60) size 138x43
            chunk 1 text run 1 at (86.14,180.00) startOffset 0 endOffset 1 width 19.47: "h"
            chunk 1 text run 2 at (105.60,180.00) startOffset 1 endOffset 2 width 19.47: "a"
            chunk 1 text run 3 at (125.07,180.00) startOffset 2 endOffset 3 width 17.50: "v"
            chunk 1 text run 4 at (142.57,180.00) startOffset 3 endOffset 4 width 19.47: "e"
            chunk 1 text run 5 at (162.03,180.00) startOffset 4 endOffset 5 width 9.72: " "
            chunk 1 text run 6 at (171.76,180.00) startOffset 5 endOffset 6 width 19.47: "a"
            chunk 1 text run 7 at (191.22,180.00) startOffset 6 endOffset 7 width 9.72: " "
        LayoutSVGInlineText {#text} at (0,0) size 0x0
        LayoutSVGTSpan {tspan} at (0,0) size 156x42
          LayoutSVGInlineText {#text} at (195,62) size 155x42
            chunk 1 text run 1 at (200.95,180.00) startOffset 0 endOffset 1 width 17.50: "s"
            chunk 1 text run 2 at (218.45,180.00) startOffset 1 endOffset 2 width 19.47: "p"
            chunk 1 text run 3 at (237.91,180.00) startOffset 2 endOffset 3 width 19.47: "e"
            chunk 1 text run 4 at (257.38,180.00) startOffset 3 endOffset 4 width 17.50: "c"
            chunk 1 text run 5 at (274.88,180.00) startOffset 4 endOffset 5 width 7.78: "i"
            chunk 1 text run 6 at (282.65,180.00) startOffset 5 endOffset 6 width 9.72: "f"
            chunk 1 text run 7 at (292.38,180.00) startOffset 6 endOffset 7 width 7.78: "i"
            chunk 1 text run 8 at (300.15,180.00) startOffset 7 endOffset 8 width 19.47: "e"
            chunk 1 text run 9 at (319.62,180.00) startOffset 8 endOffset 9 width 19.47: "d"
            chunk 1 text run 10 at (339.08,180.00) startOffset 9 endOffset 10 width 9.72: " "
        LayoutSVGInlineText {#text} at (343,78) size 141x39
          chunk 1 text run 1 at (348.81,180.00) startOffset 0 endOffset 1 width 11.66: "r"
          chunk 1 text run 2 at (360.46,180.00) startOffset 1 endOffset 2 width 19.47: "o"
          chunk 1 text run 3 at (379.93,180.00) startOffset 2 endOffset 3 width 9.72: "t"
          chunk 1 text run 4 at (389.65,180.00) startOffset 3 endOffset 4 width 19.47: "a"
          chunk 1 text run 5 at (409.12,180.00) startOffset 4 endOffset 5 width 9.72: "t"
          chunk 1 text run 6 at (418.84,180.00) startOffset 5 endOffset 6 width 7.78: "i"
          chunk 1 text run 7 at (426.62,180.00) startOffset 6 endOffset 7 width 19.47: "o"
          chunk 1 text run 8 at (446.08,180.00) startOffset 7 endOffset 8 width 19.47: "n"
      LayoutSVGText {text} at (0,-8) size 468x220 contains 1 chunk(s)
        LayoutSVGInlineText {#text} at (0,0) size 14x10
          chunk 1 text run 1 at (0.00,0.00) startOffset 0 endOffset 7 width 14.00: "       "
        LayoutSVGTSpan {tspan} at (0,0) size 54x10
          LayoutSVGInlineText {#text} at (30,135) size 54x10
            chunk 1 text run 1 at (30.00,135.00) startOffset 0 endOffset 22 width 54.00: " 5      15   25       "
        LayoutSVGInlineText {#text} at (84,135) size 14x10
          chunk 1 text run 1 at (84.00,135.00) startOffset 0 endOffset 7 width 14.00: "       "
        LayoutSVGTSpan {tspan} at (0,0) size 55x10
          LayoutSVGInlineText {#text} at (80,130) size 55x10
            chunk 1 text run 1 at (80.00,130.00) startOffset 0 endOffset 20 width 55.00: " -10  -20 -30       "
        LayoutSVGInlineText {#text} at (135,130) size 14x10
          chunk 1 text run 1 at (135.00,130.00) startOffset 0 endOffset 7 width 14.00: "       "
        LayoutSVGTSpan {tspan} at (0,0) size 162x10
          LayoutSVGInlineText {#text} at (125,130) size 162x10
            chunk 1 text run 1 at (125.00,130.00) startOffset 0 endOffset 56 width 162.00: "  -40  -40  -40  -40  -40   -40 -40 -40  -40  -40       "
        LayoutSVGInlineText {#text} at (287,130) size 14x10
          chunk 1 text run 1 at (287.00,130.00) startOffset 0 endOffset 7 width 14.00: "       "
        LayoutSVGTSpan {tspan} at (0,0) size 38x10
          LayoutSVGInlineText {#text} at (295,145) size 38x10
            chunk 1 text run 1 at (295.00,145.00) startOffset 0 endOffset 15 width 38.00: " 70   60       "
        LayoutSVGInlineText {#text} at (333,145) size 14x10
          chunk 1 text run 1 at (333.00,145.00) startOffset 0 endOffset 7 width 14.00: "       "
        LayoutSVGTSpan {tspan} at (0,0) size 54x10
          LayoutSVGInlineText {#text} at (340,140) size 54x10
            chunk 1 text run 1 at (340.00,140.00) startOffset 0 endOffset 21 width 54.00: " 40   30    20       "
        LayoutSVGInlineText {#text} at (394,140) size 14x10
          chunk 1 text run 1 at (394.00,140.00) startOffset 0 endOffset 7 width 14.00: "       "
        LayoutSVGTSpan {tspan} at (0,0) size 163x10
          LayoutSVGInlineText {#text} at (15,190) size 163x10
            chunk 1 text run 1 at (15.00,190.00) startOffset 0 endOffset 59 width 163.00: " -40 -40  -40  -40    -40  -40   -40   -40       -40       "
        LayoutSVGInlineText {#text} at (178,190) size 14x10
          chunk 1 text run 1 at (178.00,190.00) startOffset 0 endOffset 7 width 14.00: "       "
        LayoutSVGTSpan {tspan} at (0,0) size 148x10
          LayoutSVGInlineText {#text} at (190,200) size 148x10
            chunk 1 text run 1 at (190.00,200.00) startOffset 0 endOffset 54 width 148.00: "    -10   -10    -10   -10 -10   -10 -10    -10       "
        LayoutSVGInlineText {#text} at (338,200) size 14x10
          chunk 1 text run 1 at (338.00,200.00) startOffset 0 endOffset 7 width 14.00: "       "
        LayoutSVGTSpan {tspan} at (0,0) size 27x10
          LayoutSVGInlineText {#text} at (275,190) size 27x10
            chunk 1 text run 1 at (275.00,190.00) startOffset 0 endOffset 11 width 27.00: " -10       "
        LayoutSVGInlineText {#text} at (302,190) size 14x10
          chunk 1 text run 1 at (302.00,190.00) startOffset 0 endOffset 7 width 14.00: "       "
        LayoutSVGTSpan {tspan} at (0,0) size 118x10
          LayoutSVGInlineText {#text} at (340,210) size 118x10
            chunk 1 text run 1 at (340.00,210.00) startOffset 0 endOffset 43 width 118.00: "   55    55  55  55   55 55  55   55       "
        LayoutSVGInlineText {#text} at (458,210) size 10x10
          chunk 1 text run 1 at (458.00,210.00) startOffset 0 endOffset 5 width 10.00: "     "
    LayoutSVGContainer {g} at (10,311) size 248x36
      LayoutSVGText {text} at (10,311) size 248x36 contains 1 chunk(s)
        LayoutSVGInlineText {#text} at (0,0) size 248x36
          chunk 1 text run 1 at (10.00,340.00) startOffset 0 endOffset 17 width 247.27: "$Revision: 1.11 $"
    LayoutSVGRect {rect} at (0,0) size 480x360 [stroke={[type=SOLID] [color=#000000]}] [x=1.00] [y=1.00] [width=478.00] [height=358.00]
