layer at (0,0) size 800x600
  LayoutView at (0,0) size 800x600
layer at (0,0) size 400x400
  LayoutSVGRoot {svg} at (30,16) size 258x235
    LayoutSVGContainer {g} at (30,16) size 258x235 [transform={m=((3.00,0.00)(0.00,3.00)) t=(0.00,0.00)}]
      LayoutSVGText {text} at (10,5) size 79x19 contains 1 chunk(s)
        LayoutSVGInlineText {#text} at (0,0) size 79x18
          chunk 1 text run 1 at (10.00,20.00) startOffset 0 endOffset 1 width 9.77: "T"
          chunk 1 text run 1 at (20.00,20.00) startOffset 0 endOffset 1 width 7.10: "e"
          chunk 1 text run 1 at (30.00,20.00) startOffset 0 endOffset 1 width 6.23: "s"
          chunk 1 text run 1 at (40.00,20.00) startOffset 0 endOffset 1 width 4.45: "t"
          chunk 1 text run 1 at (50.00,20.00) startOffset 0 endOffset 1 width 4.00: " "
          chunk 1 text run 1 at (54.00,20.00) startOffset 0 endOffset 5 width 34.59 RTL: "\x{5D0}\x{5D1}\x{5D2}\x{5D3}\x{5D4}"
      LayoutSVGText {text} at (10,25) size 86x19 contains 1 chunk(s)
        LayoutSVGTSpan {tspan} at (0,0) size 86x18
          LayoutSVGInlineText {#text} at (0,0) size 86x18
            chunk 1 text run 1 at (10.00,40.00) startOffset 0 endOffset 1 width 9.77: "T"
            chunk 1 text run 1 at (20.00,40.00) startOffset 0 endOffset 1 width 7.10: "e"
            chunk 1 text run 1 at (30.00,40.00) startOffset 0 endOffset 1 width 6.23: "s"
            chunk 1 text run 1 at (40.00,40.00) startOffset 0 endOffset 1 width 4.45: "t"
            chunk 1 text run 1 at (50.00,40.00) startOffset 0 endOffset 1 width 4.00: " "
            chunk 1 text run 1 at (55.00,40.00) startOffset 0 endOffset 1 width 7.54 RTL: "\x{5D4}"
            chunk 1 text run 1 at (64.00,40.00) startOffset 0 endOffset 1 width 6.70 RTL: "\x{5D3}"
            chunk 1 text run 1 at (72.00,40.00) startOffset 0 endOffset 1 width 5.37 RTL: "\x{5D2}"
            chunk 1 text run 1 at (79.00,40.00) startOffset 0 endOffset 1 width 7.28 RTL: "\x{5D1}"
            chunk 1 text run 1 at (88.00,40.00) startOffset 0 endOffset 1 width 7.70 RTL: "\x{5D0}"
      LayoutSVGText {text} at (10,45) size 86x19 contains 1 chunk(s)
        LayoutSVGInlineText {#text} at (0,0) size 44x18
          chunk 1 text run 1 at (10.00,60.00) startOffset 0 endOffset 1 width 9.77: "T"
          chunk 1 text run 1 at (20.00,60.00) startOffset 0 endOffset 1 width 7.10: "e"
          chunk 1 text run 1 at (30.00,60.00) startOffset 0 endOffset 1 width 6.23: "s"
          chunk 1 text run 1 at (40.00,60.00) startOffset 0 endOffset 1 width 4.45: "t"
          chunk 1 text run 1 at (50.00,60.00) startOffset 0 endOffset 1 width 4.00: " "
        LayoutSVGTSpan {tspan} at (0,0) size 41x18
          LayoutSVGInlineText {#text} at (45,0) size 41x18
            chunk 1 text run 1 at (55.00,60.00) startOffset 0 endOffset 1 width 7.54 RTL: "\x{5D4}"
            chunk 1 text run 1 at (64.00,60.00) startOffset 0 endOffset 1 width 6.70 RTL: "\x{5D3}"
            chunk 1 text run 1 at (72.00,60.00) startOffset 0 endOffset 1 width 5.37 RTL: "\x{5D2}"
            chunk 1 text run 1 at (79.00,60.00) startOffset 0 endOffset 1 width 7.28 RTL: "\x{5D1}"
            chunk 1 text run 1 at (88.00,60.00) startOffset 0 endOffset 1 width 7.70 RTL: "\x{5D0}"
      LayoutSVGText {text} at (10,65) size 86x19 contains 1 chunk(s)
        LayoutSVGInlineText {#text} at (0,0) size 86x18
          chunk 1 text run 1 at (10.00,80.00) startOffset 0 endOffset 1 width 9.77: "T"
          chunk 1 text run 1 at (20.00,80.00) startOffset 0 endOffset 1 width 7.10: "e"
          chunk 1 text run 1 at (30.00,80.00) startOffset 0 endOffset 1 width 6.23: "s"
          chunk 1 text run 1 at (40.00,80.00) startOffset 0 endOffset 1 width 4.45: "t"
          chunk 1 text run 1 at (50.00,80.00) startOffset 0 endOffset 1 width 4.00: " "
          chunk 1 text run 1 at (55.00,80.00) startOffset 0 endOffset 1 width 7.54 RTL: "\x{5D4}"
          chunk 1 text run 1 at (64.00,80.00) startOffset 0 endOffset 1 width 6.70 RTL: "\x{5D3}"
          chunk 1 text run 1 at (72.00,80.00) startOffset 0 endOffset 1 width 5.37 RTL: "\x{5D2}"
          chunk 1 text run 1 at (79.00,80.00) startOffset 0 endOffset 1 width 7.28 RTL: "\x{5D1}"
          chunk 1 text run 1 at (88.00,80.00) startOffset 0 endOffset 1 width 7.70 RTL: "\x{5D0}"
