layer at (0,0) size 800x600
  LayoutView at (0,0) size 800x600
layer at (0,0) size 800x600
  LayoutBlockFlow {HTML} at (0,0) size 800x600
    LayoutBlockFlow {BODY} at (8,8) size 784x584
      LayoutBlockFlow {DIV} at (0,0) size 454x159 [border: (2px solid #008000)]
        LayoutImage {IMG} at (2,2) size 450x29 [bgcolor=#FFFF00]
        LayoutText {#text} at (0,0) size 0x0
        LayoutBR {BR} at (0,0) size 0x0
        LayoutBlockFlow (floating) {IMG} at (2,31) size 250x125 [bgcolor=#FFA500]
        LayoutText {#text} at (255,31) size 190x125
          text run at (255,31) width 190: "Theme Park Roller Coaster is"
          text run at (255,49) width 170: "an excellent game that lets"
          text run at (255,67) width 177: "you create your own virtual"
          text run at (255,85) width 181: "amusement park. Go behind"
          text run at (255,103) width 189: "the scenes of its development"
          text run at (255,121) width 189: "and its transition from the PC"
          text run at (255,139) width 70: "to the PS2."
      LayoutBlockFlow {P} at (0,175) size 784x0
      LayoutBlockFlow {DIV} at (0,175) size 304x40 [border: (2px solid #008000)]
        LayoutImage {IMG} at (197,5) size 105x70 [bgcolor=#800080]
        LayoutText {#text} at (2,2) size 151x17
          text run at (2,2) width 151: "First non-breaking line."
        LayoutInline {NOBR} at (0,0) size 169x17
          LayoutText {#text} at (2,20) size 169x17
            text run at (2,20) width 169: "Second non-breaking line."
        LayoutText {#text} at (0,0) size 0x0
layer at (10,39) size 250x125 clip at (11,40) size 248x123
  LayoutBlockFlow {DIV} at (0,0) size 250x125 [border: (1px solid #C0C0C0)]
layer at (12,41) size 246x18
  LayoutBlockFlow {DIV} at (2,2) size 246x18
    LayoutText {#text} at (0,0) size 175x17
      text run at (0,0) width 175: "Theme Park Roller Coaster"
