{
  "bounds": [800, 600],
  "children": [
    {
      "bounds": [800, 600],
      "contentsOpaque": true,
      "drawsContent": true,
      "repaintRects": [
        [259, 40, 40, 19]
      ],
      "children": [
        {
          "position": [0, 60],
          "bounds": [800, 500],
          "drawsContent": true,
          "repaintRects": [
            [244, 0, 40, 19],
            [204, 0, 40, 19],
            [83, 0, 40, 19],
            [47, 20, 40, 19],
            [20, 164, 202, 72],
            [10, 131, 138, 12],
            [10, 75, 208, 19]
          ],
          "children": [
            {
              "bounds": [785, 485],
              "children": [
                {
                  "bounds": [785, 1345],
                  "drawsContent": true,
                  "repaintRects": [
                    [244, 0, 40, 19],
                    [204, 0, 40, 19],
                    [83, 0, 40, 19],
                    [47, 20, 40, 19],
                    [20, 164, 202, 72],
                    [10, 131, 138, 12],
                    [10, 75, 208, 19]
                  ],
                  "children": [
                    {

                    }
                  ]
                }
              ]
            },
            {
              "children": [
                {
                  "position": [0, 485],
                  "bounds": [785, 15],
                  "drawsContent": true
                },
                {
                  "position": [785, 0],
                  "bounds": [15, 485],
                  "drawsContent": true
                },
                {
                  "position": [785, 485],
                  "bounds": [15, 15],
                  "drawsContent": true
                }
              ]
            }
          ]
        }
      ]
    }
  ]
}

