layer at (0,0) size 800x600
  LayoutView at (0,0) size 800x600
layer at (0,0) size 800x600
  LayoutBlockFlow {HTML} at (0,0) size 800x600
    LayoutBlockFlow {BODY} at (8,8) size 784x584 [bgcolor=#FFFFFF]
      LayoutTable {TABLE} at (0,0) size 598x581
        LayoutTableSection {TBODY} at (0,0) size 598x581
          LayoutTableRow {TR} at (0,0) size 598x234
            LayoutTableCell {TD} at (0,0) size 152x18 [bgcolor=#CCCC9C] [r=0 c=0 rs=2 cs=1]
              LayoutText {#text} at (0,0) size 96x18
                text run at (0,0) width 96: "xxxxxxxxxxxx"
              LayoutBR {BR} at (96,14) size 0x0
            LayoutTableCell {TD} at (152,0) size 2x36 [bgcolor=#D3D3D3] [r=0 c=1 rs=1 cs=1]
              LayoutBlockFlow {HR} at (0,8) size 2x2 [border: (1px inset #EEEEEE)]
              LayoutBlockFlow (anonymous) at (0,18) size 2x18
                LayoutBR {BR} at (0,0) size 0x18
            LayoutTableCell {TD} at (154,0) size 89x108 [bgcolor=#FFA500] [r=0 c=2 rs=1 cs=1]
              LayoutBlockFlow {HR} at (0,8) size 89x2 [border: (1px inset #EEEEEE)]
              LayoutBlockFlow (anonymous) at (0,18) size 89x18
                LayoutBR {BR} at (0,0) size 0x18
              LayoutBlockFlow {HR} at (0,44) size 89x2 [border: (1px inset #EEEEEE)]
              LayoutBlockFlow (anonymous) at (0,54) size 89x18
                LayoutBR {BR} at (0,0) size 0x18
              LayoutBlockFlow {HR} at (0,80) size 89x2 [border: (1px inset #EEEEEE)]
              LayoutBlockFlow (anonymous) at (0,90) size 89x18
                LayoutBR {BR} at (0,0) size 0x18
          LayoutTableRow {TR} at (0,234) size 598x56
            LayoutTableCell {TD} at (152,234) size 446x56 [r=1 c=1 rs=1 cs=5]
              LayoutImage {IMG} at (0,0) size 446x56
              LayoutBR {BR} at (446,56) size 0x0
          LayoutTableRow {TR} at (0,290) size 598x118
            LayoutTableCell {TD} at (0,290) size 152x291 [r=2 c=0 rs=2 cs=1]
              LayoutImage {IMG} at (0,0) size 152x291
              LayoutBR {BR} at (152,291) size 0x0
            LayoutTableCell {TD} at (152,290) size 446x118 [r=2 c=1 rs=1 cs=5]
              LayoutImage {IMG} at (0,0) size 446x118
              LayoutBR {BR} at (446,118) size 0x0
          LayoutTableRow {TR} at (0,408) size 598x173
            LayoutTableCell {TD} at (152,408) size 446x173 [r=3 c=1 rs=1 cs=5]
              LayoutImage {IMG} at (0,0) size 446x173
              LayoutBR {BR} at (446,173) size 0x0
