layer at (0,0) size 800x600 clip at (0,0) size 785x600 scrollHeight 682
  LayoutView at (0,0) size 800x600
layer at (0,0) size 785x682 backgroundClip at (0,0) size 785x600 clip at (0,0) size 785x600 outlineClip at (0,0) size 785x600
  LayoutBlockFlow {HTML} at (0,0) size 785x681.50
    LayoutBlockFlow {BODY} at (8,21.44) size 769x644.06
      LayoutBlockFlow {H1} at (0,0) size 769x37
        LayoutText {#text} at (0,0) size 317x36
          text run at (0,0) width 317: "Generic Table Tests - 1"
      LayoutBlockFlow {P} at (0,58.44) size 769x18
        LayoutText {#text} at (0,0) size 397x17
          text run at (0,0) width 397: "If you have any comments to make regarding this test, e-mail "
        LayoutInline {A} at (0,0) size 186x17 [color=#0000EE]
          LayoutText {#text} at (396,0) size 186x17
            text run at (396,0) width 186: "py8ieh=eviltests@bath.ac.uk"
        LayoutText {#text} at (581,0) size 5x17
          text run at (581,0) width 5: "."
      LayoutBlockFlow {DL} at (0,92.44) size 769x36
        LayoutBlockFlow {DT} at (0,0) size 769x18
          LayoutText {#text} at (0,0) size 83x17
            text run at (0,0) width 83: "Prerequisites"
        LayoutBlockFlow {DD} at (40,18) size 729x18
          LayoutText {#text} at (0,0) size 697x17
            text run at (0,0) width 697: "Browsers that are subjected to this test should support CSS1 and the CSS2 table model, and multiple classes."
      LayoutBlockFlow {P} at (0,144.44) size 769x98 [border: (5px double #FF0000)]
        LayoutBlockFlow (anonymous) at (13,13) size 743x18
          LayoutText {#text} at (0,0) size 240x17
            text run at (0,0) width 240: "If this paragraph breaks the line here:"
        LayoutTable {SPAN} at (13,31) size 60x18
          LayoutTableSection (anonymous) at (0,0) size 60x18
            LayoutTableRow (anonymous) at (0,0) size 60x18
              LayoutTableCell (anonymous) at (0,0) size 60x18 [r=0 c=0 rs=1 cs=1]
                LayoutText {#text} at (0,0) size 60x17
                  text run at (0,0) width 60: "and here:"
        LayoutBlockFlow (anonymous) at (13,49) size 743x36
          LayoutText {#text} at (0,0) size 121x17
            text run at (0,0) width 121: "then your browser "
          LayoutInline {EM} at (0,0) size 83x17
            LayoutText {#text} at (120,0) size 83x17
              text run at (120,0) width 83: "does support"
          LayoutText {#text} at (202,0) size 165x17
            text run at (202,0) width 165: " table values on 'display'. "
          LayoutInline {STRONG} at (0,0) size 716x35
            LayoutText {#text} at (366,0) size 716x35
              text run at (366,0) width 350: "If this paragraphs flows without any undue breaks,"
              text run at (0,18) width 459: "then you should mark your browser as not supporting table values!"
      LayoutBlockFlow {H2} at (0,262.34) size 769x27
        LayoutText {#text} at (0,0) size 223x26
          text run at (0,0) width 223: "1. Table -> Table Cell"
      LayoutBlockFlow {P} at (0,309.25) size 769x36
        LayoutText {#text} at (0,0) size 764x35
          text run at (0,0) width 764: "Below there should be a gray bar, spanning the width of the BODY, with the text \"Left\" to the left and the text \"Right\","
          text run at (0,18) width 223: "on the same line, flush to the right."
      LayoutTable {DIV} at (0,361.25) size 769x18 [bgcolor=#C0C0C0]
        LayoutTableSection (anonymous) at (0,0) size 769x18
          LayoutTableRow (anonymous) at (0,0) size 769x18
            LayoutTableCell {DIV} at (0,0) size 329x18 [r=0 c=0 rs=1 cs=1]
              LayoutText {#text} at (0,0) size 27x17
                text run at (0,0) width 27: "Left"
            LayoutTableCell {DIV} at (329,0) size 440x18 [r=0 c=1 rs=1 cs=1]
              LayoutText {#text} at (404,0) size 36x17
                text run at (404,0) width 36: "Right"
      LayoutBlockFlow {H2} at (0,399.16) size 769x27
        LayoutText {#text} at (0,0) size 156x26
          text run at (0,0) width 156: "Submit Results"
      LayoutBlockFlow {FORM} at (0,446.06) size 769x44
        LayoutBlockFlow {P} at (0,0) size 769x44
          LayoutText {#text} at (0,2) size 267x17
            text run at (0,2) width 267: "How does your browser fare on this test? "
          LayoutMenuList {SELECT} at (266.59,1) size 250x20 [bgcolor=#FFFFFF] [border: (1px solid #A9A9A9)]
            LayoutBlockFlow (anonymous) at (1,1) size 248x18
              LayoutText at (4,1) size 152x16
                text run at (4,1) width 152: "The test renders correctly."
          LayoutText {#text} at (516,2) size 5x17
            text run at (516,2) width 5: " "
          LayoutInline {LABEL} at (0,0) size 246x17
            LayoutText {#text} at (520,2) size 73x17
              text run at (520,2) width 73: "Comment: "
            LayoutTextControl {INPUT} at (592.16,0) size 173x22 [bgcolor=#FFFFFF] [border: (2px inset #EEEEEE)]
          LayoutText {#text} at (0,0) size 0x0
          LayoutButton {INPUT} at (0,22) size 57x22 [bgcolor=#C0C0C0] [border: (2px outset #C0C0C0)]
            LayoutBlockFlow (anonymous) at (8,3) size 41x16
              LayoutText {#text} at (0,0) size 41x16
                text run at (0,0) width 41: "Submit"
          LayoutText {#text} at (0,0) size 0x0
      LayoutBlockFlow {HR} at (0,506.06) size 769x2 [border: (1px inset #EEEEEE)]
      LayoutBlockFlow {P} at (0,524.06) size 769x18
        LayoutText {#text} at (0,0) size 64x17
          text run at (0,0) width 64: "Up to the "
        LayoutInline {A} at (0,0) size 75x17 [color=#0000EE]
          LayoutText {#text} at (63,0) size 75x17
            text run at (63,0) width 75: "Table Tests"
        LayoutText {#text} at (137,0) size 5x17
          text run at (137,0) width 5: "."
      LayoutBlockFlow {P} at (0,558.06) size 769x18
        LayoutText {#text} at (0,0) size 64x17
          text run at (0,0) width 64: "Up to the "
        LayoutInline {A} at (0,0) size 101x17 [color=#0000EE]
          LayoutText {#text} at (63,0) size 101x17
            text run at (63,0) width 101: "Evil Tests Page"
        LayoutText {#text} at (163,0) size 5x17
          text run at (163,0) width 5: "."
      LayoutBlockFlow {P} at (0,592.06) size 769x18
        LayoutText {#text} at (0,0) size 177x17
          text run at (0,0) width 177: "This page is maintained by "
        LayoutInline {A} at (0,0) size 79x17 [color=#0000EE]
          LayoutText {#text} at (176,0) size 79x17
            text run at (176,0) width 79: "Ian Hickson"
        LayoutText {#text} at (254,0) size 10x17
          text run at (254,0) width 10: " ("
        LayoutInline {A} at (0,0) size 125x17 [color=#0000EE]
          LayoutText {#text} at (263,0) size 125x17
            text run at (263,0) width 125: "py8ieh@bath.ac.uk"
        LayoutText {#text} at (387,0) size 10x17
          text run at (387,0) width 10: ")."
      LayoutBlockFlow {P} at (0,626.06) size 769x18
        LayoutText {#text} at (0,0) size 185x17
          text run at (0,0) width 185: "Last updated in March 1999."
layer at (602,471) size 169x16
  LayoutBlockFlow {DIV} at (2,3) size 169x16
