layer at (0,0) size 800x600
  LayoutView at (0,0) size 800x600
layer at (0,0) size 800x600
  LayoutBlockFlow {HTML} at (0,0) size 800x600
    LayoutBlockFlow {BODY} at (8,8) size 784x584
      LayoutBlockFlow (anonymous) at (0,0) size 784x20
        LayoutText {#text} at (0,0) size 27x19
          text run at (0,0) width 27: "Text"
      LayoutTable {TABLE} at (0,20) size 784x100
        LayoutTableSection {TBODY} at (0,0) size 784x100
          LayoutTableRow {TR} at (0,0) size 784x100
            LayoutTableCell {TD} at (0,50) size 0x0 [r=0 c=0 rs=1 cs=1]
      LayoutBlockFlow (anonymous) at (0,120) size 784x20
        LayoutText {#text} at (0,0) size 302x19
          text run at (0,0) width 302: "This text is 100 pixels lower than the previous line."
      LayoutTable {TABLE} at (0,140) size 784x100
        LayoutTableSection {TBODY} at (0,0) size 784x100
          LayoutTableRow {TR} at (0,0) size 784x100
      LayoutBlockFlow (anonymous) at (0,240) size 784x20
        LayoutText {#text} at (0,0) size 302x19
          text run at (0,0) width 302: "This text is 100 pixels lower than the previous line."
      LayoutTable {TABLE} at (0,260) size 784x0
      LayoutBlockFlow (anonymous) at (0,260) size 784x20
        LayoutText {#text} at (0,0) size 293x19
          text run at (0,0) width 293: "No space between this line and the previous line."
