{
  "bounds": [800, 600],
  "children": [
    {
      "bounds": [800, 600],
      "contentsOpaque": true,
      "drawsContent": true,
      "repaintRects": [
        [90, 30, 12, 18],
        [8, 8, 60, 54]
      ]
    }
  ]
}

