{
  "bounds": [800, 600],
  "children": [
    {
      "bounds": [800, 600],
      "contentsOpaque": true,
      "drawsContent": true,
      "repaintRects": [
        [305, 35, 296, 18],
        [305, 35, 296, 17],
        [153, 35, 296, 18],
        [153, 35, 296, 17]
      ],
      "paintInvalidationClients": [
        "LayoutBlockFlow (floating) SPAN",
        "LayoutText #text",
        "InlineTextBox 'the quick brown fox jumped over the lazy dog'",
        "LayoutBlockFlow (positioned) SPAN",
        "LayoutText #text",
        "InlineTextBox 'the quick brown fox jumped over the lazy dog'"
      ]
    }
  ]
}

