{
  "bounds": [800, 600],
  "children": [
    {
      "bounds": [800, 600],
      "contentsOpaque": true,
      "drawsContent": true,
      "repaintRects": [
        [108, 8, 100, 100],
        [108, 8, 4, 17],
        [8, 8, 100, 100],
        [8, 8, 4, 17]
      ],
      "paintInvalidationClients": [
        "RootInlineBox",
        "InlineTextBox '\u00A0'",
        "RootInlineBox",
        "InlineTextBox '\u00A0'",
        "LayoutBlockFlow SPAN id='t1'",
        "LayoutText #text",
        "InlineTextBox '\u00A0'",
        "LayoutBlockFlow SPAN id='t2' class='blue'",
        "LayoutText #text",
        "InlineTextBox '\u00A0'"
      ]
    }
  ]
}

