{
  "bounds": [800, 600],
  "children": [
    {
      "bounds": [800, 600],
      "contentsOpaque": true,
      "drawsContent": true,
      "repaintRects": [
        [104, 160, 2, 47],
        [98, 166, 2, 35],
        [45, 182, 3, 20],
        [5, 163, 103, 41]
      ],
      "paintInvalidationClients": [
        "InlineTextBox 'Lorem ipsum'",
        "InlineTextBox ' '",
        "InlineFlowBox",
        "RootInlineBox",
        "InlineTextBox ''",
        "InlineFlowBox",
        "RootInlineBox",
        "LayoutText #text",
        "InlineTextBox 'Lorem ipsum'",
        "InlineTextBox ' '",
        "InlineFlowBox",
        "RootInlineBox",
        "InlineTextBox 'dolor sit amet'",
        "InlineFlowBox",
        "RootInlineBox",
        "InlineTextBox 'Lorem ipsum'",
        "InlineTextBox ' '",
        "InlineFlowBox",
        "RootInlineBox",
        "InlineTextBox ''",
        "InlineFlowBox",
        "RootInlineBox",
        "InlineTextBox 'Lorem ipsum'",
        "InlineTextBox ' '",
        "InlineFlowBox",
        "RootInlineBox",
        "InlineTextBox ''",
        "InlineFlowBox",
        "RootInlineBox",
        "InlineTextBox 'Lorem ipsum'",
        "InlineTextBox ' '",
        "InlineFlowBox",
        "RootInlineBox",
        "InlineTextBox ''",
        "InlineFlowBox",
        "RootInlineBox",
        "InlineTextBox 'Lorem ipsum'",
        "InlineTextBox ' '",
        "InlineFlowBox",
        "RootInlineBox",
        "InlineTextBox ''",
        "InlineFlowBox",
        "RootInlineBox",
        "InlineTextBox 'Lorem ipsum'",
        "InlineTextBox ' '",
        "InlineFlowBox",
        "RootInlineBox",
        "InlineTextBox 'dolor sit'",
        "InlineFlowBox",
        "RootInlineBox",
        "InlineTextBox 'Lorem ipsum'",
        "InlineTextBox ' '",
        "InlineFlowBox",
        "RootInlineBox",
        "InlineTextBox 'dolor sit'",
        "InlineFlowBox",
        "RootInlineBox",
        "InlineTextBox 'Lorem ipsum'",
        "InlineTextBox ' '",
        "InlineFlowBox",
        "RootInlineBox",
        "InlineTextBox ''",
        "InlineFlowBox",
        "RootInlineBox",
        "InlineTextBox 'Lorem ipsum'",
        "InlineTextBox ' '",
        "InlineFlowBox",
        "RootInlineBox",
        "InlineTextBox ''",
        "InlineFlowBox",
        "RootInlineBox",
        "InlineTextBox 'Lorem ipsum'",
        "InlineTextBox ' '",
        "InlineFlowBox",
        "RootInlineBox",
        "InlineTextBox ''",
        "InlineFlowBox",
        "RootInlineBox",
        "InlineTextBox 'Lorem ipsum'",
        "InlineTextBox ' '",
        "InlineFlowBox",
        "RootInlineBox",
        "InlineTextBox ''",
        "InlineFlowBox",
        "RootInlineBox",
        "InlineTextBox 'Lorem ipsum'",
        "InlineTextBox ' '",
        "InlineFlowBox",
        "RootInlineBox",
        "InlineTextBox 'dolor'",
        "InlineFlowBox",
        "RootInlineBox",
        "InlineTextBox 'Lorem ipsum'",
        "InlineTextBox ' '",
        "InlineFlowBox",
        "RootInlineBox",
        "InlineTextBox 'dolor'",
        "InlineFlowBox",
        "RootInlineBox",
        "LayoutBlockFlow DIV",
        "LayoutInline SPAN id='test'",
        "InlineFlowBox",
        "InlineFlowBox",
        "LayoutText #text",
        "InlineTextBox 'Lorem ipsum'",
        "InlineTextBox ' '",
        "InlineTextBox 'dolor\u00A0'",
        "LayoutBlockFlow DIV"
      ]
    }
  ]
}

