{
  "bounds": [800, 600],
  "children": [
    {
      "bounds": [800, 600],
      "contentsOpaque": true,
      "drawsContent": true,
      "repaintRects": [
        [8, 8, 100, 17]
      ],
      "paintInvalidationClients": [
        "InlineTextBox ''",
        "RootInlineBox",
        "LayoutBlockFlow DIV id='target'"
      ]
    }
  ]
}

