{
  "bounds": [800, 600],
  "children": [
    {
      "bounds": [800, 600],
      "contentsOpaque": true,
      "drawsContent": true,
      "repaintRects": [
        [237, 65, 15, 235],
        [2, 300, 235, 15],
        [2, 65, 235, 235],
        [2, 65, 235, 235],
        [2, 65, 235, 235],
        [2, 65, 225, 225],
        [2, 65, 135, 135],
        [2, 65, 58, 15]
      ],
      "paintInvalidationClients": [
        "HorizontalScrollbar",
        "LayoutIFrame (positioned) IFRAME",
        "VerticalScrollbar",
        "LayoutIFrame (positioned) IFRAME",
        "LayoutIFrame (positioned) IFRAME",
        "LayoutView #document",
        "LayoutBlockFlow HTML",
        "LayoutBlockFlow BODY",
        "LayoutText #text",
        "InlineTextBox 'scroll me'"
      ]
    }
  ]
}

