1 1 1 1
9 9 9 9
22 22 22 22
99 99 99 99
123456 123456 123456 123456
222222 222222 222222 222222
999999 999999 999999 999999
This is a testharness.js-based test.
PASS 1 
PASS 9 
PASS 22 
PASS 99 
PASS 123456 
PASS 222222 
PASS 999999 
Harness: the test ran to completion.

