{
  "bounds": [800, 600],
  "children": [
    {
      "bounds": [800, 600],
      "contentsOpaque": true,
      "drawsContent": true,
      "repaintRects": [
        [44, 150, 3, 18],
        [8, 150, 784, 18]
      ],
      "paintInvalidationClients": [
        "InlineTextBox ''",
        "RootInlineBox",
        "LayoutBlockFlow (relative positioned) DIV id='target'",
        "LayoutText #text",
        "InlineTextBox 'PASS'"
      ]
    }
  ]
}

