{
  "bounds": [800, 600],
  "children": [
    {
      "bounds": [800, 600],
      "contentsOpaque": true,
      "drawsContent": true,
      "repaintRects": [
        [762, 288, 15, 20],
        [762, 188, 15, 120],
        [762, 8, 15, 280],
        [8, 8, 769, 300],
        [8, 8, 300, 300]
      ],
      "paintInvalidationClients": [
        "LayoutBlockFlow DIV id='innerDiv'",
        "LayoutBlockFlow DIV",
        "LayoutBlockFlow DIV",
        "VerticalScrollbar",
        "VerticalScrollbar",
        "VerticalScrollbar",
        "LayoutBlockFlow DIV id='innerDiv'",
        "LayoutBlockFlow DIV",
        "LayoutBlockFlow DIV"
      ]
    }
  ]
}

