{
  "bounds": [800, 600],
  "children": [
    {
      "bounds": [800, 600],
      "contentsOpaque": true,
      "drawsContent": true,
      "repaintRects": [
        [237, 79, 15, 221],
        [237, 66, 15, 27],
        [237, 65, 15, 14],
        [17, 300, 220, 15],
        [3, 300, 28, 15],
        [2, 300, 15, 15],
        [2, 65, 235, 235],
        [2, 65, 235, 235],
        [2, 65, 235, 235],
        [2, 65, 225, 225],
        [2, 65, 135, 135],
        [2, 65, 58, 16]
      ],
      "paintInvalidationClients": [
        "HorizontalScrollbar",
        "LayoutIFrame (positioned) IFRAME",
        "HorizontalScrollbar",
        "LayoutIFrame (positioned) IFRAME",
        "HorizontalScrollbar",
        "LayoutIFrame (positioned) IFRAME",
        "VerticalScrollbar",
        "LayoutIFrame (positioned) IFRAME",
        "VerticalScrollbar",
        "LayoutIFrame (positioned) IFRAME",
        "VerticalScrollbar",
        "LayoutIFrame (positioned) IFRAME",
        "LayoutIFrame (positioned) IFRAME",
        "LayoutView #document",
        "LayoutBlockFlow HTML",
        "LayoutBlockFlow BODY",
        "LayoutText #text",
        "InlineTextBox 'scroll me'"
      ]
    }
  ]
}

