layer at (0,0) size 480x360
  LayoutView at (0,0) size 480x360
layer at (0,0) size 480x360
  LayoutSVGRoot {svg} at (0,0) size 480x360
    LayoutSVGContainer {g} at (3,9) size 458x279
      LayoutSVGText {text} at (3,9) size 332x44 contains 1 chunk(s)
        LayoutSVGInlineText {#text} at (0,0) size 332x44
          chunk 1 text run 1 at (3.00,45.00) startOffset 0 endOffset 16 width 331.93: "calcMode=\"paced\""
      LayoutSVGText {text} at (3,64) size 390x44 contains 1 chunk(s)
        LayoutSVGInlineText {#text} at (0,0) size 390x44
          chunk 1 text run 1 at (3.00,100.00) startOffset 0 endOffset 21 width 389.69: "keyTimes=\"0;.25;.5;1\""
      LayoutSVGContainer {g} at (10,138) size 451x150
        LayoutSVGContainer {g} at (10,138) size 451x150 [transform={m=((1.00,0.00)(0.00,1.00)) t=(150.00,140.00)}]
          LayoutSVGText {text} at (-140,107) size 142x41 contains 1 chunk(s)
            LayoutSVGInlineText {#text} at (0,0) size 142x41
              chunk 1 text run 1 at (-140.00,140.00) startOffset 0 endOffset 9 width 141.98: "Time (s):"
          LayoutSVGText {text} at (290,107) size 21x41 contains 1 chunk(s)
            LayoutSVGInlineText {#text} at (0,0) size 21x41
              chunk 1 text run 1 at (290.00,140.00) startOffset 0 endOffset 1 width 20.02: "0"
          LayoutSVGPath {line} at (448,140) size 4x100 [stroke={[type=SOLID] [color=#880000] [stroke width=3.00]}] [x1=300.00] [y1=0.00] [x2=300.00] [y2=100.00]
          LayoutSVGText {text} at (230,107) size 51x41 contains 1 chunk(s)
            LayoutSVGInlineText {#text} at (0,0) size 51x41
              chunk 1 text run 1 at (230.00,140.00) startOffset 0 endOffset 3 width 50.04: "1.5"
          LayoutSVGPath {line} at (403,140) size 4x100 [stroke={[type=SOLID] [color=#880000] [stroke width=3.00]}] [x1=255.00] [y1=0.00] [x2=255.00] [y2=100.00]
          LayoutSVGText {text} at (170,107) size 21x41 contains 1 chunk(s)
            LayoutSVGInlineText {#text} at (0,0) size 21x41
              chunk 1 text run 1 at (170.00,140.00) startOffset 0 endOffset 1 width 20.02: "4"
          LayoutSVGPath {line} at (328,140) size 4x100 [stroke={[type=SOLID] [color=#880000] [stroke width=3.00]}] [x1=180.00] [y1=0.00] [x2=180.00] [y2=100.00]
          LayoutSVGText {text} at (20,107) size 21x41 contains 1 chunk(s)
            LayoutSVGInlineText {#text} at (0,0) size 21x41
              chunk 1 text run 1 at (20.00,140.00) startOffset 0 endOffset 1 width 20.02: "9"
          LayoutSVGPath {line} at (178,140) size 4x100 [stroke={[type=SOLID] [color=#880000] [stroke width=3.00]}] [x1=30.00] [y1=0.00] [x2=30.00] [y2=100.00]
          LayoutSVGRect {rect} at (148,138) size 304x84 [stroke={[type=SOLID] [color=#880088] [stroke width=4.00]}] [fill={[type=SOLID] [color=#44AAFF]}] [x=0.00] [y=0.00] [width=300.00] [height=80.00]
    LayoutSVGText {text} at (10,304) size 264x46 contains 1 chunk(s)
      LayoutSVGInlineText {#text} at (0,0) size 264x46
        chunk 1 text run 1 at (10.00,340.00) startOffset 0 endOffset 16 width 263.34: "$Revision: 1.5 $"
    LayoutSVGRect {rect} at (0,0) size 480x360 [stroke={[type=SOLID] [color=#000000]}] [x=1.00] [y=1.00] [width=478.00] [height=358.00]
