layer at (0,0) size 480x360
  LayoutView at (0,0) size 480x360
layer at (0,0) size 480x360
  LayoutSVGRoot {svg} at (0,0) size 480x360
    LayoutSVGText {text} at (10,304) size 264x46 contains 1 chunk(s)
      LayoutSVGInlineText {#text} at (0,0) size 264x46
        chunk 1 text run 1 at (10.00,340.00) startOffset 0 endOffset 16 width 263.34: "$Revision: 1.7 $"
    LayoutSVGRect {rect} at (0,0) size 480x360 [stroke={[type=SOLID] [color=#000000]}] [x=1.00] [y=1.00] [width=478.00] [height=358.00]
    LayoutSVGText {text} at (222,12) size 36x23 contains 1 chunk(s)
      LayoutSVGInlineText {#text} at (0,0) size 35x23
        chunk 1 (middle anchor) text run 1 at (222.78,30.00) startOffset 0 endOffset 3 width 34.43: "max"
    LayoutSVGText {text} at (194,172) size 92x23 contains 1 chunk(s)
      LayoutSVGInlineText {#text} at (0,0) size 92x23
        chunk 1 (middle anchor) text run 1 at (194.45,190.00) startOffset 0 endOffset 9 width 91.10: "min & max"
    LayoutSVGContainer {g} at (75,42) size 282x237 [transform={m=((1.00,0.00)(0.00,1.00)) t=(100.00,30.00)}]
      LayoutSVGContainer {g} at (75,62) size 145x217 [transform={m=((1.00,0.00)(0.00,1.00)) t=(120.00,45.00)}]
        LayoutSVGText {text} at (-87,-13) size 87x17 contains 1 chunk(s)
          LayoutSVGInlineText {#text} at (0,0) size 87x17
            chunk 1 (end anchor) text run 1 at (-86.70,0.00) startOffset 0 endOffset 14 width 86.70: "no max / media"
        LayoutSVGText {text} at (-106,12) size 106x17 contains 1 chunk(s)
          LayoutSVGInlineText {#text} at (0,0) size 106x17
            chunk 1 (end anchor) text run 1 at (-105.75,25.00) startOffset 0 endOffset 18 width 105.75: "invalid max values"
        LayoutSVGText {text} at (-95,37) size 95x17 contains 1 chunk(s)
          LayoutSVGInlineText {#text} at (0,0) size 95x17
            chunk 1 (end anchor) text run 1 at (-94.58,50.00) startOffset 0 endOffset 16 width 94.58: "max < active dur"
        LayoutSVGText {text} at (-95,62) size 95x17 contains 1 chunk(s)
          LayoutSVGInlineText {#text} at (0,0) size 95x17
            chunk 1 (end anchor) text run 1 at (-94.58,75.00) startOffset 0 endOffset 16 width 94.58: "max > active dur"
        LayoutSVGText {text} at (-61,137) size 61x17 contains 1 chunk(s)
          LayoutSVGInlineText {#text} at (0,0) size 61x17
            chunk 1 (end anchor) text run 1 at (-60.78,150.00) startOffset 0 endOffset 9 width 60.78: "min < max"
        LayoutSVGText {text} at (-61,162) size 61x17 contains 1 chunk(s)
          LayoutSVGInlineText {#text} at (0,0) size 61x17
            chunk 1 (end anchor) text run 1 at (-60.78,175.00) startOffset 0 endOffset 9 width 60.78: "min = max"
        LayoutSVGText {text} at (-145,187) size 145x17 contains 1 chunk(s)
          LayoutSVGInlineText {#text} at (0,0) size 145x17
            chunk 1 (end anchor) text run 1 at (-144.76,200.00) startOffset 0 endOffset 24 width 144.76: "min > max (both ignored)"
      LayoutSVGContainer {g} at (238,42) size 107x17 [transform={m=((1.00,0.00)(0.00,1.00)) t=(150.00,25.00)}]
        LayoutSVGText {text} at (-12,-13) size 24x17 contains 1 chunk(s)
          LayoutSVGInlineText {#text} at (0,0) size 24x17
            chunk 1 (middle anchor) text run 1 at (-11.92,0.00) startOffset 0 endOffset 4 width 23.84: "> 5s"
        LayoutSVGText {text} at (65,-13) size 30x17 contains 1 chunk(s)
          LayoutSVGInlineText {#text} at (0,0) size 30x17
            chunk 1 (middle anchor) text run 1 at (65.22,0.00) startOffset 0 endOffset 5 width 29.56: "0s-5s"
      LayoutSVGContainer {g} at (243,63) size 114x214 [transform={m=((1.00,0.00)(0.00,1.00)) t=(150.00,40.00)}]
        LayoutSVGHiddenContainer {defs} at (0,0) size 0x0
          LayoutSVGRect {rect} at (243,63) size 14x14 [stroke={[type=SOLID] [color=#000000]}] [fill={[type=SOLID] [color=#CCCCCC]}] [x=-6.00] [y=-6.00] [width=12.00] [height=12.00]
        LayoutSVGContainer {g} at (243,63) size 114x14
          LayoutSVGContainer {use} at (243,63) size 14x14
            LayoutSVGRect {rect} at (243,63) size 14x14 [stroke={[type=SOLID] [color=#000000]}] [fill={[type=SOLID] [color=#CCCCCC]}] [x=-6.00] [y=-6.00] [width=12.00] [height=12.00]
          LayoutSVGContainer {use} at (323,63) size 14x14 [transform={m=((1.00,0.00)(0.00,1.00)) t=(80.00,0.00)}]
            LayoutSVGRect {rect} at (323,63) size 14x14 [stroke={[type=SOLID] [color=#000000]}] [fill={[type=SOLID] [color=#CCCCCC]}] [x=-6.00] [y=-6.00] [width=12.00] [height=12.00]
          LayoutSVGRect {rect} at (323,63) size 14x14 [stroke={[type=SOLID] [color=#000000]}] [fill={[type=SOLID] [color=#CC0066]}] [x=74.00] [y=-6.00] [width=12.00] [height=12.00]
          LayoutSVGContainer {g} at (263,63) size 94x14 [transform={m=((1.00,0.00)(0.00,1.00)) t=(20.00,0.00)}]
            LayoutSVGContainer {use} at (263,63) size 14x14
              LayoutSVGRect {rect} at (263,63) size 14x14 [stroke={[type=SOLID] [color=#000000]}] [fill={[type=SOLID] [color=#CCCCCC]}] [x=-6.00] [y=-6.00] [width=12.00] [height=12.00]
            LayoutSVGContainer {use} at (343,63) size 14x14 [transform={m=((1.00,0.00)(0.00,1.00)) t=(80.00,0.00)}]
              LayoutSVGRect {rect} at (343,63) size 14x14 [stroke={[type=SOLID] [color=#000000]}] [fill={[type=SOLID] [color=#CCCCCC]}] [x=-6.00] [y=-6.00] [width=12.00] [height=12.00]
            LayoutSVGRect {rect} at (343,63) size 14x14 [stroke={[type=SOLID] [color=#000000]}] [fill={[type=SOLID] [color=#CC0066]}] [x=74.00] [y=-6.00] [width=12.00] [height=12.00]
        LayoutSVGContainer {g} at (243,88) size 114x14 [transform={m=((1.00,0.00)(0.00,1.00)) t=(0.00,25.00)}]
          LayoutSVGContainer {use} at (243,88) size 14x14
            LayoutSVGRect {rect} at (243,88) size 14x14 [stroke={[type=SOLID] [color=#000000]}] [fill={[type=SOLID] [color=#CCCCCC]}] [x=-6.00] [y=-6.00] [width=12.00] [height=12.00]
          LayoutSVGContainer {use} at (323,88) size 14x14 [transform={m=((1.00,0.00)(0.00,1.00)) t=(80.00,0.00)}]
            LayoutSVGRect {rect} at (323,88) size 14x14 [stroke={[type=SOLID] [color=#000000]}] [fill={[type=SOLID] [color=#CCCCCC]}] [x=-6.00] [y=-6.00] [width=12.00] [height=12.00]
          LayoutSVGRect {rect} at (323,88) size 14x14 [stroke={[type=SOLID] [color=#000000]}] [fill={[type=SOLID] [color=#CC0066]}] [x=74.00] [y=-6.00] [width=12.00] [height=12.00]
          LayoutSVGContainer {g} at (263,88) size 94x14 [transform={m=((1.00,0.00)(0.00,1.00)) t=(20.00,0.00)}]
            LayoutSVGContainer {use} at (263,88) size 14x14
              LayoutSVGRect {rect} at (263,88) size 14x14 [stroke={[type=SOLID] [color=#000000]}] [fill={[type=SOLID] [color=#CCCCCC]}] [x=-6.00] [y=-6.00] [width=12.00] [height=12.00]
            LayoutSVGContainer {use} at (343,88) size 14x14 [transform={m=((1.00,0.00)(0.00,1.00)) t=(80.00,0.00)}]
              LayoutSVGRect {rect} at (343,88) size 14x14 [stroke={[type=SOLID] [color=#000000]}] [fill={[type=SOLID] [color=#CCCCCC]}] [x=-6.00] [y=-6.00] [width=12.00] [height=12.00]
            LayoutSVGRect {rect} at (343,88) size 14x14 [stroke={[type=SOLID] [color=#000000]}] [fill={[type=SOLID] [color=#CC0066]}] [x=74.00] [y=-6.00] [width=12.00] [height=12.00]
        LayoutSVGContainer {g} at (243,113) size 94x14 [transform={m=((1.00,0.00)(0.00,1.00)) t=(0.00,50.00)}]
          LayoutSVGContainer {use} at (243,113) size 14x14
            LayoutSVGRect {rect} at (243,113) size 14x14 [stroke={[type=SOLID] [color=#000000]}] [fill={[type=SOLID] [color=#CCCCCC]}] [x=-6.00] [y=-6.00] [width=12.00] [height=12.00]
          LayoutSVGContainer {use} at (323,113) size 14x14 [transform={m=((1.00,0.00)(0.00,1.00)) t=(80.00,0.00)}]
            LayoutSVGRect {rect} at (323,113) size 14x14 [stroke={[type=SOLID] [color=#000000]}] [fill={[type=SOLID] [color=#CCCCCC]}] [x=-6.00] [y=-6.00] [width=12.00] [height=12.00]
          LayoutSVGRect {rect} at (323,113) size 14x14 [stroke={[type=SOLID] [color=#000000]}] [fill={[type=SOLID] [color=#CC0066]}] [x=74.00] [y=-6.00] [width=12.00] [height=12.00]
        LayoutSVGContainer {g} at (243,138) size 94x14 [transform={m=((1.00,0.00)(0.00,1.00)) t=(0.00,75.00)}]
          LayoutSVGContainer {use} at (243,138) size 14x14
            LayoutSVGRect {rect} at (243,138) size 14x14 [stroke={[type=SOLID] [color=#000000]}] [fill={[type=SOLID] [color=#CCCCCC]}] [x=-6.00] [y=-6.00] [width=12.00] [height=12.00]
          LayoutSVGContainer {use} at (323,138) size 14x14 [transform={m=((1.00,0.00)(0.00,1.00)) t=(80.00,0.00)}]
            LayoutSVGRect {rect} at (323,138) size 14x14 [stroke={[type=SOLID] [color=#000000]}] [fill={[type=SOLID] [color=#CCCCCC]}] [x=-6.00] [y=-6.00] [width=12.00] [height=12.00]
          LayoutSVGRect {rect} at (323,138) size 14x14 [stroke={[type=SOLID] [color=#000000]}] [fill={[type=SOLID] [color=#CC0066]}] [x=74.00] [y=-6.00] [width=12.00] [height=12.00]
        LayoutSVGContainer {g} at (243,213) size 94x14 [transform={m=((1.00,0.00)(0.00,1.00)) t=(0.00,150.00)}]
          LayoutSVGContainer {use} at (243,213) size 14x14
            LayoutSVGRect {rect} at (243,213) size 14x14 [stroke={[type=SOLID] [color=#000000]}] [fill={[type=SOLID] [color=#CCCCCC]}] [x=-6.00] [y=-6.00] [width=12.00] [height=12.00]
          LayoutSVGContainer {use} at (323,213) size 14x14 [transform={m=((1.00,0.00)(0.00,1.00)) t=(80.00,0.00)}]
            LayoutSVGRect {rect} at (323,213) size 14x14 [stroke={[type=SOLID] [color=#000000]}] [fill={[type=SOLID] [color=#CCCCCC]}] [x=-6.00] [y=-6.00] [width=12.00] [height=12.00]
          LayoutSVGRect {rect} at (323,213) size 14x14 [stroke={[type=SOLID] [color=#000000]}] [fill={[type=SOLID] [color=#CC0066]}] [x=74.00] [y=-6.00] [width=12.00] [height=12.00]
        LayoutSVGContainer {g} at (243,238) size 94x14 [transform={m=((1.00,0.00)(0.00,1.00)) t=(0.00,175.00)}]
          LayoutSVGContainer {use} at (243,238) size 14x14
            LayoutSVGRect {rect} at (243,238) size 14x14 [stroke={[type=SOLID] [color=#000000]}] [fill={[type=SOLID] [color=#CCCCCC]}] [x=-6.00] [y=-6.00] [width=12.00] [height=12.00]
          LayoutSVGContainer {use} at (323,238) size 14x14 [transform={m=((1.00,0.00)(0.00,1.00)) t=(80.00,0.00)}]
            LayoutSVGRect {rect} at (323,238) size 14x14 [stroke={[type=SOLID] [color=#000000]}] [fill={[type=SOLID] [color=#CCCCCC]}] [x=-6.00] [y=-6.00] [width=12.00] [height=12.00]
          LayoutSVGRect {rect} at (323,238) size 14x14 [stroke={[type=SOLID] [color=#000000]}] [fill={[type=SOLID] [color=#CC0066]}] [x=74.00] [y=-6.00] [width=12.00] [height=12.00]
        LayoutSVGContainer {g} at (243,263) size 94x14 [transform={m=((1.00,0.00)(0.00,1.00)) t=(0.00,200.00)}]
          LayoutSVGContainer {use} at (243,263) size 14x14
            LayoutSVGRect {rect} at (243,263) size 14x14 [stroke={[type=SOLID] [color=#000000]}] [fill={[type=SOLID] [color=#CCCCCC]}] [x=-6.00] [y=-6.00] [width=12.00] [height=12.00]
          LayoutSVGContainer {use} at (323,263) size 14x14 [transform={m=((1.00,0.00)(0.00,1.00)) t=(80.00,0.00)}]
            LayoutSVGRect {rect} at (323,263) size 14x14 [stroke={[type=SOLID] [color=#000000]}] [fill={[type=SOLID] [color=#CCCCCC]}] [x=-6.00] [y=-6.00] [width=12.00] [height=12.00]
          LayoutSVGRect {rect} at (323,263) size 14x14 [stroke={[type=SOLID] [color=#000000]}] [fill={[type=SOLID] [color=#CC0066]}] [x=74.00] [y=-6.00] [width=12.00] [height=12.00]
