layer at (0,0) size 785x3376
  LayoutView at (0,0) size 785x600
layer at (0,0) size 785x3376
  LayoutBlockFlow {HTML} at (0,0) size 785x3376
    LayoutBlockFlow {BODY} at (8,8) size 769x3360
      LayoutBlockFlow {DIV} at (0,0) size 210x210 [bgcolor=#008000] [border: (5px dotted #000080) (5px double #000080) (5px dotted #000080) (5px double #000080)]
      LayoutBlockFlow {DIV} at (0,210) size 210x210 [bgcolor=#008000] [border: (5px dotted #000080) (5px double #000080) (5px dotted #000080) (5px double #000080)]
      LayoutBlockFlow {DIV} at (0,420) size 210x210 [bgcolor=#008000] [border: (5px dotted #000080) (5px double #000080) (5px dotted #000080) (5px double #000080)]
      LayoutBlockFlow {DIV} at (0,630) size 210x210 [bgcolor=#008000] [border: (5px dotted #000080) (5px double #000080) (5px dotted #000080) (5px double #000080)]
      LayoutBlockFlow {DIV} at (0,840) size 210x210 [bgcolor=#008000] [border: (5px dotted #000080) (5px double #000080) (5px dotted #000080) (5px double #000080)]
      LayoutBlockFlow {DIV} at (0,1050) size 210x210 [bgcolor=#008000] [border: (5px dotted #000080) (5px double #000080) (5px dotted #000080) (5px double #000080)]
      LayoutBlockFlow {DIV} at (0,1260) size 210x210 [bgcolor=#008000] [border: (5px dotted #000080) (5px double #000080) (5px dotted #000080) (5px double #000080)]
      LayoutBlockFlow {DIV} at (0,1470) size 210x210 [bgcolor=#008000] [border: (5px dotted #000080) (5px double #000080) (5px dotted #000080) (5px double #000080)]
      LayoutBlockFlow {DIV} at (0,1680) size 210x210 [bgcolor=#008000] [border: (5px dotted #000080) (5px double #000080) (5px dotted #000080) (5px double #000080)]
      LayoutBlockFlow {DIV} at (0,1890) size 210x210 [bgcolor=#008000] [border: (5px dotted #000080) (5px double #000080) (5px dotted #000080) (5px double #000080)]
      LayoutBlockFlow {DIV} at (0,2100) size 210x210 [bgcolor=#008000] [border: (5px dotted #000080) (5px double #000080) (5px dotted #000080) (5px double #000080)]
      LayoutBlockFlow {DIV} at (0,2310) size 210x210 [bgcolor=#008000] [border: (5px dotted #000080) (5px double #000080) (5px dotted #000080) (5px double #000080)]
      LayoutBlockFlow {DIV} at (0,2520) size 210x210 [bgcolor=#008000] [border: (5px dotted #000080) (5px double #000080) (5px dotted #000080) (5px double #000080)]
      LayoutBlockFlow {DIV} at (0,2730) size 210x210 [bgcolor=#008000] [border: (5px dotted #000080) (5px double #000080) (5px dotted #000080) (5px double #000080)]
      LayoutBlockFlow {DIV} at (0,2940) size 210x210 [bgcolor=#008000] [border: (5px dotted #000080) (5px double #000080) (5px dotted #000080) (5px double #000080)]
      LayoutBlockFlow {DIV} at (0,3150) size 210x210 [bgcolor=#008000] [border: (5px dotted #000080) (5px double #000080) (5px dotted #000080) (5px double #000080)]
