layer at (0,0) size 800x600
  LayoutView at (0,0) size 800x600
layer at (0,0) size 800x34
  LayoutBlockFlow {html} at (0,0) size 800x34
    LayoutBlockFlow {body} at (8,8) size 784x18
      LayoutBlockFlow {address} at (0,0) size 784x18 [bgcolor=#00FF00]
        LayoutInline {span} at (0,0) size 107x17
          LayoutText {#text} at (0,0) size 107x17
            text run at (0,0) width 107: "This line should "
        LayoutText {#text} at (0,0) size 0x0
        LayoutInline {span} at (0,0) size 168x17
          LayoutText {#text} at (106,0) size 168x17
            text run at (106,0) width 168: "have a green background."
        LayoutText {#text} at (0,0) size 0x0
