layer at (0,0) size 800x600
  LayoutView at (0,0) size 800x600
layer at (0,0) size 800x600
  LayoutSVGRoot {svg} at (146,23) size 554x577
    LayoutSVGHiddenContainer {symbol} at (0,0) size 0x0
      LayoutSVGRect {rect} at (5,5) size 59x59 [fill={[type=SOLID] [color=#0000FF]}] [x=5.00] [y=5.00] [width=59.00] [height=59.00]
      LayoutSVGText {text} at (17,2) size 42x68 contains 1 chunk(s)
        LayoutSVGInlineText {#text} at (0,0) size 42x68
          chunk 1 text run 1 at (17.00,56.00) startOffset 0 endOffset 1 width 42.00: "A"
    LayoutSVGHiddenContainer {symbol} at (0,0) size 0x0
      LayoutSVGRect {rect} at (5,5) size 59x59 [fill={[type=SOLID] [color=#FF00FF]}] [x=5.00] [y=5.00] [width=59.00] [height=59.00]
      LayoutSVGText {text} at (17,2) size 39x68 contains 1 chunk(s)
        LayoutSVGInlineText {#text} at (0,0) size 39x68
          chunk 1 text run 1 at (17.00,56.00) startOffset 0 endOffset 1 width 39.00: "B"
    LayoutSVGContainer {use} at (146,23) size 554x577
      LayoutSVGViewportContainer {svg} at (146,23) size 554x577
        LayoutSVGRect {rect} at (146,46) size 554x554 [fill={[type=SOLID] [color=#0000FF]}] [x=5.00] [y=5.00] [width=59.00] [height=59.00]
        LayoutSVGText {text} at (17,2) size 44x68 contains 1 chunk(s)
          LayoutSVGInlineText {#text} at (0,0) size 44x67
            chunk 1 text run 1 at (17.00,56.00) startOffset 0 endOffset 1 width 43.31: "A"
