layer at (0,0) size 480x360
  LayoutView at (0,0) size 480x360
layer at (0,0) size 480x360
  LayoutSVGRoot {svg} at (0,0) size 480x360
    LayoutSVGHiddenContainer {defs} at (0,0) size 0x0
    LayoutSVGContainer {g} at (0,0) size 480x360
      LayoutSVGHiddenContainer {defs} at (0,0) size 0x0
      LayoutSVGText {text} at (159,53) size 162x21 contains 1 chunk(s)
        LayoutSVGInlineText {#text} at (0,0) size 161x21
          chunk 1 (middle anchor) text run 1 at (159.98,70.00) startOffset 0 endOffset 17 width 160.04: "SVGStringList DOM"
      LayoutSVGContainer {g} at (80,100) size 320x100
        LayoutSVGRect {rect} at (80,100) size 100x100 [transform={m=((1.00,0.00)(0.00,1.00)) t=(80.00,100.00)}] [fill={[type=SOLID] [color=#00FF00]}] [x=0.00] [y=0.00] [width=100.00] [height=100.00]
        LayoutSVGRect {rect} at (190,100) size 100x100 [transform={m=((1.00,0.00)(0.00,1.00)) t=(190.00,100.00)}] [fill={[type=SOLID] [color=#00FF00]}] [x=0.00] [y=0.00] [width=100.00] [height=100.00]
        LayoutSVGRect {rect} at (300,100) size 100x100 [transform={m=((1.00,0.00)(0.00,1.00)) t=(300.00,100.00)}] [fill={[type=SOLID] [color=#FF0000]}] [x=0.00] [y=0.00] [width=100.00] [height=100.00]
      LayoutSVGRect {rect} at (100,100) size 100x100 [transform={m=((1.00,0.00)(0.00,1.00)) t=(100.00,100.00)}] [fill={[type=SOLID] [color=#FF0000]}] [x=0.00] [y=0.00] [width=100.00] [height=100.00]
      LayoutSVGRect {rect} at (190,100) size 100x100 [transform={m=((1.00,0.00)(0.00,1.00)) t=(190.00,100.00)}] [fill={[type=SOLID] [color=#FF0000]}] [x=0.00] [y=0.00] [width=100.00] [height=100.00]
      LayoutSVGRect {rect} at (300,100) size 100x100 [transform={m=((1.00,0.00)(0.00,1.00)) t=(300.00,100.00)}] [fill={[type=SOLID] [color=#00FF00]}] [x=0.00] [y=0.00] [width=100.00] [height=100.00]
      LayoutSVGRect {rect} at (0,0) size 480x360 [x=0.00] [y=0.00] [width=480.00] [height=360.00]
    LayoutSVGContainer {g} at (10,310) size 230x37
      LayoutSVGText {text} at (10,310) size 230x37 contains 1 chunk(s)
        LayoutSVGInlineText {#text} at (0,0) size 230x37
          chunk 1 text run 1 at (10.00,340.00) startOffset 0 endOffset 16 width 229.47: "$Revision: 1.5 $"
    LayoutSVGRect {rect} at (0,0) size 480x360 [stroke={[type=SOLID] [color=#000000]}] [x=1.00] [y=1.00] [width=478.00] [height=358.00]
