layer at (0,0) size 800x600 clip at (0,0) size 785x600 scrollHeight 1089
  LayoutView at (0,0) size 800x600
layer at (0,0) size 785x1089 backgroundClip at (0,0) size 785x600 clip at (0,0) size 785x600 outlineClip at (0,0) size 785x600
  LayoutBlockFlow {HTML} at (0,0) size 785x1089
    LayoutBlockFlow {BODY} at (8,8) size 769x1073 [bgcolor=#CCCCCC]
      LayoutBlockFlow {P} at (0,0) size 749x18
        LayoutText {#text} at (0,0) size 363x17
          text run at (0,0) width 363: "The style declarations which apply to the text below are:"
      LayoutBlockFlow {PRE} at (0,34) size 769x112
        LayoutText {#text} at (0,0) size 352x112
          text run at (0,0) width 184: "P {margin-right: 20px;}"
          text run at (184,0) width 0: " "
          text run at (0,16) width 320: ".one {border-right: purple double 10px;}"
          text run at (320,16) width 0: " "
          text run at (0,32) width 312: ".two {border-right: purple thin solid;}"
          text run at (312,32) width 0: " "
          text run at (0,48) width 344: ".threea {border-right: black medium solid;}"
          text run at (344,48) width 0: " "
          text run at (0,64) width 352: ".threeb {border-right: purple medium solid;}"
          text run at (352,64) width 0: " "
          text run at (0,80) width 336: ".threec {border-right: blue medium solid;}"
          text run at (336,80) width 0: " "
          text run at (0,96) width 280: "TD {border-right: green 2px solid;}"
          text run at (280,96) width 0: " "
      LayoutBlockFlow {HR} at (0,159) size 769x2 [border: (1px inset #EEEEEE)]
      LayoutBlockFlow {P} at (0,177) size 749x36
        LayoutText {#text} at (0,0) size 732x35
          text run at (0,0) width 658: "Note that all table cells on this page should have a two-pixel solid green border along their right sides. "
          text run at (657,0) width 75: "This border"
          text run at (0,18) width 373: "applies only to the cells, not the rows which contain them."
      LayoutBlockFlow {P} at (0,229) size 749x18 [border: none (10px double #800080) none]
        LayoutText {#text} at (0,0) size 431x17
          text run at (0,0) width 431: "This paragraph should have a purple, double, 10-pixel right border."
      LayoutBlockFlow {P} at (0,263) size 749x18 [border: none (1px solid #800080) none]
        LayoutText {#text} at (0,0) size 347x17
          text run at (0,0) width 347: "This paragraph should have a thin purple right border."
      LayoutTable {TABLE} at (0,297) size 769x107 [border: (1px outset #808080)]
        LayoutTableSection {TBODY} at (1,1) size 767x105
          LayoutTableRow {TR} at (0,5) size 767x40
            LayoutTableCell {TD} at (5,5) size 757x40 [border: (1px inset #808080) (2px solid #008000) (1px inset #808080)] [r=0 c=0 rs=1 cs=2]
              LayoutText {#text} at (2,2) size 740x35
                text run at (2,2) width 448: "Every cell in this table should have a 2-pixel solid green right border. "
                text run at (449,2) width 293: "This is also true of the table-testing section in"
                text run at (2,20) width 203: "the second half of the test page."
          LayoutTableRow {TR} at (0,50) size 767x50
            LayoutTableCell {TD} at (5,64) size 191x22 [border: (1px inset #808080) (2px solid #008000) (1px inset #808080)] [r=1 c=0 rs=1 cs=1]
              LayoutText {#text} at (2,2) size 54x17
                text run at (2,2) width 54: "Cell one"
            LayoutTableCell {TD} at (201,50) size 561x50 [border: (1px inset #808080) (2px solid #008000) (1px inset #808080)] [r=1 c=1 rs=1 cs=1]
              LayoutBlockFlow (anonymous) at (2,2) size 556x18
                LayoutText {#text} at (0,0) size 55x17
                  text run at (0,0) width 55: "Cell two"
              LayoutTable {TABLE} at (2,20) size 167x28 [border: (1px outset #808080)]
                LayoutTableSection {TBODY} at (1,1) size 165x26
                  LayoutTableRow {TR} at (0,2) size 165x22
                    LayoutTableCell {TD} at (2,2) size 161x22 [border: (1px inset #808080) (2px solid #008000) (1px inset #808080)] [r=0 c=0 rs=1 cs=1]
                      LayoutText {#text} at (2,2) size 156x17
                        text run at (2,2) width 156: "Nested single-cell table!"
      LayoutBlockFlow {UL} at (0,420) size 769x162
        LayoutListItem {LI} at (40,0) size 729x72 [border: none (3px solid #000000) none]
          LayoutBlockFlow (anonymous) at (0,0) size 726x18
            LayoutListMarker at (-17,0) size 7x17: bullet
            LayoutText {#text} at (0,0) size 123x17
              text run at (0,0) width 123: "This is a list item..."
          LayoutBlockFlow {UL} at (0,18) size 726x54
            LayoutListItem {LI} at (40,0) size 686x18
              LayoutListMarker at (-17,0) size 7x17: white bullet
              LayoutText {#text} at (0,0) size 75x17
                text run at (0,0) width 75: "...and this..."
            LayoutListItem {LI} at (40,18) size 686x18
              LayoutListMarker at (-17,0) size 7x17: white bullet
              LayoutText {#text} at (0,0) size 118x17
                text run at (0,0) width 118: "...is a second list..."
            LayoutListItem {LI} at (40,36) size 686x18
              LayoutListMarker at (-17,0) size 7x17: white bullet
              LayoutText {#text} at (0,0) size 182x17
                text run at (0,0) width 182: "...nested within the list item."
        LayoutListItem {LI} at (40,72) size 729x18 [border: none (3px solid #800080) none]
          LayoutListMarker at (-17,0) size 7x17: bullet
          LayoutText {#text} at (0,0) size 163x17
            text run at (0,0) width 163: "This is a second list item."
        LayoutListItem {LI} at (40,90) size 729x72 [border: none (3px solid #0000FF) none]
          LayoutListMarker at (-17,0) size 7x17: bullet
          LayoutText {#text} at (0,0) size 722x71
            text run at (0,0) width 718: "Each list item in this 'parent' list should have a medium-width border along its right side, in each of three colors."
            text run at (0,18) width 722: "The first item's border should travel the entire height the nested list (to end near the baseline of the line \"...nested"
            text run at (0,36) width 550: "within the list item.\"), even though the nested list does not have any border styles set. "
            text run at (549,36) width 173: "The borders should line up"
            text run at (0,54) width 634: "together at the right edge of the document's body, as each list element has a default width of 100%."
      LayoutTable {TABLE} at (0,598) size 769x475 [border: (1px outset #808080)]
        LayoutTableSection {TBODY} at (1,1) size 767x473
          LayoutTableRow {TR} at (0,0) size 767x26
            LayoutTableCell {TD} at (0,0) size 767x26 [bgcolor=#C0C0C0] [border: (1px inset #808080) (2px solid #008000) (1px inset #808080)] [r=0 c=0 rs=1 cs=2]
              LayoutInline {STRONG} at (0,0) size 163x17
                LayoutText {#text} at (4,4) size 163x17
                  text run at (4,4) width 163: "TABLE Testing Section"
          LayoutTableRow {TR} at (0,26) size 767x447
            LayoutTableCell {TD} at (0,236) size 13x26 [bgcolor=#C0C0C0] [border: (1px inset #808080) (2px solid #008000) (1px inset #808080)] [r=1 c=0 rs=1 cs=1]
              LayoutText {#text} at (4,4) size 4x17
                text run at (4,4) width 4: " "
            LayoutTableCell {TD} at (13,26) size 754x447 [border: (1px inset #808080) (2px solid #008000) (1px inset #808080)] [r=1 c=1 rs=1 cs=1]
              LayoutBlockFlow {P} at (4,4) size 725x36
                LayoutText {#text} at (0,0) size 687x35
                  text run at (0,0) width 658: "Note that all table cells on this page should have a two-pixel solid green border along their right sides. "
                  text run at (657,0) width 30: "This"
                  text run at (0,18) width 419: "border applies only to the cells, not the rows which contain them."
              LayoutBlockFlow {P} at (4,56) size 725x18 [border: none (10px double #800080) none]
                LayoutText {#text} at (0,0) size 431x17
                  text run at (0,0) width 431: "This paragraph should have a purple, double, 10-pixel right border."
              LayoutBlockFlow {P} at (4,90) size 725x18 [border: none (1px solid #800080) none]
                LayoutText {#text} at (0,0) size 347x17
                  text run at (0,0) width 347: "This paragraph should have a thin purple right border."
              LayoutTable {TABLE} at (4,124) size 745x107 [border: (1px outset #808080)]
                LayoutTableSection {TBODY} at (1,1) size 743x105
                  LayoutTableRow {TR} at (0,5) size 743x40
                    LayoutTableCell {TD} at (5,5) size 733x40 [border: (1px inset #808080) (2px solid #008000) (1px inset #808080)] [r=0 c=0 rs=1 cs=2]
                      LayoutText {#text} at (2,2) size 723x35
                        text run at (2,2) width 448: "Every cell in this table should have a 2-pixel solid green right border. "
                        text run at (449,2) width 276: "This is also true of the table-testing section"
                        text run at (2,20) width 219: "in the second half of the test page."
                  LayoutTableRow {TR} at (0,50) size 743x50
                    LayoutTableCell {TD} at (5,64) size 185x22 [border: (1px inset #808080) (2px solid #008000) (1px inset #808080)] [r=1 c=0 rs=1 cs=1]
                      LayoutText {#text} at (2,2) size 54x17
                        text run at (2,2) width 54: "Cell one"
                    LayoutTableCell {TD} at (195,50) size 543x50 [border: (1px inset #808080) (2px solid #008000) (1px inset #808080)] [r=1 c=1 rs=1 cs=1]
                      LayoutBlockFlow (anonymous) at (2,2) size 538x18
                        LayoutText {#text} at (0,0) size 55x17
                          text run at (0,0) width 55: "Cell two"
                      LayoutTable {TABLE} at (2,20) size 167x28 [border: (1px outset #808080)]
                        LayoutTableSection {TBODY} at (1,1) size 165x26
                          LayoutTableRow {TR} at (0,2) size 165x22
                            LayoutTableCell {TD} at (2,2) size 161x22 [border: (1px inset #808080) (2px solid #008000) (1px inset #808080)] [r=0 c=0 rs=1 cs=1]
                              LayoutText {#text} at (2,2) size 156x17
                                text run at (2,2) width 156: "Nested single-cell table!"
              LayoutBlockFlow {UL} at (4,247) size 745x180
                LayoutListItem {LI} at (40,0) size 705x72 [border: none (3px solid #000000) none]
                  LayoutBlockFlow (anonymous) at (0,0) size 702x18
                    LayoutListMarker at (-17,0) size 7x17: bullet
                    LayoutText {#text} at (0,0) size 123x17
                      text run at (0,0) width 123: "This is a list item..."
                  LayoutBlockFlow {UL} at (0,18) size 702x54
                    LayoutListItem {LI} at (40,0) size 662x18
                      LayoutListMarker at (-17,0) size 7x17: white bullet
                      LayoutText {#text} at (0,0) size 75x17
                        text run at (0,0) width 75: "...and this..."
                    LayoutListItem {LI} at (40,18) size 662x18
                      LayoutListMarker at (-17,0) size 7x17: white bullet
                      LayoutText {#text} at (0,0) size 118x17
                        text run at (0,0) width 118: "...is a second list..."
                    LayoutListItem {LI} at (40,36) size 662x18
                      LayoutListMarker at (-17,0) size 7x17: white bullet
                      LayoutText {#text} at (0,0) size 182x17
                        text run at (0,0) width 182: "...nested within the list item."
                LayoutListItem {LI} at (40,72) size 705x18 [border: none (3px solid #800080) none]
                  LayoutListMarker at (-17,0) size 7x17: bullet
                  LayoutText {#text} at (0,0) size 163x17
                    text run at (0,0) width 163: "This is a second list item."
                LayoutListItem {LI} at (40,90) size 705x90 [border: none (3px solid #0000FF) none]
                  LayoutListMarker at (-17,0) size 7x17: bullet
                  LayoutText {#text} at (0,0) size 678x89
                    text run at (0,0) width 671: "Each list item in this 'parent' list should have a medium-width border along its right side, in each of three"
                    text run at (0,18) width 48: "colors. "
                    text run at (47,18) width 631: "The first item's border should travel the entire height the nested list (to end near the baseline of the"
                    text run at (0,36) width 642: "line \"...nested within the list item.\"), even though the nested list does not have any border styles set. "
                    text run at (641,36) width 26: "The"
                    text run at (0,54) width 678: "borders should line up together at the right edge of the document's body, as each list element has a default"
                    text run at (0,72) width 100: "width of 100%."
