layer at (0,0) size 800x600
  LayoutView at (0,0) size 800x600
layer at (0,0) size 800x600
  LayoutBlockFlow {HTML} at (0,0) size 800x600
    LayoutBlockFlow {BODY} at (0,0) size 800x600
      LayoutTable {TABLE} at (0,0) size 103x40 [bgcolor=#0000FF]
        LayoutTableSection {TBODY} at (0,0) size 103x40
          LayoutTableRow {TR} at (0,0) size 103x40
            LayoutTableCell {TD} at (0,0) size 103x40 [r=0 c=0 rs=1 cs=1]
              LayoutText {#text} at (0,0) size 62x19
                text run at (0,0) width 62: "Left Table"
              LayoutBR {BR} at (62,15) size 0x0
              LayoutText {#text} at (0,20) size 103x19
                text run at (0,20) width 103: "ALIGN=\"LEFT\""
              LayoutBR {BR} at (103,35) size 0x0
      LayoutTable {TABLE} at (103,0) size 103x40 [bgcolor=#0000FF]
        LayoutTableSection {TBODY} at (0,0) size 103x40
          LayoutTableRow {TR} at (0,0) size 103x40
            LayoutTableCell {TD} at (0,0) size 103x40 [r=0 c=0 rs=1 cs=1]
              LayoutText {#text} at (0,0) size 79x19
                text run at (0,0) width 79: "Center Table"
              LayoutBR {BR} at (79,15) size 0x0
              LayoutText {#text} at (0,20) size 103x19
                text run at (0,20) width 103: "ALIGN=\"LEFT\""
              LayoutBR {BR} at (103,35) size 0x0
      LayoutTable {TABLE} at (206,0) size 103x40 [bgcolor=#0000FF]
        LayoutTableSection {TBODY} at (0,0) size 103x40
          LayoutTableRow {TR} at (0,0) size 103x40
            LayoutTableCell {TD} at (0,0) size 103x40 [r=0 c=0 rs=1 cs=1]
              LayoutText {#text} at (0,0) size 69x19
                text run at (0,0) width 69: "Right Table"
              LayoutBR {BR} at (69,15) size 0x0
              LayoutText {#text} at (0,20) size 103x19
                text run at (0,20) width 103: "ALIGN=\"LEFT\""
              LayoutBR {BR} at (103,35) size 0x0
      LayoutBR {BR} at (309,0) size 0x19
      LayoutBR {BR} at (0,40) size 0x19
      LayoutText {#text} at (0,60) size 470x19
        text run at (0,60) width 470: "The three tables above should abut each other. (in NN3/4 and IE4/5 they do)."
