layer at (0,0) size 800x600
  LayoutView at (0,0) size 800x600
layer at (0,0) size 450x500
  LayoutSVGRoot {svg} at (0,0) size 449x498
    LayoutSVGHiddenContainer {defs} at (0,0) size 0x0
    LayoutSVGText {text} at (173,15) size 104x18 contains 1 chunk(s)
      LayoutSVGInlineText {#text} at (0,0) size 103x18
        chunk 1 (middle anchor) text run 1 at (173.50,30.00) startOffset 0 endOffset 15 width 103.00: "Text Position 2"
    LayoutSVGContainer {g} at (50,59) size 399x295
      LayoutSVGText {text} at (50,59) size 52x27 contains 1 chunk(s)
        LayoutSVGInlineText {#text} at (0,0) size 52x27
          chunk 1 text run 1 at (50.00,80.00) startOffset 0 endOffset 5 width 52.00: "Batik"
      LayoutSVGText {text} at (50,90) size 103x13 contains 1 chunk(s)
        LayoutSVGInlineText {#text} at (0,0) size 103x13
          chunk 1 text run 1 at (50.00,100.00) startOffset 0 endOffset 21 width 103.00: "<text x=\"100\" y=\"80\">"
      LayoutSVGText {text} at (240,59) size 132x27 contains 1 chunk(s)
        LayoutSVGInlineText {#text} at (0,0) size 132x27
          chunk 1 text run 1 at (240.00,80.00) startOffset 0 endOffset 1 width 16.00: "B"
          chunk 1 text run 2 at (276.00,80.00) startOffset 1 endOffset 2 width 11.00: "a"
          chunk 1 text run 3 at (307.00,80.00) startOffset 2 endOffset 3 width 7.00: "t"
          chunk 1 text run 4 at (334.00,80.00) startOffset 3 endOffset 4 width 6.00: "i"
          chunk 1 text run 5 at (360.00,80.00) startOffset 4 endOffset 5 width 12.00: "k"
      LayoutSVGText {text} at (240,90) size 195x13 contains 1 chunk(s)
        LayoutSVGInlineText {#text} at (0,0) size 195x13
          chunk 1 text run 1 at (240.00,100.00) startOffset 0 endOffset 41 width 195.00: "<text x=\"240\" y=\"80\" letter-spacing=\"20\">"
      LayoutSVGText {text} at (50,119) size 92x27 contains 1 chunk(s)
        LayoutSVGInlineText {#text} at (0,0) size 92x27
          chunk 1 text run 1 at (50.00,140.00) startOffset 0 endOffset 1 width 16.00: "B"
          chunk 1 text run 1 at (70.00,140.00) startOffset 0 endOffset 1 width 11.00: "a"
          chunk 1 text run 1 at (90.00,140.00) startOffset 0 endOffset 1 width 7.00: "t"
          chunk 1 text run 1 at (110.00,140.00) startOffset 0 endOffset 1 width 6.00: "i"
          chunk 1 text run 1 at (130.00,140.00) startOffset 0 endOffset 1 width 12.00: "k"
      LayoutSVGText {text} at (50,150) size 175x13 contains 1 chunk(s)
        LayoutSVGInlineText {#text} at (0,0) size 175x13
          chunk 1 text run 1 at (50.00,160.00) startOffset 0 endOffset 35 width 175.00: "<text x=\"50 70 90 110 130\" y=\"140\">"
      LayoutSVGText {text} at (240,119) size 132x27 contains 1 chunk(s)
        LayoutSVGInlineText {#text} at (0,0) size 132x27
          chunk 1 text run 1 at (240.00,140.00) startOffset 0 endOffset 1 width 16.00: "B"
          chunk 1 text run 2 at (276.00,140.00) startOffset 1 endOffset 2 width 11.00: "a"
          chunk 1 text run 3 at (307.00,140.00) startOffset 2 endOffset 3 width 7.00: "t"
          chunk 1 text run 4 at (334.00,140.00) startOffset 3 endOffset 4 width 6.00: "i"
          chunk 1 text run 5 at (360.00,140.00) startOffset 4 endOffset 5 width 12.00: "k"
      LayoutSVGText {text} at (240,150) size 175x13 contains 1 chunk(s)
        LayoutSVGInlineText {#text} at (0,0) size 175x13
          chunk 1 text run 1 at (240.00,160.00) startOffset 0 endOffset 35 width 175.00: "<text dx=\"240 20 20 20 20\" y=\"140\">"
      LayoutSVGText {text} at (50,179) size 52x27 contains 1 chunk(s)
        LayoutSVGTSpan {tspan} at (0,0) size 52x27
          LayoutSVGInlineText {#text} at (0,0) size 52x27
            chunk 1 text run 1 at (50.00,200.00) startOffset 0 endOffset 5 width 52.00: "Batik"
      LayoutSVGText {text} at (50,210) size 111x13 contains 1 chunk(s)
        LayoutSVGInlineText {#text} at (0,0) size 111x13
          chunk 1 text run 1 at (50.00,220.00) startOffset 0 endOffset 22 width 111.00: "<tspan x=\"50\" y=\"200\">"
      LayoutSVGText {text} at (240,179) size 132x27 contains 1 chunk(s)
        LayoutSVGTSpan {tspan} at (0,0) size 132x27
          LayoutSVGInlineText {#text} at (0,0) size 132x27
            chunk 1 text run 1 at (240.00,200.00) startOffset 0 endOffset 1 width 16.00: "B"
            chunk 1 text run 2 at (276.00,200.00) startOffset 1 endOffset 2 width 11.00: "a"
            chunk 1 text run 3 at (307.00,200.00) startOffset 2 endOffset 3 width 7.00: "t"
            chunk 1 text run 4 at (334.00,200.00) startOffset 3 endOffset 4 width 6.00: "i"
            chunk 1 text run 5 at (360.00,200.00) startOffset 4 endOffset 5 width 12.00: "k"
      LayoutSVGText {text} at (240,210) size 209x13 contains 1 chunk(s)
        LayoutSVGTSpan {tspan} at (0,0) size 209x13
          LayoutSVGInlineText {#text} at (0,0) size 209x13
            chunk 1 text run 1 at (240.00,220.00) startOffset 0 endOffset 43 width 209.00: "<tspan x=\"240\" y=\"200\" letter-spacing=\"20\">"
      LayoutSVGText {text} at (50,239) size 92x27 contains 1 chunk(s)
        LayoutSVGTSpan {tspan} at (0,0) size 92x27
          LayoutSVGInlineText {#text} at (0,0) size 92x27
            chunk 1 text run 1 at (50.00,260.00) startOffset 0 endOffset 1 width 16.00: "B"
            chunk 1 text run 1 at (70.00,260.00) startOffset 0 endOffset 1 width 11.00: "a"
            chunk 1 text run 1 at (90.00,260.00) startOffset 0 endOffset 1 width 7.00: "t"
            chunk 1 text run 1 at (110.00,260.00) startOffset 0 endOffset 1 width 6.00: "i"
            chunk 1 text run 1 at (130.00,260.00) startOffset 0 endOffset 1 width 12.00: "k"
      LayoutSVGText {text} at (50,270) size 183x13 contains 1 chunk(s)
        LayoutSVGInlineText {#text} at (0,0) size 183x13
          chunk 1 text run 1 at (50.00,280.00) startOffset 0 endOffset 36 width 183.00: "<tspan x=\"50 70 90 110 130\" y=\"260\">"
      LayoutSVGText {text} at (240,239) size 132x27 contains 1 chunk(s)
        LayoutSVGTSpan {tspan} at (0,0) size 132x27
          LayoutSVGInlineText {#text} at (0,0) size 132x27
            chunk 1 text run 1 at (240.00,260.00) startOffset 0 endOffset 1 width 16.00: "B"
            chunk 1 text run 2 at (276.00,260.00) startOffset 1 endOffset 2 width 11.00: "a"
            chunk 1 text run 3 at (307.00,260.00) startOffset 2 endOffset 3 width 7.00: "t"
            chunk 1 text run 4 at (334.00,260.00) startOffset 3 endOffset 4 width 6.00: "i"
            chunk 1 text run 5 at (360.00,260.00) startOffset 4 endOffset 5 width 12.00: "k"
      LayoutSVGText {text} at (240,270) size 183x13 contains 1 chunk(s)
        LayoutSVGInlineText {#text} at (0,0) size 183x13
          chunk 1 text run 1 at (240.00,280.00) startOffset 0 endOffset 36 width 183.00: "<tspan dx=\"240 20 20 20 20\" y=\"260\">"
      LayoutSVGText {text} at (50,299) size 92x27 contains 1 chunk(s)
        LayoutSVGTSpan {tspan} at (0,0) size 92x27
          LayoutSVGInlineText {#text} at (0,0) size 92x27
            chunk 1 text run 1 at (50.00,320.00) startOffset 0 endOffset 1 width 16.00: "B"
            chunk 1 text run 1 at (70.00,320.00) startOffset 0 endOffset 1 width 11.00: "a"
            chunk 1 text run 1 at (90.00,320.00) startOffset 0 endOffset 1 width 7.00: "t"
            chunk 1 text run 1 at (110.00,320.00) startOffset 0 endOffset 1 width 6.00: "i"
            chunk 1 text run 1 at (130.00,320.00) startOffset 0 endOffset 1 width 12.00: "k"
      LayoutSVGText {text} at (50,330) size 170x24 contains 1 chunk(s)
        LayoutSVGInlineText {#text} at (0,0) size 128x13
          chunk 1 text run 1 at (50.00,340.00) startOffset 0 endOffset 26 width 128.00: "<tspan x=\"50 60 70 80 90\" "
        LayoutSVGTSpan {tspan} at (0,0) size 137x13
          LayoutSVGInlineText {#text} at (33,11) size 137x13
            chunk 1 text run 1 at (83.00,351.00) startOffset 0 endOffset 27 width 137.00: "dx=\"0 10 20 30 40\" y=\"320\">"
      LayoutSVGText {text} at (240,299) size 132x27 contains 1 chunk(s)
        LayoutSVGTSpan {tspan} at (0,0) size 132x27
          LayoutSVGInlineText {#text} at (0,0) size 132x27
            chunk 1 text run 1 at (240.00,320.00) startOffset 0 endOffset 1 width 16.00: "B"
            chunk 1 text run 2 at (276.00,320.00) startOffset 1 endOffset 2 width 11.00: "a"
            chunk 1 text run 3 at (307.00,320.00) startOffset 2 endOffset 3 width 7.00: "t"
            chunk 1 text run 4 at (334.00,320.00) startOffset 3 endOffset 4 width 6.00: "i"
            chunk 1 text run 5 at (360.00,320.00) startOffset 4 endOffset 5 width 12.00: "k"
      LayoutSVGText {text} at (240,330) size 192x24 contains 1 chunk(s)
        LayoutSVGInlineText {#text} at (0,0) size 168x13
          chunk 1 text run 1 at (240.00,340.00) startOffset 0 endOffset 34 width 168.00: "<tspan x=\"240\" dx=\"0 10 10 10 10\" "
        LayoutSVGTSpan {tspan} at (0,0) size 159x13
          LayoutSVGInlineText {#text} at (33,11) size 159x13
            chunk 1 text run 1 at (273.00,351.00) startOffset 0 endOffset 34 width 159.00: "y=\"320\" style=\"letter-spacing:10\">"
    LayoutSVGContainer {use} at (0,0) size 448x498
      LayoutSVGContainer {g} at (0,0) size 448x498
        LayoutSVGRect {rect} at (0,0) size 448x498 [stroke={[type=SOLID] [color=#000000]}] [x=1.00] [y=1.00] [width=446.00] [height=496.00]
        LayoutSVGContainer {g} at (418,466) size 28x30 [transform={m=((1.00,0.00)(0.00,1.00)) t=(418.00,467.00)}]
          LayoutSVGViewportContainer {svg} at (418,466) size 28x30
            LayoutSVGPath {path} at (418,468) size 14x19 [fill={[type=SOLID] [color=#6666FF]}] [data="M 172 44 C 137 60 31 135 11 199 C 3 226 33 247 55 232 C 14 306 -1 332 0 356 C 0 370 13 398 44 383 C 52 379 79 358 96 342 C 110 341 120 331 138 314 C 155 328 174 324 190 307 C 212 309 272 229 234 199 C 231 175 204 162 181 181 C 175 179 168 180 163 182 C 185 147 206 100 212 77 C 219 47 188 36 172 44 Z"]
            LayoutSVGPath {path} at (432,466) size 14x17 [fill={[type=SOLID] [color=#FF0000]}] [data="M 400 0 C 382 3 351 31 351 31 C 322 54 308 89 323 126 C 310 140 294 170 294 193 C 294 221 314 245 344 222 C 351 230 365 238 381 227 C 376 256 384 275 407 276 C 408 286 420 307 443 293 C 459 283 501 254 522 237 C 547 214 547 143 504 148 C 537 89 501 52 477 64 C 467 68 431 89 425 94 C 424 87 420 82 414 80 C 436 45 436 -5 401 0 Z"]
            LayoutSVGPath {path} at (425,484) size 16x12 [fill={[type=SOLID] [color=#33CC33]}] [data="M 275 353 C 229 365 187 396 161 444 C 152 460 167 481 186 477 C 172 501 146 544 171 558 C 199 574 223 550 231 543 C 249 564 281 553 312 526 C 353 540 380 524 415 473 C 423 461 445 430 445 408 C 445 392 430 378 410 387 C 409 375 401 349 357 368 C 347 362 326 363 303 385 C 308 375 300 347 275 353 Z"]
