layer at (0,0) size 800x600
  LayoutView at (0,0) size 800x600
layer at (0,0) size 450x500
  LayoutSVGRoot {svg} at (0,0) size 448x498
    LayoutSVGContainer {g} at (39,15) size 390x388
      LayoutSVGText {text} at (103,15) size 244x18 contains 1 chunk(s)
        LayoutSVGInlineText {#text} at (0,0) size 244x18
          chunk 1 (middle anchor) text run 1 at (103.00,30.00) startOffset 0 endOffset 37 width 244.00: "Gradient and filter on text and tspan"
      LayoutSVGText {text} at (109,35) size 232x18 contains 1 chunk(s)
        LayoutSVGInlineText {#text} at (0,0) size 232x18
          chunk 1 (middle anchor) text run 1 at (109.00,50.00) startOffset 0 endOffset 32 width 232.00: "(Using System font and SVG font)"
      LayoutSVGHiddenContainer {defs} at (0,0) size 0x0
        LayoutSVGResourceLinearGradient {linearGradient} [id="linearGradient"] [gradientUnits=objectBoundingBox] [start=(0,0)] [end=(1,0)]
          LayoutSVGGradientStop {stop} [offset=0.00] [color=#FFD700]
          LayoutSVGGradientStop {stop} [offset=0.50] [color=#FFA500]
          LayoutSVGGradientStop {stop} [offset=1.00] [color=#DC143C]
        LayoutSVGResourceRadialGradient {radialGradient} [id="radialGradient"] [gradientUnits=objectBoundingBox] [center=(0.50,0.50)] [focal=(0.50,0.50)] [radius=0.50] [focalRadius=0.00]
          LayoutSVGGradientStop {stop} [offset=0.00] [color=#FFD700]
          LayoutSVGGradientStop {stop} [offset=0.50] [color=#FFA500]
          LayoutSVGGradientStop {stop} [offset=1.00] [color=#DC143C]
        LayoutSVGResourceFilter {filter} [id="dropShadow"] [filterUnits=objectBoundingBox] [primitiveUnits=userSpaceOnUse]
          [feGaussianBlur stdDeviation="2.00, 2.00"]
            [SourceGraphic]
      LayoutSVGText {text} at (54,92) size 146x80 contains 1 chunk(s)
        LayoutSVGInlineText {#text} at (0,20) size 35x60
          chunk 1 (middle anchor) text run 1 at (54.50,160.00) startOffset 0 endOffset 1 width 35.00: "B"
        LayoutSVGTSpan {tspan} at (0,0) size 18x32
          LayoutSVGInlineText {#text} at (35,22) size 18x32
            chunk 1 (middle anchor) text run 1 at (89.50,140.00) startOffset 0 endOffset 1 width 18.00: "A"
        LayoutSVGInlineText {#text} at (53,0) size 33x60
          chunk 1 (middle anchor) text run 1 at (107.50,140.00) startOffset 0 endOffset 1 width 33.00: "T"
        LayoutSVGTSpan {tspan} at (0,0) size 10x45
          LayoutSVGInlineText {#text} at (86,12) size 10x45
            chunk 1 (middle anchor) text run 1 at (140.50,140.00) startOffset 0 endOffset 1 width 10.00: "I"
        LayoutSVGTSpan {tspan} at (0,0) size 55x70
          LayoutSVGInlineText {#text} at (91,2) size 54x69
            chunk 1 (middle anchor) text run 1 at (150.50,140.00) startOffset 0 endOffset 1 width 35.00: "K"
        LayoutSVGInlineText {#text} at (0,0) size 0x0
      LayoutSVGText {text} at (260,92) size 154x81 contains 1 chunk(s)
        LayoutSVGInlineText {#text} at (0,20) size 36x61
          chunk 1 (middle anchor) text run 1 at (260.50,160.00) startOffset 0 endOffset 1 width 36.00: "B"
        LayoutSVGTSpan {tspan} at (0,0) size 19x31
          LayoutSVGInlineText {#text} at (36,24) size 19x31
            chunk 1 (middle anchor) text run 1 at (296.50,140.00) startOffset 0 endOffset 1 width 19.00: "A"
        LayoutSVGInlineText {#text} at (55,0) size 33x61
          chunk 1 (middle anchor) text run 1 at (315.50,140.00) startOffset 0 endOffset 1 width 33.00: "T"
        LayoutSVGTSpan {tspan} at (0,0) size 13x46
          LayoutSVGInlineText {#text} at (88,12) size 13x46
            chunk 1 (middle anchor) text run 1 at (348.50,140.00) startOffset 0 endOffset 1 width 13.00: "I"
        LayoutSVGTSpan {tspan} at (0,0) size 58x72
          LayoutSVGInlineText {#text} at (96,2) size 57x71
            chunk 1 (middle anchor) text run 1 at (361.50,140.00) startOffset 0 endOffset 1 width 38.00: "K"
        LayoutSVGInlineText {#text} at (0,0) size 0x0
      LayoutSVGText {text} at (54,192) size 146x80 contains 1 chunk(s)
        LayoutSVGInlineText {#text} at (0,20) size 35x60
          chunk 1 (middle anchor) text run 1 at (54.50,260.00) startOffset 0 endOffset 1 width 35.00: "B"
        LayoutSVGTSpan {tspan} at (0,0) size 18x32
          LayoutSVGInlineText {#text} at (35,22) size 18x32
            chunk 1 (middle anchor) text run 1 at (89.50,240.00) startOffset 0 endOffset 1 width 18.00: "A"
        LayoutSVGInlineText {#text} at (53,0) size 33x60
          chunk 1 (middle anchor) text run 1 at (107.50,240.00) startOffset 0 endOffset 1 width 33.00: "T"
        LayoutSVGTSpan {tspan} at (0,0) size 10x45
          LayoutSVGInlineText {#text} at (86,12) size 10x45
            chunk 1 (middle anchor) text run 1 at (140.50,240.00) startOffset 0 endOffset 1 width 10.00: "I"
        LayoutSVGTSpan {tspan} at (0,0) size 55x70
          LayoutSVGInlineText {#text} at (91,2) size 54x69
            chunk 1 (middle anchor) text run 1 at (150.50,240.00) startOffset 0 endOffset 1 width 35.00: "K"
        LayoutSVGInlineText {#text} at (0,0) size 0x0
      LayoutSVGText {text} at (260,192) size 154x81 contains 1 chunk(s)
        LayoutSVGInlineText {#text} at (0,20) size 36x61
          chunk 1 (middle anchor) text run 1 at (260.50,260.00) startOffset 0 endOffset 1 width 36.00: "B"
        LayoutSVGTSpan {tspan} at (0,0) size 19x31
          LayoutSVGInlineText {#text} at (36,24) size 19x31
            chunk 1 (middle anchor) text run 1 at (296.50,240.00) startOffset 0 endOffset 1 width 19.00: "A"
        LayoutSVGInlineText {#text} at (55,0) size 33x61
          chunk 1 (middle anchor) text run 1 at (315.50,240.00) startOffset 0 endOffset 1 width 33.00: "T"
        LayoutSVGTSpan {tspan} at (0,0) size 13x46
          LayoutSVGInlineText {#text} at (88,12) size 13x46
            chunk 1 (middle anchor) text run 1 at (348.50,240.00) startOffset 0 endOffset 1 width 13.00: "I"
        LayoutSVGTSpan {tspan} at (0,0) size 58x72
          LayoutSVGInlineText {#text} at (96,2) size 57x71
            chunk 1 (middle anchor) text run 1 at (361.50,240.00) startOffset 0 endOffset 1 width 38.00: "K"
        LayoutSVGInlineText {#text} at (0,0) size 0x0
      LayoutSVGText {text} at (54,292) size 146x80 contains 1 chunk(s)
        [filter="dropShadow"] LayoutSVGResourceFilter {filter} at (39.97,284) size 174.38x96
        LayoutSVGInlineText {#text} at (0,20) size 35x60
          [filter="dropShadow"] LayoutSVGResourceFilter {filter} at (51,306) size 42x72
          chunk 1 (middle anchor) text run 1 at (54.50,360.00) startOffset 0 endOffset 1 width 35.00: "B"
        LayoutSVGTSpan {tspan} at (0,0) size 18x32
          LayoutSVGInlineText {#text} at (35,22) size 18x32
            chunk 1 (middle anchor) text run 1 at (89.50,340.00) startOffset 0 endOffset 1 width 18.00: "A"
        LayoutSVGInlineText {#text} at (53,0) size 33x60
          [filter="dropShadow"] LayoutSVGResourceFilter {filter} at (104.20,286) size 39.60x72
          chunk 1 (middle anchor) text run 1 at (107.50,340.00) startOffset 0 endOffset 1 width 33.00: "T"
        LayoutSVGTSpan {tspan} at (0,0) size 10x45
          LayoutSVGInlineText {#text} at (86,12) size 10x45
            chunk 1 (middle anchor) text run 1 at (140.50,340.00) startOffset 0 endOffset 1 width 10.00: "I"
        LayoutSVGTSpan {tspan} at (0,0) size 55x70
          LayoutSVGInlineText {#text} at (91,2) size 54x69
            chunk 1 (middle anchor) text run 1 at (150.50,340.00) startOffset 0 endOffset 1 width 35.00: "K"
        LayoutSVGInlineText {#text} at (0,0) size 0x0
          [filter="dropShadow"] LayoutSVGResourceFilter {filter} at (-45,-50) size 540x600
      LayoutSVGText {text} at (260,292) size 154x81 contains 1 chunk(s)
        [filter="dropShadow"] LayoutSVGResourceFilter {filter} at (245.19,283.90) size 183.77x97.20
        LayoutSVGInlineText {#text} at (0,20) size 36x61
          [filter="dropShadow"] LayoutSVGResourceFilter {filter} at (256.90,305.90) size 43.20x73.20
          chunk 1 (middle anchor) text run 1 at (260.50,360.00) startOffset 0 endOffset 1 width 36.00: "B"
        LayoutSVGTSpan {tspan} at (0,0) size 19x31
          LayoutSVGInlineText {#text} at (36,24) size 19x31
            chunk 1 (middle anchor) text run 1 at (296.50,340.00) startOffset 0 endOffset 1 width 19.00: "A"
        LayoutSVGInlineText {#text} at (55,0) size 33x61
          [filter="dropShadow"] LayoutSVGResourceFilter {filter} at (312.20,285.90) size 39.60x73.20
          chunk 1 (middle anchor) text run 1 at (315.50,340.00) startOffset 0 endOffset 1 width 33.00: "T"
        LayoutSVGTSpan {tspan} at (0,0) size 13x46
          LayoutSVGInlineText {#text} at (88,12) size 13x46
            chunk 1 (middle anchor) text run 1 at (348.50,340.00) startOffset 0 endOffset 1 width 13.00: "I"
        LayoutSVGTSpan {tspan} at (0,0) size 58x72
          LayoutSVGInlineText {#text} at (96,2) size 57x71
            chunk 1 (middle anchor) text run 1 at (361.50,340.00) startOffset 0 endOffset 1 width 38.00: "K"
        LayoutSVGInlineText {#text} at (0,0) size 0x0
          [filter="dropShadow"] LayoutSVGResourceFilter {filter} at (-45,-50) size 540x600
      LayoutSVGText {text} at (86,388) size 68x15 contains 1 chunk(s)
        LayoutSVGInlineText {#text} at (0,0) size 67x15
          chunk 1 (middle anchor) text run 1 at (86.50,400.00) startOffset 0 endOffset 13 width 67.00: "(System font)"
      LayoutSVGText {text} at (303,388) size 54x15 contains 1 chunk(s)
        LayoutSVGInlineText {#text} at (0,0) size 54x15
          chunk 1 (middle anchor) text run 1 at (303.00,400.00) startOffset 0 endOffset 10 width 54.00: "(SVG font)"
    LayoutSVGContainer {use} at (0,0) size 448x498
      LayoutSVGContainer {g} at (0,0) size 448x498
        LayoutSVGRect {rect} at (0,0) size 448x498 [stroke={[type=SOLID] [color=#000000]}] [x=1.00] [y=1.00] [width=446.00] [height=496.00]
        LayoutSVGContainer {g} at (418,466) size 28x30 [transform={m=((1.00,0.00)(0.00,1.00)) t=(418.00,467.00)}]
          LayoutSVGViewportContainer {svg} at (418,466) size 28x30
            LayoutSVGPath {path} at (418,468) size 14x19 [fill={[type=SOLID] [color=#6666FF]}] [data="M 172 44 C 137 60 31 135 11 199 C 3 226 33 247 55 232 C 14 306 -1 332 0 356 C 0 370 13 398 44 383 C 52 379 79 358 96 342 C 110 341 120 331 138 314 C 155 328 174 324 190 307 C 212 309 272 229 234 199 C 231 175 204 162 181 181 C 175 179 168 180 163 182 C 185 147 206 100 212 77 C 219 47 188 36 172 44 Z"]
            LayoutSVGPath {path} at (432,466) size 14x17 [fill={[type=SOLID] [color=#FF0000]}] [data="M 400 0 C 382 3 351 31 351 31 C 322 54 308 89 323 126 C 310 140 294 170 294 193 C 294 221 314 245 344 222 C 351 230 365 238 381 227 C 376 256 384 275 407 276 C 408 286 420 307 443 293 C 459 283 501 254 522 237 C 547 214 547 143 504 148 C 537 89 501 52 477 64 C 467 68 431 89 425 94 C 424 87 420 82 414 80 C 436 45 436 -5 401 0 Z"]
            LayoutSVGPath {path} at (425,484) size 16x12 [fill={[type=SOLID] [color=#33CC33]}] [data="M 275 353 C 229 365 187 396 161 444 C 152 460 167 481 186 477 C 172 501 146 544 171 558 C 199 574 223 550 231 543 C 249 564 281 553 312 526 C 353 540 380 524 415 473 C 423 461 445 430 445 408 C 445 392 430 378 410 387 C 409 375 401 349 357 368 C 347 362 326 363 303 385 C 308 375 300 347 275 353 Z"]
