layer at (0,0) size 800x600
  LayoutView at (0,0) size 800x600
layer at (0,0) size 800x600
  LayoutBlockFlow {HTML} at (0,0) size 800x600
    LayoutBlockFlow {BODY} at (8,8) size 784x584
      LayoutText {#text} at (165,0) size 4x18
        text run at (165,0) width 4: " "
      LayoutText {#text} at (334,0) size 4x18
        text run at (334,0) width 4: " "
      LayoutText {#text} at (503,0) size 4x18
        text run at (503,0) width 4: " "
      LayoutText {#text} at (0,0) size 0x0
      LayoutText {#text} at (165,140) size 4x18
        text run at (165,140) width 4: " "
      LayoutText {#text} at (334,140) size 4x18
        text run at (334,140) width 4: " "
      LayoutText {#text} at (503,140) size 4x18
        text run at (503,140) width 4: " "
      LayoutText {#text} at (0,0) size 0x0
      LayoutText {#text} at (165,280) size 4x18
        text run at (165,280) width 4: " "
      LayoutText {#text} at (334,280) size 4x18
        text run at (334,280) width 4: " "
      LayoutText {#text} at (503,280) size 4x18
        text run at (503,280) width 4: " "
      LayoutText {#text} at (0,0) size 0x0
      LayoutText {#text} at (165,420) size 4x18
        text run at (165,420) width 4: " "
      LayoutText {#text} at (334,420) size 4x18
        text run at (334,420) width 4: " "
      LayoutText {#text} at (0,0) size 0x0
layer at (28,28) size 125x100 clip at (29,29) size 110x85 scrollHeight 2135
  LayoutBlockFlow {DIV} at (20,20) size 125x100 [color=#DCDCDC] [bgcolor=#718D93] [border: (1px solid #D3D3D3)]
    LayoutText {#text} at (11,11) size 89x810
      text run at (11,11) width 79: "Lorem ipsum"
      text run at (11,26) width 89: "dolor sit amet,"
      text run at (11,41) width 78: "consectetuer"
      text run at (11,56) width 87: "adipiscing elit."
      text run at (11,71) width 75: "Morbi et nisi"
      text run at (11,86) width 35: "ut est"
      text run at (11,101) width 59: "venenatis"
      text run at (11,116) width 47: "viverra."
      text run at (11,131) width 79: "Aenean pede"
      text run at (11,146) width 72: "orci, blandit"
      text run at (11,161) width 84: "quis, faucibus"
      text run at (11,176) width 80: "quis, egestas"
      text run at (11,191) width 41: "ut, mi."
      text run at (11,206) width 77: "Pellentesque"
      text run at (11,221) width 73: "enim purus,"
      text run at (11,236) width 59: "venenatis"
      text run at (11,251) width 61: "dignissim,"
      text run at (11,266) width 69: "tincidunt a,"
      text run at (11,281) width 72: "ullamcorper"
      text run at (11,296) width 66: "eget, nibh."
      text run at (11,311) width 88: "Nullam ut sem"
      text run at (11,326) width 86: "adipiscing orci"
      text run at (11,341) width 50: "vehicula"
      text run at (11,356) width 59: "interdum."
      text run at (11,371) width 81: "Proin a enim."
      text run at (11,386) width 56: "Phasellus"
      text run at (11,401) width 69: "sollicitudin,"
      text run at (11,416) width 75: "magna vitae"
      text run at (11,431) width 67: "vestibulum"
      text run at (11,446) width 85: "facilisis, tellus"
      text run at (11,461) width 71: "nunc iaculis"
      text run at (11,476) width 46: "arcu, in"
      text run at (11,491) width 81: "molestie sem"
      text run at (11,506) width 75: "velit tempus"
      text run at (11,521) width 40: "est. In"
      text run at (11,536) width 78: "eleifend velit"
      text run at (11,551) width 42: "at sem"
      text run at (11,566) width 60: "adipiscing"
      text run at (11,581) width 84: "sodales. Nunc"
      text run at (11,596) width 72: "sapien felis,"
      text run at (11,611) width 69: "aliquam et,"
      text run at (11,626) width 50: "volutpat"
      text run at (11,641) width 53: "rhoncus,"
      text run at (11,656) width 83: "condimentum"
      text run at (11,671) width 60: "ut, tortor."
      text run at (11,686) width 71: "Integer est."
      text run at (11,701) width 49: "Quisque"
      text run at (11,716) width 47: "viverra."
      text run at (11,731) width 78: "Praesent sed"
      text run at (11,746) width 31: "arcu."
      text run at (11,761) width 74: "Maecenas id"
      text run at (11,776) width 68: "lorem a leo"
      text run at (11,791) width 45: "lobortis"
      text run at (11,806) width 87: "condimentum."
    LayoutBR {BR} at (0,0) size 0x0
    LayoutBR {BR} at (11,821) size 0x15
    LayoutText {#text} at (11,836) size 89x735
      text run at (11,836) width 27: "Cras"
      text run at (11,851) width 59: "commodo"
      text run at (11,866) width 88: "rutrum augue."
      text run at (11,881) width 52: "Vivamus"
      text run at (11,896) width 88: "iaculis. Nullam"
      text run at (11,911) width 86: "est. Maecenas"
      text run at (11,926) width 66: "consequat."
      text run at (11,941) width 65: "Sed id dui."
      text run at (11,956) width 63: "Vivamus a"
      text run at (11,971) width 67: "nisl. Donec"
      text run at (11,986) width 48: "pretium"
      text run at (11,1001) width 79: "sapien. Proin"
      text run at (11,1016) width 65: "et ligula et"
      text run at (11,1031) width 85: "ligula placerat"
      text run at (11,1046) width 54: "pulvinar."
      text run at (11,1061) width 78: "Aliquam erat"
      text run at (11,1076) width 89: "volutpat. Proin"
      text run at (11,1091) width 38: "id est."
      text run at (11,1106) width 75: "Suspendisse"
      text run at (11,1121) width 89: "cursus, magna"
      text run at (11,1136) width 72: "at hendrerit"
      text run at (11,1151) width 66: "consequat,"
      text run at (11,1166) width 64: "mauris est"
      text run at (11,1181) width 58: "imperdiet"
      text run at (11,1196) width 53: "neque, a"
      text run at (11,1211) width 75: "ultrices arcu"
      text run at (11,1226) width 55: "urna non"
      text run at (11,1241) width 87: "nunc. Quisque"
      text run at (11,1256) width 72: "tellus. Nulla"
      text run at (11,1271) width 68: "nulla justo,"
      text run at (11,1286) width 80: "vehicula nec,"
      text run at (11,1301) width 77: "pellentesque"
      text run at (11,1316) width 81: "eu, iaculis et,"
      text run at (11,1331) width 37: "ligula."
      text run at (11,1346) width 53: "Praesent"
      text run at (11,1361) width 69: "mattis ante"
      text run at (11,1376) width 52: "vel sem."
      text run at (11,1391) width 75: "Suspendisse"
      text run at (11,1406) width 84: "porta rhoncus"
      text run at (11,1421) width 32: "urna."
      text run at (11,1436) width 89: "Phasellus felis."
      text run at (11,1451) width 53: "Praesent"
      text run at (11,1466) width 43: "viverra"
      text run at (11,1481) width 52: "convallis"
      text run at (11,1496) width 38: "libero."
      text run at (11,1511) width 86: "Maecenas non"
      text run at (11,1526) width 84: "augue. Donec"
      text run at (11,1541) width 56: "hendrerit"
      text run at (11,1556) width 89: "lectus id enim."
    LayoutBR {BR} at (0,0) size 0x0
    LayoutBR {BR} at (11,1571) size 0x15
    LayoutText {#text} at (11,1586) size 90x540
      text run at (11,1586) width 67: "Nulla ligula"
      text run at (11,1601) width 78: "dui, euismod"
      text run at (11,1616) width 66: "et, sodales"
      text run at (11,1631) width 29: "quis,"
      text run at (11,1646) width 64: "sollicitudin"
      text run at (11,1661) width 73: "quis, elit. In"
      text run at (11,1676) width 82: "adipiscing est"
      text run at (11,1691) width 60: "sed enim."
      text run at (11,1706) width 51: "Fusce at"
      text run at (11,1721) width 73: "massa vitae"
      text run at (11,1736) width 87: "metus semper"
      text run at (11,1751) width 60: "hendrerit."
      text run at (11,1766) width 78: "Integer vitae"
      text run at (11,1781) width 67: "urna. Nulla"
      text run at (11,1796) width 68: "eget ligula."
      text run at (11,1811) width 77: "Etiam libero."
      text run at (11,1826) width 84: "Maecenas nisi"
      text run at (11,1841) width 87: "nibh, convallis"
      text run at (11,1856) width 58: "a, feugiat"
      text run at (11,1871) width 87: "vitae, pulvinar"
      text run at (11,1886) width 40: "et, mi."
      text run at (11,1901) width 87: "Curabitur arcu"
      text run at (11,1916) width 34: "pede,"
      text run at (11,1931) width 90: "adipiscing sed,"
      text run at (11,1946) width 76: "egestas nec,"
      text run at (11,1961) width 79: "commodo in,"
      text run at (11,1976) width 58: "elit. Nulla"
      text run at (11,1991) width 77: "facilisi. Proin"
      text run at (11,2006) width 87: "varius pede et"
      text run at (11,2021) width 61: "dui lacinia"
      text run at (11,2036) width 89: "dapibus. Morbi"
      text run at (11,2051) width 67: "nec augue."
      text run at (11,2066) width 31: "Proin"
      text run at (11,2081) width 58: "imperdiet"
      text run at (11,2096) width 50: "lacus eu"
      text run at (11,2111) width 37: "tellus."
layer at (197,28) size 125x100 clip at (198,29) size 110x98 scrollHeight 2135
  LayoutBlockFlow {DIV} at (189,20) size 125x100 [color=#DCDCDC] [bgcolor=#718D93] [border: (1px solid #D3D3D3)]
    LayoutText {#text} at (11,11) size 89x810
      text run at (11,11) width 79: "Lorem ipsum"
      text run at (11,26) width 89: "dolor sit amet,"
      text run at (11,41) width 78: "consectetuer"
      text run at (11,56) width 87: "adipiscing elit."
      text run at (11,71) width 75: "Morbi et nisi"
      text run at (11,86) width 35: "ut est"
      text run at (11,101) width 59: "venenatis"
      text run at (11,116) width 47: "viverra."
      text run at (11,131) width 79: "Aenean pede"
      text run at (11,146) width 72: "orci, blandit"
      text run at (11,161) width 84: "quis, faucibus"
      text run at (11,176) width 80: "quis, egestas"
      text run at (11,191) width 41: "ut, mi."
      text run at (11,206) width 77: "Pellentesque"
      text run at (11,221) width 73: "enim purus,"
      text run at (11,236) width 59: "venenatis"
      text run at (11,251) width 61: "dignissim,"
      text run at (11,266) width 69: "tincidunt a,"
      text run at (11,281) width 72: "ullamcorper"
      text run at (11,296) width 66: "eget, nibh."
      text run at (11,311) width 88: "Nullam ut sem"
      text run at (11,326) width 86: "adipiscing orci"
      text run at (11,341) width 50: "vehicula"
      text run at (11,356) width 59: "interdum."
      text run at (11,371) width 81: "Proin a enim."
      text run at (11,386) width 56: "Phasellus"
      text run at (11,401) width 69: "sollicitudin,"
      text run at (11,416) width 75: "magna vitae"
      text run at (11,431) width 67: "vestibulum"
      text run at (11,446) width 85: "facilisis, tellus"
      text run at (11,461) width 71: "nunc iaculis"
      text run at (11,476) width 46: "arcu, in"
      text run at (11,491) width 81: "molestie sem"
      text run at (11,506) width 75: "velit tempus"
      text run at (11,521) width 40: "est. In"
      text run at (11,536) width 78: "eleifend velit"
      text run at (11,551) width 42: "at sem"
      text run at (11,566) width 60: "adipiscing"
      text run at (11,581) width 84: "sodales. Nunc"
      text run at (11,596) width 72: "sapien felis,"
      text run at (11,611) width 69: "aliquam et,"
      text run at (11,626) width 50: "volutpat"
      text run at (11,641) width 53: "rhoncus,"
      text run at (11,656) width 83: "condimentum"
      text run at (11,671) width 60: "ut, tortor."
      text run at (11,686) width 71: "Integer est."
      text run at (11,701) width 49: "Quisque"
      text run at (11,716) width 47: "viverra."
      text run at (11,731) width 78: "Praesent sed"
      text run at (11,746) width 31: "arcu."
      text run at (11,761) width 74: "Maecenas id"
      text run at (11,776) width 68: "lorem a leo"
      text run at (11,791) width 45: "lobortis"
      text run at (11,806) width 87: "condimentum."
    LayoutBR {BR} at (0,0) size 0x0
    LayoutBR {BR} at (11,821) size 0x15
    LayoutText {#text} at (11,836) size 89x735
      text run at (11,836) width 27: "Cras"
      text run at (11,851) width 59: "commodo"
      text run at (11,866) width 88: "rutrum augue."
      text run at (11,881) width 52: "Vivamus"
      text run at (11,896) width 88: "iaculis. Nullam"
      text run at (11,911) width 86: "est. Maecenas"
      text run at (11,926) width 66: "consequat."
      text run at (11,941) width 65: "Sed id dui."
      text run at (11,956) width 63: "Vivamus a"
      text run at (11,971) width 67: "nisl. Donec"
      text run at (11,986) width 48: "pretium"
      text run at (11,1001) width 79: "sapien. Proin"
      text run at (11,1016) width 65: "et ligula et"
      text run at (11,1031) width 85: "ligula placerat"
      text run at (11,1046) width 54: "pulvinar."
      text run at (11,1061) width 78: "Aliquam erat"
      text run at (11,1076) width 89: "volutpat. Proin"
      text run at (11,1091) width 38: "id est."
      text run at (11,1106) width 75: "Suspendisse"
      text run at (11,1121) width 89: "cursus, magna"
      text run at (11,1136) width 72: "at hendrerit"
      text run at (11,1151) width 66: "consequat,"
      text run at (11,1166) width 64: "mauris est"
      text run at (11,1181) width 58: "imperdiet"
      text run at (11,1196) width 53: "neque, a"
      text run at (11,1211) width 75: "ultrices arcu"
      text run at (11,1226) width 55: "urna non"
      text run at (11,1241) width 87: "nunc. Quisque"
      text run at (11,1256) width 72: "tellus. Nulla"
      text run at (11,1271) width 68: "nulla justo,"
      text run at (11,1286) width 80: "vehicula nec,"
      text run at (11,1301) width 77: "pellentesque"
      text run at (11,1316) width 81: "eu, iaculis et,"
      text run at (11,1331) width 37: "ligula."
      text run at (11,1346) width 53: "Praesent"
      text run at (11,1361) width 69: "mattis ante"
      text run at (11,1376) width 52: "vel sem."
      text run at (11,1391) width 75: "Suspendisse"
      text run at (11,1406) width 84: "porta rhoncus"
      text run at (11,1421) width 32: "urna."
      text run at (11,1436) width 89: "Phasellus felis."
      text run at (11,1451) width 53: "Praesent"
      text run at (11,1466) width 43: "viverra"
      text run at (11,1481) width 52: "convallis"
      text run at (11,1496) width 38: "libero."
      text run at (11,1511) width 86: "Maecenas non"
      text run at (11,1526) width 84: "augue. Donec"
      text run at (11,1541) width 56: "hendrerit"
      text run at (11,1556) width 89: "lectus id enim."
    LayoutBR {BR} at (0,0) size 0x0
    LayoutBR {BR} at (11,1571) size 0x15
    LayoutText {#text} at (11,1586) size 90x540
      text run at (11,1586) width 67: "Nulla ligula"
      text run at (11,1601) width 78: "dui, euismod"
      text run at (11,1616) width 66: "et, sodales"
      text run at (11,1631) width 29: "quis,"
      text run at (11,1646) width 64: "sollicitudin"
      text run at (11,1661) width 73: "quis, elit. In"
      text run at (11,1676) width 82: "adipiscing est"
      text run at (11,1691) width 60: "sed enim."
      text run at (11,1706) width 51: "Fusce at"
      text run at (11,1721) width 73: "massa vitae"
      text run at (11,1736) width 87: "metus semper"
      text run at (11,1751) width 60: "hendrerit."
      text run at (11,1766) width 78: "Integer vitae"
      text run at (11,1781) width 67: "urna. Nulla"
      text run at (11,1796) width 68: "eget ligula."
      text run at (11,1811) width 77: "Etiam libero."
      text run at (11,1826) width 84: "Maecenas nisi"
      text run at (11,1841) width 87: "nibh, convallis"
      text run at (11,1856) width 58: "a, feugiat"
      text run at (11,1871) width 87: "vitae, pulvinar"
      text run at (11,1886) width 40: "et, mi."
      text run at (11,1901) width 87: "Curabitur arcu"
      text run at (11,1916) width 34: "pede,"
      text run at (11,1931) width 90: "adipiscing sed,"
      text run at (11,1946) width 76: "egestas nec,"
      text run at (11,1961) width 79: "commodo in,"
      text run at (11,1976) width 58: "elit. Nulla"
      text run at (11,1991) width 77: "facilisi. Proin"
      text run at (11,2006) width 87: "varius pede et"
      text run at (11,2021) width 61: "dui lacinia"
      text run at (11,2036) width 89: "dapibus. Morbi"
      text run at (11,2051) width 67: "nec augue."
      text run at (11,2066) width 31: "Proin"
      text run at (11,2081) width 58: "imperdiet"
      text run at (11,2096) width 50: "lacus eu"
      text run at (11,2111) width 37: "tellus."
layer at (366,28) size 125x100 clip at (367,29) size 110x85 scrollWidth 420 scrollHeight 455
  LayoutBlockFlow {DIV} at (358,20) size 125x100 [color=#DCDCDC] [bgcolor=#718D93] [border: (1px solid #D3D3D3)]
    LayoutBlockFlow {DIV} at (1,1) size 420x455
      LayoutText {#text} at (10,10) size 398x165
        text run at (10,10) width 397: "Lorem ipsum dolor sit amet, consectetuer adipiscing elit. Morbi et"
        text run at (10,25) width 364: "nisi ut est venenatis viverra. Aenean pede orci, blandit quis,"
        text run at (10,40) width 398: "faucibus quis, egestas ut, mi. Pellentesque enim purus, venenatis"
        text run at (10,55) width 371: "dignissim, tincidunt a, ullamcorper eget, nibh. Nullam ut sem"
        text run at (10,70) width 348: "adipiscing orci vehicula interdum. Proin a enim. Phasellus"
        text run at (10,85) width 381: "sollicitudin, magna vitae vestibulum facilisis, tellus nunc iaculis"
        text run at (10,100) width 380: "arcu, in molestie sem velit tempus est. In eleifend velit at sem"
        text run at (10,115) width 350: "adipiscing sodales. Nunc sapien felis, aliquam et, volutpat"
        text run at (10,130) width 382: "rhoncus, condimentum ut, tortor. Integer est. Quisque viverra."
        text run at (10,145) width 312: "Praesent sed arcu. Maecenas id lorem a leo lobortis"
        text run at (10,160) width 91: "condimentum. "
      LayoutBR {BR} at (100,172) size 1x0
      LayoutBR {BR} at (10,175) size 0x15
      LayoutText {#text} at (10,190) size 398x135
        text run at (10,190) width 357: "Cras commodo rutrum augue. Vivamus iaculis. Nullam est."
        text run at (10,205) width 387: "Maecenas consequat. Sed id dui. Vivamus a nisl. Donec pretium"
        text run at (10,220) width 375: "sapien. Proin et ligula et ligula placerat pulvinar. Aliquam erat"
        text run at (10,235) width 378: "volutpat. Proin id est. Suspendisse cursus, magna at hendrerit"
        text run at (10,250) width 389: "consequat, mauris est imperdiet neque, a ultrices arcu urna non"
        text run at (10,265) width 398: "nunc. Quisque tellus. Nulla nulla justo, vehicula nec, pellentesque"
        text run at (10,280) width 386: "eu, iaculis et, ligula. Praesent mattis ante vel sem. Suspendisse"
        text run at (10,295) width 372: "porta rhoncus urna. Phasellus felis. Praesent viverra convallis"
        text run at (10,310) width 372: "libero. Maecenas non augue. Donec hendrerit lectus id enim. "
      LayoutBR {BR} at (381,322) size 1x0
      LayoutBR {BR} at (10,325) size 0x15
      LayoutText {#text} at (10,340) size 397x105
        text run at (10,340) width 397: "Nulla ligula dui, euismod et, sodales quis, sollicitudin quis, elit. In"
        text run at (10,355) width 368: "adipiscing est sed enim. Fusce at massa vitae metus semper"
        text run at (10,370) width 365: "hendrerit. Integer vitae urna. Nulla eget ligula. Etiam libero."
        text run at (10,385) width 371: "Maecenas nisi nibh, convallis a, feugiat vitae, pulvinar et, mi."
        text run at (10,400) width 381: "Curabitur arcu pede, adipiscing sed, egestas nec, commodo in,"
        text run at (10,415) width 386: "elit. Nulla facilisi. Proin varius pede et dui lacinia dapibus. Morbi"
        text run at (10,430) width 258: "nec augue. Proin imperdiet lacus eu tellus."
layer at (535,28) size 125x100 clip at (536,29) size 110x85 scrollHeight 2135
  LayoutBlockFlow {DIV} at (527,20) size 125x100 [color=#DCDCDC] [bgcolor=#718D93] [border: (1px solid #D3D3D3)]
    LayoutText {#text} at (11,11) size 89x810
      text run at (11,11) width 79: "Lorem ipsum"
      text run at (11,26) width 89: "dolor sit amet,"
      text run at (11,41) width 78: "consectetuer"
      text run at (11,56) width 87: "adipiscing elit."
      text run at (11,71) width 75: "Morbi et nisi"
      text run at (11,86) width 35: "ut est"
      text run at (11,101) width 59: "venenatis"
      text run at (11,116) width 47: "viverra."
      text run at (11,131) width 79: "Aenean pede"
      text run at (11,146) width 72: "orci, blandit"
      text run at (11,161) width 84: "quis, faucibus"
      text run at (11,176) width 80: "quis, egestas"
      text run at (11,191) width 41: "ut, mi."
      text run at (11,206) width 77: "Pellentesque"
      text run at (11,221) width 73: "enim purus,"
      text run at (11,236) width 59: "venenatis"
      text run at (11,251) width 61: "dignissim,"
      text run at (11,266) width 69: "tincidunt a,"
      text run at (11,281) width 72: "ullamcorper"
      text run at (11,296) width 66: "eget, nibh."
      text run at (11,311) width 88: "Nullam ut sem"
      text run at (11,326) width 86: "adipiscing orci"
      text run at (11,341) width 50: "vehicula"
      text run at (11,356) width 59: "interdum."
      text run at (11,371) width 81: "Proin a enim."
      text run at (11,386) width 56: "Phasellus"
      text run at (11,401) width 69: "sollicitudin,"
      text run at (11,416) width 75: "magna vitae"
      text run at (11,431) width 67: "vestibulum"
      text run at (11,446) width 85: "facilisis, tellus"
      text run at (11,461) width 71: "nunc iaculis"
      text run at (11,476) width 46: "arcu, in"
      text run at (11,491) width 81: "molestie sem"
      text run at (11,506) width 75: "velit tempus"
      text run at (11,521) width 40: "est. In"
      text run at (11,536) width 78: "eleifend velit"
      text run at (11,551) width 42: "at sem"
      text run at (11,566) width 60: "adipiscing"
      text run at (11,581) width 84: "sodales. Nunc"
      text run at (11,596) width 72: "sapien felis,"
      text run at (11,611) width 69: "aliquam et,"
      text run at (11,626) width 50: "volutpat"
      text run at (11,641) width 53: "rhoncus,"
      text run at (11,656) width 83: "condimentum"
      text run at (11,671) width 60: "ut, tortor."
      text run at (11,686) width 71: "Integer est."
      text run at (11,701) width 49: "Quisque"
      text run at (11,716) width 47: "viverra."
      text run at (11,731) width 78: "Praesent sed"
      text run at (11,746) width 31: "arcu."
      text run at (11,761) width 74: "Maecenas id"
      text run at (11,776) width 68: "lorem a leo"
      text run at (11,791) width 45: "lobortis"
      text run at (11,806) width 87: "condimentum."
    LayoutBR {BR} at (0,0) size 0x0
    LayoutBR {BR} at (11,821) size 0x15
    LayoutText {#text} at (11,836) size 89x735
      text run at (11,836) width 27: "Cras"
      text run at (11,851) width 59: "commodo"
      text run at (11,866) width 88: "rutrum augue."
      text run at (11,881) width 52: "Vivamus"
      text run at (11,896) width 88: "iaculis. Nullam"
      text run at (11,911) width 86: "est. Maecenas"
      text run at (11,926) width 66: "consequat."
      text run at (11,941) width 65: "Sed id dui."
      text run at (11,956) width 63: "Vivamus a"
      text run at (11,971) width 67: "nisl. Donec"
      text run at (11,986) width 48: "pretium"
      text run at (11,1001) width 79: "sapien. Proin"
      text run at (11,1016) width 65: "et ligula et"
      text run at (11,1031) width 85: "ligula placerat"
      text run at (11,1046) width 54: "pulvinar."
      text run at (11,1061) width 78: "Aliquam erat"
      text run at (11,1076) width 89: "volutpat. Proin"
      text run at (11,1091) width 38: "id est."
      text run at (11,1106) width 75: "Suspendisse"
      text run at (11,1121) width 89: "cursus, magna"
      text run at (11,1136) width 72: "at hendrerit"
      text run at (11,1151) width 66: "consequat,"
      text run at (11,1166) width 64: "mauris est"
      text run at (11,1181) width 58: "imperdiet"
      text run at (11,1196) width 53: "neque, a"
      text run at (11,1211) width 75: "ultrices arcu"
      text run at (11,1226) width 55: "urna non"
      text run at (11,1241) width 87: "nunc. Quisque"
      text run at (11,1256) width 72: "tellus. Nulla"
      text run at (11,1271) width 68: "nulla justo,"
      text run at (11,1286) width 80: "vehicula nec,"
      text run at (11,1301) width 77: "pellentesque"
      text run at (11,1316) width 81: "eu, iaculis et,"
      text run at (11,1331) width 37: "ligula."
      text run at (11,1346) width 53: "Praesent"
      text run at (11,1361) width 69: "mattis ante"
      text run at (11,1376) width 52: "vel sem."
      text run at (11,1391) width 75: "Suspendisse"
      text run at (11,1406) width 84: "porta rhoncus"
      text run at (11,1421) width 32: "urna."
      text run at (11,1436) width 89: "Phasellus felis."
      text run at (11,1451) width 53: "Praesent"
      text run at (11,1466) width 43: "viverra"
      text run at (11,1481) width 52: "convallis"
      text run at (11,1496) width 38: "libero."
      text run at (11,1511) width 86: "Maecenas non"
      text run at (11,1526) width 84: "augue. Donec"
      text run at (11,1541) width 56: "hendrerit"
      text run at (11,1556) width 89: "lectus id enim."
    LayoutBR {BR} at (0,0) size 0x0
    LayoutBR {BR} at (11,1571) size 0x15
    LayoutText {#text} at (11,1586) size 90x540
      text run at (11,1586) width 67: "Nulla ligula"
      text run at (11,1601) width 78: "dui, euismod"
      text run at (11,1616) width 66: "et, sodales"
      text run at (11,1631) width 29: "quis,"
      text run at (11,1646) width 64: "sollicitudin"
      text run at (11,1661) width 73: "quis, elit. In"
      text run at (11,1676) width 82: "adipiscing est"
      text run at (11,1691) width 60: "sed enim."
      text run at (11,1706) width 51: "Fusce at"
      text run at (11,1721) width 73: "massa vitae"
      text run at (11,1736) width 87: "metus semper"
      text run at (11,1751) width 60: "hendrerit."
      text run at (11,1766) width 78: "Integer vitae"
      text run at (11,1781) width 67: "urna. Nulla"
      text run at (11,1796) width 68: "eget ligula."
      text run at (11,1811) width 77: "Etiam libero."
      text run at (11,1826) width 84: "Maecenas nisi"
      text run at (11,1841) width 87: "nibh, convallis"
      text run at (11,1856) width 58: "a, feugiat"
      text run at (11,1871) width 87: "vitae, pulvinar"
      text run at (11,1886) width 40: "et, mi."
      text run at (11,1901) width 87: "Curabitur arcu"
      text run at (11,1916) width 34: "pede,"
      text run at (11,1931) width 90: "adipiscing sed,"
      text run at (11,1946) width 76: "egestas nec,"
      text run at (11,1961) width 79: "commodo in,"
      text run at (11,1976) width 58: "elit. Nulla"
      text run at (11,1991) width 77: "facilisi. Proin"
      text run at (11,2006) width 87: "varius pede et"
      text run at (11,2021) width 61: "dui lacinia"
      text run at (11,2036) width 89: "dapibus. Morbi"
      text run at (11,2051) width 67: "nec augue."
      text run at (11,2066) width 31: "Proin"
      text run at (11,2081) width 58: "imperdiet"
      text run at (11,2096) width 50: "lacus eu"
      text run at (11,2111) width 37: "tellus."
layer at (28,168) size 125x100 clip at (29,169) size 110x98 scrollHeight 2135
  LayoutBlockFlow {DIV} at (20,160) size 125x100 [color=#DCDCDC] [bgcolor=#718D93] [border: (1px solid #D3D3D3)]
    LayoutText {#text} at (11,11) size 89x810
      text run at (11,11) width 79: "Lorem ipsum"
      text run at (11,26) width 89: "dolor sit amet,"
      text run at (11,41) width 78: "consectetuer"
      text run at (11,56) width 87: "adipiscing elit."
      text run at (11,71) width 75: "Morbi et nisi"
      text run at (11,86) width 35: "ut est"
      text run at (11,101) width 59: "venenatis"
      text run at (11,116) width 47: "viverra."
      text run at (11,131) width 79: "Aenean pede"
      text run at (11,146) width 72: "orci, blandit"
      text run at (11,161) width 84: "quis, faucibus"
      text run at (11,176) width 80: "quis, egestas"
      text run at (11,191) width 41: "ut, mi."
      text run at (11,206) width 77: "Pellentesque"
      text run at (11,221) width 73: "enim purus,"
      text run at (11,236) width 59: "venenatis"
      text run at (11,251) width 61: "dignissim,"
      text run at (11,266) width 69: "tincidunt a,"
      text run at (11,281) width 72: "ullamcorper"
      text run at (11,296) width 66: "eget, nibh."
      text run at (11,311) width 88: "Nullam ut sem"
      text run at (11,326) width 86: "adipiscing orci"
      text run at (11,341) width 50: "vehicula"
      text run at (11,356) width 59: "interdum."
      text run at (11,371) width 81: "Proin a enim."
      text run at (11,386) width 56: "Phasellus"
      text run at (11,401) width 69: "sollicitudin,"
      text run at (11,416) width 75: "magna vitae"
      text run at (11,431) width 67: "vestibulum"
      text run at (11,446) width 85: "facilisis, tellus"
      text run at (11,461) width 71: "nunc iaculis"
      text run at (11,476) width 46: "arcu, in"
      text run at (11,491) width 81: "molestie sem"
      text run at (11,506) width 75: "velit tempus"
      text run at (11,521) width 40: "est. In"
      text run at (11,536) width 78: "eleifend velit"
      text run at (11,551) width 42: "at sem"
      text run at (11,566) width 60: "adipiscing"
      text run at (11,581) width 84: "sodales. Nunc"
      text run at (11,596) width 72: "sapien felis,"
      text run at (11,611) width 69: "aliquam et,"
      text run at (11,626) width 50: "volutpat"
      text run at (11,641) width 53: "rhoncus,"
      text run at (11,656) width 83: "condimentum"
      text run at (11,671) width 60: "ut, tortor."
      text run at (11,686) width 71: "Integer est."
      text run at (11,701) width 49: "Quisque"
      text run at (11,716) width 47: "viverra."
      text run at (11,731) width 78: "Praesent sed"
      text run at (11,746) width 31: "arcu."
      text run at (11,761) width 74: "Maecenas id"
      text run at (11,776) width 68: "lorem a leo"
      text run at (11,791) width 45: "lobortis"
      text run at (11,806) width 87: "condimentum."
    LayoutBR {BR} at (0,0) size 0x0
    LayoutBR {BR} at (11,821) size 0x15
    LayoutText {#text} at (11,836) size 89x735
      text run at (11,836) width 27: "Cras"
      text run at (11,851) width 59: "commodo"
      text run at (11,866) width 88: "rutrum augue."
      text run at (11,881) width 52: "Vivamus"
      text run at (11,896) width 88: "iaculis. Nullam"
      text run at (11,911) width 86: "est. Maecenas"
      text run at (11,926) width 66: "consequat."
      text run at (11,941) width 65: "Sed id dui."
      text run at (11,956) width 63: "Vivamus a"
      text run at (11,971) width 67: "nisl. Donec"
      text run at (11,986) width 48: "pretium"
      text run at (11,1001) width 79: "sapien. Proin"
      text run at (11,1016) width 65: "et ligula et"
      text run at (11,1031) width 85: "ligula placerat"
      text run at (11,1046) width 54: "pulvinar."
      text run at (11,1061) width 78: "Aliquam erat"
      text run at (11,1076) width 89: "volutpat. Proin"
      text run at (11,1091) width 38: "id est."
      text run at (11,1106) width 75: "Suspendisse"
      text run at (11,1121) width 89: "cursus, magna"
      text run at (11,1136) width 72: "at hendrerit"
      text run at (11,1151) width 66: "consequat,"
      text run at (11,1166) width 64: "mauris est"
      text run at (11,1181) width 58: "imperdiet"
      text run at (11,1196) width 53: "neque, a"
      text run at (11,1211) width 75: "ultrices arcu"
      text run at (11,1226) width 55: "urna non"
      text run at (11,1241) width 87: "nunc. Quisque"
      text run at (11,1256) width 72: "tellus. Nulla"
      text run at (11,1271) width 68: "nulla justo,"
      text run at (11,1286) width 80: "vehicula nec,"
      text run at (11,1301) width 77: "pellentesque"
      text run at (11,1316) width 81: "eu, iaculis et,"
      text run at (11,1331) width 37: "ligula."
      text run at (11,1346) width 53: "Praesent"
      text run at (11,1361) width 69: "mattis ante"
      text run at (11,1376) width 52: "vel sem."
      text run at (11,1391) width 75: "Suspendisse"
      text run at (11,1406) width 84: "porta rhoncus"
      text run at (11,1421) width 32: "urna."
      text run at (11,1436) width 89: "Phasellus felis."
      text run at (11,1451) width 53: "Praesent"
      text run at (11,1466) width 43: "viverra"
      text run at (11,1481) width 52: "convallis"
      text run at (11,1496) width 38: "libero."
      text run at (11,1511) width 86: "Maecenas non"
      text run at (11,1526) width 84: "augue. Donec"
      text run at (11,1541) width 56: "hendrerit"
      text run at (11,1556) width 89: "lectus id enim."
    LayoutBR {BR} at (0,0) size 0x0
    LayoutBR {BR} at (11,1571) size 0x15
    LayoutText {#text} at (11,1586) size 90x540
      text run at (11,1586) width 67: "Nulla ligula"
      text run at (11,1601) width 78: "dui, euismod"
      text run at (11,1616) width 66: "et, sodales"
      text run at (11,1631) width 29: "quis,"
      text run at (11,1646) width 64: "sollicitudin"
      text run at (11,1661) width 73: "quis, elit. In"
      text run at (11,1676) width 82: "adipiscing est"
      text run at (11,1691) width 60: "sed enim."
      text run at (11,1706) width 51: "Fusce at"
      text run at (11,1721) width 73: "massa vitae"
      text run at (11,1736) width 87: "metus semper"
      text run at (11,1751) width 60: "hendrerit."
      text run at (11,1766) width 78: "Integer vitae"
      text run at (11,1781) width 67: "urna. Nulla"
      text run at (11,1796) width 68: "eget ligula."
      text run at (11,1811) width 77: "Etiam libero."
      text run at (11,1826) width 84: "Maecenas nisi"
      text run at (11,1841) width 87: "nibh, convallis"
      text run at (11,1856) width 58: "a, feugiat"
      text run at (11,1871) width 87: "vitae, pulvinar"
      text run at (11,1886) width 40: "et, mi."
      text run at (11,1901) width 87: "Curabitur arcu"
      text run at (11,1916) width 34: "pede,"
      text run at (11,1931) width 90: "adipiscing sed,"
      text run at (11,1946) width 76: "egestas nec,"
      text run at (11,1961) width 79: "commodo in,"
      text run at (11,1976) width 58: "elit. Nulla"
      text run at (11,1991) width 77: "facilisi. Proin"
      text run at (11,2006) width 87: "varius pede et"
      text run at (11,2021) width 61: "dui lacinia"
      text run at (11,2036) width 89: "dapibus. Morbi"
      text run at (11,2051) width 67: "nec augue."
      text run at (11,2066) width 31: "Proin"
      text run at (11,2081) width 58: "imperdiet"
      text run at (11,2096) width 50: "lacus eu"
      text run at (11,2111) width 37: "tellus."
layer at (197,168) size 125x100 clip at (198,169) size 110x85 scrollWidth 420 scrollHeight 455
  LayoutBlockFlow {DIV} at (189,160) size 125x100 [color=#DCDCDC] [bgcolor=#718D93] [border: (1px solid #D3D3D3)]
    LayoutBlockFlow {DIV} at (1,1) size 420x455
      LayoutText {#text} at (10,10) size 398x165
        text run at (10,10) width 397: "Lorem ipsum dolor sit amet, consectetuer adipiscing elit. Morbi et"
        text run at (10,25) width 364: "nisi ut est venenatis viverra. Aenean pede orci, blandit quis,"
        text run at (10,40) width 398: "faucibus quis, egestas ut, mi. Pellentesque enim purus, venenatis"
        text run at (10,55) width 371: "dignissim, tincidunt a, ullamcorper eget, nibh. Nullam ut sem"
        text run at (10,70) width 348: "adipiscing orci vehicula interdum. Proin a enim. Phasellus"
        text run at (10,85) width 381: "sollicitudin, magna vitae vestibulum facilisis, tellus nunc iaculis"
        text run at (10,100) width 380: "arcu, in molestie sem velit tempus est. In eleifend velit at sem"
        text run at (10,115) width 350: "adipiscing sodales. Nunc sapien felis, aliquam et, volutpat"
        text run at (10,130) width 382: "rhoncus, condimentum ut, tortor. Integer est. Quisque viverra."
        text run at (10,145) width 312: "Praesent sed arcu. Maecenas id lorem a leo lobortis"
        text run at (10,160) width 91: "condimentum. "
      LayoutBR {BR} at (100,172) size 1x0
      LayoutBR {BR} at (10,175) size 0x15
      LayoutText {#text} at (10,190) size 398x135
        text run at (10,190) width 357: "Cras commodo rutrum augue. Vivamus iaculis. Nullam est."
        text run at (10,205) width 387: "Maecenas consequat. Sed id dui. Vivamus a nisl. Donec pretium"
        text run at (10,220) width 375: "sapien. Proin et ligula et ligula placerat pulvinar. Aliquam erat"
        text run at (10,235) width 378: "volutpat. Proin id est. Suspendisse cursus, magna at hendrerit"
        text run at (10,250) width 389: "consequat, mauris est imperdiet neque, a ultrices arcu urna non"
        text run at (10,265) width 398: "nunc. Quisque tellus. Nulla nulla justo, vehicula nec, pellentesque"
        text run at (10,280) width 386: "eu, iaculis et, ligula. Praesent mattis ante vel sem. Suspendisse"
        text run at (10,295) width 372: "porta rhoncus urna. Phasellus felis. Praesent viverra convallis"
        text run at (10,310) width 372: "libero. Maecenas non augue. Donec hendrerit lectus id enim. "
      LayoutBR {BR} at (381,322) size 1x0
      LayoutBR {BR} at (10,325) size 0x15
      LayoutText {#text} at (10,340) size 397x105
        text run at (10,340) width 397: "Nulla ligula dui, euismod et, sodales quis, sollicitudin quis, elit. In"
        text run at (10,355) width 368: "adipiscing est sed enim. Fusce at massa vitae metus semper"
        text run at (10,370) width 365: "hendrerit. Integer vitae urna. Nulla eget ligula. Etiam libero."
        text run at (10,385) width 371: "Maecenas nisi nibh, convallis a, feugiat vitae, pulvinar et, mi."
        text run at (10,400) width 381: "Curabitur arcu pede, adipiscing sed, egestas nec, commodo in,"
        text run at (10,415) width 386: "elit. Nulla facilisi. Proin varius pede et dui lacinia dapibus. Morbi"
        text run at (10,430) width 258: "nec augue. Proin imperdiet lacus eu tellus."
layer at (366,168) size 125x100 clip at (367,169) size 110x98 scrollHeight 2135
  LayoutBlockFlow {DIV} at (358,160) size 125x100 [color=#DCDCDC] [bgcolor=#718D93] [border: (1px solid #D3D3D3)]
    LayoutText {#text} at (11,11) size 89x810
      text run at (11,11) width 79: "Lorem ipsum"
      text run at (11,26) width 89: "dolor sit amet,"
      text run at (11,41) width 78: "consectetuer"
      text run at (11,56) width 87: "adipiscing elit."
      text run at (11,71) width 75: "Morbi et nisi"
      text run at (11,86) width 35: "ut est"
      text run at (11,101) width 59: "venenatis"
      text run at (11,116) width 47: "viverra."
      text run at (11,131) width 79: "Aenean pede"
      text run at (11,146) width 72: "orci, blandit"
      text run at (11,161) width 84: "quis, faucibus"
      text run at (11,176) width 80: "quis, egestas"
      text run at (11,191) width 41: "ut, mi."
      text run at (11,206) width 77: "Pellentesque"
      text run at (11,221) width 73: "enim purus,"
      text run at (11,236) width 59: "venenatis"
      text run at (11,251) width 61: "dignissim,"
      text run at (11,266) width 69: "tincidunt a,"
      text run at (11,281) width 72: "ullamcorper"
      text run at (11,296) width 66: "eget, nibh."
      text run at (11,311) width 88: "Nullam ut sem"
      text run at (11,326) width 86: "adipiscing orci"
      text run at (11,341) width 50: "vehicula"
      text run at (11,356) width 59: "interdum."
      text run at (11,371) width 81: "Proin a enim."
      text run at (11,386) width 56: "Phasellus"
      text run at (11,401) width 69: "sollicitudin,"
      text run at (11,416) width 75: "magna vitae"
      text run at (11,431) width 67: "vestibulum"
      text run at (11,446) width 85: "facilisis, tellus"
      text run at (11,461) width 71: "nunc iaculis"
      text run at (11,476) width 46: "arcu, in"
      text run at (11,491) width 81: "molestie sem"
      text run at (11,506) width 75: "velit tempus"
      text run at (11,521) width 40: "est. In"
      text run at (11,536) width 78: "eleifend velit"
      text run at (11,551) width 42: "at sem"
      text run at (11,566) width 60: "adipiscing"
      text run at (11,581) width 84: "sodales. Nunc"
      text run at (11,596) width 72: "sapien felis,"
      text run at (11,611) width 69: "aliquam et,"
      text run at (11,626) width 50: "volutpat"
      text run at (11,641) width 53: "rhoncus,"
      text run at (11,656) width 83: "condimentum"
      text run at (11,671) width 60: "ut, tortor."
      text run at (11,686) width 71: "Integer est."
      text run at (11,701) width 49: "Quisque"
      text run at (11,716) width 47: "viverra."
      text run at (11,731) width 78: "Praesent sed"
      text run at (11,746) width 31: "arcu."
      text run at (11,761) width 74: "Maecenas id"
      text run at (11,776) width 68: "lorem a leo"
      text run at (11,791) width 45: "lobortis"
      text run at (11,806) width 87: "condimentum."
    LayoutBR {BR} at (0,0) size 0x0
    LayoutBR {BR} at (11,821) size 0x15
    LayoutText {#text} at (11,836) size 89x735
      text run at (11,836) width 27: "Cras"
      text run at (11,851) width 59: "commodo"
      text run at (11,866) width 88: "rutrum augue."
      text run at (11,881) width 52: "Vivamus"
      text run at (11,896) width 88: "iaculis. Nullam"
      text run at (11,911) width 86: "est. Maecenas"
      text run at (11,926) width 66: "consequat."
      text run at (11,941) width 65: "Sed id dui."
      text run at (11,956) width 63: "Vivamus a"
      text run at (11,971) width 67: "nisl. Donec"
      text run at (11,986) width 48: "pretium"
      text run at (11,1001) width 79: "sapien. Proin"
      text run at (11,1016) width 65: "et ligula et"
      text run at (11,1031) width 85: "ligula placerat"
      text run at (11,1046) width 54: "pulvinar."
      text run at (11,1061) width 78: "Aliquam erat"
      text run at (11,1076) width 89: "volutpat. Proin"
      text run at (11,1091) width 38: "id est."
      text run at (11,1106) width 75: "Suspendisse"
      text run at (11,1121) width 89: "cursus, magna"
      text run at (11,1136) width 72: "at hendrerit"
      text run at (11,1151) width 66: "consequat,"
      text run at (11,1166) width 64: "mauris est"
      text run at (11,1181) width 58: "imperdiet"
      text run at (11,1196) width 53: "neque, a"
      text run at (11,1211) width 75: "ultrices arcu"
      text run at (11,1226) width 55: "urna non"
      text run at (11,1241) width 87: "nunc. Quisque"
      text run at (11,1256) width 72: "tellus. Nulla"
      text run at (11,1271) width 68: "nulla justo,"
      text run at (11,1286) width 80: "vehicula nec,"
      text run at (11,1301) width 77: "pellentesque"
      text run at (11,1316) width 81: "eu, iaculis et,"
      text run at (11,1331) width 37: "ligula."
      text run at (11,1346) width 53: "Praesent"
      text run at (11,1361) width 69: "mattis ante"
      text run at (11,1376) width 52: "vel sem."
      text run at (11,1391) width 75: "Suspendisse"
      text run at (11,1406) width 84: "porta rhoncus"
      text run at (11,1421) width 32: "urna."
      text run at (11,1436) width 89: "Phasellus felis."
      text run at (11,1451) width 53: "Praesent"
      text run at (11,1466) width 43: "viverra"
      text run at (11,1481) width 52: "convallis"
      text run at (11,1496) width 38: "libero."
      text run at (11,1511) width 86: "Maecenas non"
      text run at (11,1526) width 84: "augue. Donec"
      text run at (11,1541) width 56: "hendrerit"
      text run at (11,1556) width 89: "lectus id enim."
    LayoutBR {BR} at (0,0) size 0x0
    LayoutBR {BR} at (11,1571) size 0x15
    LayoutText {#text} at (11,1586) size 90x540
      text run at (11,1586) width 67: "Nulla ligula"
      text run at (11,1601) width 78: "dui, euismod"
      text run at (11,1616) width 66: "et, sodales"
      text run at (11,1631) width 29: "quis,"
      text run at (11,1646) width 64: "sollicitudin"
      text run at (11,1661) width 73: "quis, elit. In"
      text run at (11,1676) width 82: "adipiscing est"
      text run at (11,1691) width 60: "sed enim."
      text run at (11,1706) width 51: "Fusce at"
      text run at (11,1721) width 73: "massa vitae"
      text run at (11,1736) width 87: "metus semper"
      text run at (11,1751) width 60: "hendrerit."
      text run at (11,1766) width 78: "Integer vitae"
      text run at (11,1781) width 67: "urna. Nulla"
      text run at (11,1796) width 68: "eget ligula."
      text run at (11,1811) width 77: "Etiam libero."
      text run at (11,1826) width 84: "Maecenas nisi"
      text run at (11,1841) width 87: "nibh, convallis"
      text run at (11,1856) width 58: "a, feugiat"
      text run at (11,1871) width 87: "vitae, pulvinar"
      text run at (11,1886) width 40: "et, mi."
      text run at (11,1901) width 87: "Curabitur arcu"
      text run at (11,1916) width 34: "pede,"
      text run at (11,1931) width 90: "adipiscing sed,"
      text run at (11,1946) width 76: "egestas nec,"
      text run at (11,1961) width 79: "commodo in,"
      text run at (11,1976) width 58: "elit. Nulla"
      text run at (11,1991) width 77: "facilisi. Proin"
      text run at (11,2006) width 87: "varius pede et"
      text run at (11,2021) width 61: "dui lacinia"
      text run at (11,2036) width 89: "dapibus. Morbi"
      text run at (11,2051) width 67: "nec augue."
      text run at (11,2066) width 31: "Proin"
      text run at (11,2081) width 58: "imperdiet"
      text run at (11,2096) width 50: "lacus eu"
      text run at (11,2111) width 37: "tellus."
layer at (535,168) size 125x100 clip at (536,169) size 123x85 scrollWidth 420 scrollHeight 185
  LayoutBlockFlow {DIV} at (527,160) size 125x100 [color=#DCDCDC] [bgcolor=#718D93] [border: (1px solid #D3D3D3)]
    LayoutBlockFlow {DIV} at (1,1) size 420x185
      LayoutText {#text} at (10,10) size 398x165
        text run at (10,10) width 397: "Lorem ipsum dolor sit amet, consectetuer adipiscing elit. Morbi et"
        text run at (10,25) width 364: "nisi ut est venenatis viverra. Aenean pede orci, blandit quis,"
        text run at (10,40) width 398: "faucibus quis, egestas ut, mi. Pellentesque enim purus, venenatis"
        text run at (10,55) width 371: "dignissim, tincidunt a, ullamcorper eget, nibh. Nullam ut sem"
        text run at (10,70) width 348: "adipiscing orci vehicula interdum. Proin a enim. Phasellus"
        text run at (10,85) width 381: "sollicitudin, magna vitae vestibulum facilisis, tellus nunc iaculis"
        text run at (10,100) width 380: "arcu, in molestie sem velit tempus est. In eleifend velit at sem"
        text run at (10,115) width 350: "adipiscing sodales. Nunc sapien felis, aliquam et, volutpat"
        text run at (10,130) width 382: "rhoncus, condimentum ut, tortor. Integer est. Quisque viverra."
        text run at (10,145) width 312: "Praesent sed arcu. Maecenas id lorem a leo lobortis"
        text run at (10,160) width 87: "condimentum."
layer at (28,308) size 125x100 clip at (29,309) size 110x98 scrollHeight 2135
  LayoutBlockFlow {DIV} at (20,300) size 125x100 [color=#DCDCDC] [bgcolor=#718D93] [border: (1px solid #D3D3D3)]
    LayoutText {#text} at (11,11) size 89x810
      text run at (11,11) width 79: "Lorem ipsum"
      text run at (11,26) width 89: "dolor sit amet,"
      text run at (11,41) width 78: "consectetuer"
      text run at (11,56) width 87: "adipiscing elit."
      text run at (11,71) width 75: "Morbi et nisi"
      text run at (11,86) width 35: "ut est"
      text run at (11,101) width 59: "venenatis"
      text run at (11,116) width 47: "viverra."
      text run at (11,131) width 79: "Aenean pede"
      text run at (11,146) width 72: "orci, blandit"
      text run at (11,161) width 84: "quis, faucibus"
      text run at (11,176) width 80: "quis, egestas"
      text run at (11,191) width 41: "ut, mi."
      text run at (11,206) width 77: "Pellentesque"
      text run at (11,221) width 73: "enim purus,"
      text run at (11,236) width 59: "venenatis"
      text run at (11,251) width 61: "dignissim,"
      text run at (11,266) width 69: "tincidunt a,"
      text run at (11,281) width 72: "ullamcorper"
      text run at (11,296) width 66: "eget, nibh."
      text run at (11,311) width 88: "Nullam ut sem"
      text run at (11,326) width 86: "adipiscing orci"
      text run at (11,341) width 50: "vehicula"
      text run at (11,356) width 59: "interdum."
      text run at (11,371) width 81: "Proin a enim."
      text run at (11,386) width 56: "Phasellus"
      text run at (11,401) width 69: "sollicitudin,"
      text run at (11,416) width 75: "magna vitae"
      text run at (11,431) width 67: "vestibulum"
      text run at (11,446) width 85: "facilisis, tellus"
      text run at (11,461) width 71: "nunc iaculis"
      text run at (11,476) width 46: "arcu, in"
      text run at (11,491) width 81: "molestie sem"
      text run at (11,506) width 75: "velit tempus"
      text run at (11,521) width 40: "est. In"
      text run at (11,536) width 78: "eleifend velit"
      text run at (11,551) width 42: "at sem"
      text run at (11,566) width 60: "adipiscing"
      text run at (11,581) width 84: "sodales. Nunc"
      text run at (11,596) width 72: "sapien felis,"
      text run at (11,611) width 69: "aliquam et,"
      text run at (11,626) width 50: "volutpat"
      text run at (11,641) width 53: "rhoncus,"
      text run at (11,656) width 83: "condimentum"
      text run at (11,671) width 60: "ut, tortor."
      text run at (11,686) width 71: "Integer est."
      text run at (11,701) width 49: "Quisque"
      text run at (11,716) width 47: "viverra."
      text run at (11,731) width 78: "Praesent sed"
      text run at (11,746) width 31: "arcu."
      text run at (11,761) width 74: "Maecenas id"
      text run at (11,776) width 68: "lorem a leo"
      text run at (11,791) width 45: "lobortis"
      text run at (11,806) width 87: "condimentum."
    LayoutBR {BR} at (0,0) size 0x0
    LayoutBR {BR} at (11,821) size 0x15
    LayoutText {#text} at (11,836) size 89x735
      text run at (11,836) width 27: "Cras"
      text run at (11,851) width 59: "commodo"
      text run at (11,866) width 88: "rutrum augue."
      text run at (11,881) width 52: "Vivamus"
      text run at (11,896) width 88: "iaculis. Nullam"
      text run at (11,911) width 86: "est. Maecenas"
      text run at (11,926) width 66: "consequat."
      text run at (11,941) width 65: "Sed id dui."
      text run at (11,956) width 63: "Vivamus a"
      text run at (11,971) width 67: "nisl. Donec"
      text run at (11,986) width 48: "pretium"
      text run at (11,1001) width 79: "sapien. Proin"
      text run at (11,1016) width 65: "et ligula et"
      text run at (11,1031) width 85: "ligula placerat"
      text run at (11,1046) width 54: "pulvinar."
      text run at (11,1061) width 78: "Aliquam erat"
      text run at (11,1076) width 89: "volutpat. Proin"
      text run at (11,1091) width 38: "id est."
      text run at (11,1106) width 75: "Suspendisse"
      text run at (11,1121) width 89: "cursus, magna"
      text run at (11,1136) width 72: "at hendrerit"
      text run at (11,1151) width 66: "consequat,"
      text run at (11,1166) width 64: "mauris est"
      text run at (11,1181) width 58: "imperdiet"
      text run at (11,1196) width 53: "neque, a"
      text run at (11,1211) width 75: "ultrices arcu"
      text run at (11,1226) width 55: "urna non"
      text run at (11,1241) width 87: "nunc. Quisque"
      text run at (11,1256) width 72: "tellus. Nulla"
      text run at (11,1271) width 68: "nulla justo,"
      text run at (11,1286) width 80: "vehicula nec,"
      text run at (11,1301) width 77: "pellentesque"
      text run at (11,1316) width 81: "eu, iaculis et,"
      text run at (11,1331) width 37: "ligula."
      text run at (11,1346) width 53: "Praesent"
      text run at (11,1361) width 69: "mattis ante"
      text run at (11,1376) width 52: "vel sem."
      text run at (11,1391) width 75: "Suspendisse"
      text run at (11,1406) width 84: "porta rhoncus"
      text run at (11,1421) width 32: "urna."
      text run at (11,1436) width 89: "Phasellus felis."
      text run at (11,1451) width 53: "Praesent"
      text run at (11,1466) width 43: "viverra"
      text run at (11,1481) width 52: "convallis"
      text run at (11,1496) width 38: "libero."
      text run at (11,1511) width 86: "Maecenas non"
      text run at (11,1526) width 84: "augue. Donec"
      text run at (11,1541) width 56: "hendrerit"
      text run at (11,1556) width 89: "lectus id enim."
    LayoutBR {BR} at (0,0) size 0x0
    LayoutBR {BR} at (11,1571) size 0x15
    LayoutText {#text} at (11,1586) size 90x540
      text run at (11,1586) width 67: "Nulla ligula"
      text run at (11,1601) width 78: "dui, euismod"
      text run at (11,1616) width 66: "et, sodales"
      text run at (11,1631) width 29: "quis,"
      text run at (11,1646) width 64: "sollicitudin"
      text run at (11,1661) width 73: "quis, elit. In"
      text run at (11,1676) width 82: "adipiscing est"
      text run at (11,1691) width 60: "sed enim."
      text run at (11,1706) width 51: "Fusce at"
      text run at (11,1721) width 73: "massa vitae"
      text run at (11,1736) width 87: "metus semper"
      text run at (11,1751) width 60: "hendrerit."
      text run at (11,1766) width 78: "Integer vitae"
      text run at (11,1781) width 67: "urna. Nulla"
      text run at (11,1796) width 68: "eget ligula."
      text run at (11,1811) width 77: "Etiam libero."
      text run at (11,1826) width 84: "Maecenas nisi"
      text run at (11,1841) width 87: "nibh, convallis"
      text run at (11,1856) width 58: "a, feugiat"
      text run at (11,1871) width 87: "vitae, pulvinar"
      text run at (11,1886) width 40: "et, mi."
      text run at (11,1901) width 87: "Curabitur arcu"
      text run at (11,1916) width 34: "pede,"
      text run at (11,1931) width 90: "adipiscing sed,"
      text run at (11,1946) width 76: "egestas nec,"
      text run at (11,1961) width 79: "commodo in,"
      text run at (11,1976) width 58: "elit. Nulla"
      text run at (11,1991) width 77: "facilisi. Proin"
      text run at (11,2006) width 87: "varius pede et"
      text run at (11,2021) width 61: "dui lacinia"
      text run at (11,2036) width 89: "dapibus. Morbi"
      text run at (11,2051) width 67: "nec augue."
      text run at (11,2066) width 31: "Proin"
      text run at (11,2081) width 58: "imperdiet"
      text run at (11,2096) width 50: "lacus eu"
      text run at (11,2111) width 37: "tellus."
layer at (197,308) size 125x100 clip at (198,309) size 123x85 scrollWidth 420 scrollHeight 185
  LayoutBlockFlow {DIV} at (189,300) size 125x100 [color=#DCDCDC] [bgcolor=#718D93] [border: (1px solid #D3D3D3)]
    LayoutBlockFlow {DIV} at (1,1) size 420x185
      LayoutText {#text} at (10,10) size 398x165
        text run at (10,10) width 397: "Lorem ipsum dolor sit amet, consectetuer adipiscing elit. Morbi et"
        text run at (10,25) width 364: "nisi ut est venenatis viverra. Aenean pede orci, blandit quis,"
        text run at (10,40) width 398: "faucibus quis, egestas ut, mi. Pellentesque enim purus, venenatis"
        text run at (10,55) width 371: "dignissim, tincidunt a, ullamcorper eget, nibh. Nullam ut sem"
        text run at (10,70) width 348: "adipiscing orci vehicula interdum. Proin a enim. Phasellus"
        text run at (10,85) width 381: "sollicitudin, magna vitae vestibulum facilisis, tellus nunc iaculis"
        text run at (10,100) width 380: "arcu, in molestie sem velit tempus est. In eleifend velit at sem"
        text run at (10,115) width 350: "adipiscing sodales. Nunc sapien felis, aliquam et, volutpat"
        text run at (10,130) width 382: "rhoncus, condimentum ut, tortor. Integer est. Quisque viverra."
        text run at (10,145) width 312: "Praesent sed arcu. Maecenas id lorem a leo lobortis"
        text run at (10,160) width 87: "condimentum."
layer at (366,308) size 125x100 clip at (367,309) size 110x85 scrollWidth 420 scrollHeight 455
  LayoutBlockFlow {DIV} at (358,300) size 125x100 [color=#DCDCDC] [bgcolor=#718D93] [border: (1px solid #D3D3D3)]
    LayoutBlockFlow {DIV} at (1,1) size 420x455
      LayoutText {#text} at (10,10) size 398x165
        text run at (10,10) width 397: "Lorem ipsum dolor sit amet, consectetuer adipiscing elit. Morbi et"
        text run at (10,25) width 364: "nisi ut est venenatis viverra. Aenean pede orci, blandit quis,"
        text run at (10,40) width 398: "faucibus quis, egestas ut, mi. Pellentesque enim purus, venenatis"
        text run at (10,55) width 371: "dignissim, tincidunt a, ullamcorper eget, nibh. Nullam ut sem"
        text run at (10,70) width 348: "adipiscing orci vehicula interdum. Proin a enim. Phasellus"
        text run at (10,85) width 381: "sollicitudin, magna vitae vestibulum facilisis, tellus nunc iaculis"
        text run at (10,100) width 380: "arcu, in molestie sem velit tempus est. In eleifend velit at sem"
        text run at (10,115) width 350: "adipiscing sodales. Nunc sapien felis, aliquam et, volutpat"
        text run at (10,130) width 382: "rhoncus, condimentum ut, tortor. Integer est. Quisque viverra."
        text run at (10,145) width 312: "Praesent sed arcu. Maecenas id lorem a leo lobortis"
        text run at (10,160) width 91: "condimentum. "
      LayoutBR {BR} at (100,172) size 1x0
      LayoutBR {BR} at (10,175) size 0x15
      LayoutText {#text} at (10,190) size 398x135
        text run at (10,190) width 357: "Cras commodo rutrum augue. Vivamus iaculis. Nullam est."
        text run at (10,205) width 387: "Maecenas consequat. Sed id dui. Vivamus a nisl. Donec pretium"
        text run at (10,220) width 375: "sapien. Proin et ligula et ligula placerat pulvinar. Aliquam erat"
        text run at (10,235) width 378: "volutpat. Proin id est. Suspendisse cursus, magna at hendrerit"
        text run at (10,250) width 389: "consequat, mauris est imperdiet neque, a ultrices arcu urna non"
        text run at (10,265) width 398: "nunc. Quisque tellus. Nulla nulla justo, vehicula nec, pellentesque"
        text run at (10,280) width 386: "eu, iaculis et, ligula. Praesent mattis ante vel sem. Suspendisse"
        text run at (10,295) width 372: "porta rhoncus urna. Phasellus felis. Praesent viverra convallis"
        text run at (10,310) width 372: "libero. Maecenas non augue. Donec hendrerit lectus id enim. "
      LayoutBR {BR} at (381,322) size 1x0
      LayoutBR {BR} at (10,325) size 0x15
      LayoutText {#text} at (10,340) size 397x105
        text run at (10,340) width 397: "Nulla ligula dui, euismod et, sodales quis, sollicitudin quis, elit. In"
        text run at (10,355) width 368: "adipiscing est sed enim. Fusce at massa vitae metus semper"
        text run at (10,370) width 365: "hendrerit. Integer vitae urna. Nulla eget ligula. Etiam libero."
        text run at (10,385) width 371: "Maecenas nisi nibh, convallis a, feugiat vitae, pulvinar et, mi."
        text run at (10,400) width 381: "Curabitur arcu pede, adipiscing sed, egestas nec, commodo in,"
        text run at (10,415) width 386: "elit. Nulla facilisi. Proin varius pede et dui lacinia dapibus. Morbi"
        text run at (10,430) width 258: "nec augue. Proin imperdiet lacus eu tellus."
layer at (535,308) size 125x100 clip at (536,309) size 110x85 scrollWidth 420 scrollHeight 455
  LayoutBlockFlow {DIV} at (527,300) size 125x100 [color=#DCDCDC] [bgcolor=#718D93] [border: (1px solid #D3D3D3)]
    LayoutBlockFlow {DIV} at (1,1) size 420x455
      LayoutText {#text} at (10,10) size 398x165
        text run at (10,10) width 397: "Lorem ipsum dolor sit amet, consectetuer adipiscing elit. Morbi et"
        text run at (10,25) width 364: "nisi ut est venenatis viverra. Aenean pede orci, blandit quis,"
        text run at (10,40) width 398: "faucibus quis, egestas ut, mi. Pellentesque enim purus, venenatis"
        text run at (10,55) width 371: "dignissim, tincidunt a, ullamcorper eget, nibh. Nullam ut sem"
        text run at (10,70) width 348: "adipiscing orci vehicula interdum. Proin a enim. Phasellus"
        text run at (10,85) width 381: "sollicitudin, magna vitae vestibulum facilisis, tellus nunc iaculis"
        text run at (10,100) width 380: "arcu, in molestie sem velit tempus est. In eleifend velit at sem"
        text run at (10,115) width 350: "adipiscing sodales. Nunc sapien felis, aliquam et, volutpat"
        text run at (10,130) width 382: "rhoncus, condimentum ut, tortor. Integer est. Quisque viverra."
        text run at (10,145) width 312: "Praesent sed arcu. Maecenas id lorem a leo lobortis"
        text run at (10,160) width 91: "condimentum. "
      LayoutBR {BR} at (100,172) size 1x0
      LayoutBR {BR} at (10,175) size 0x15
      LayoutText {#text} at (10,190) size 398x135
        text run at (10,190) width 357: "Cras commodo rutrum augue. Vivamus iaculis. Nullam est."
        text run at (10,205) width 387: "Maecenas consequat. Sed id dui. Vivamus a nisl. Donec pretium"
        text run at (10,220) width 375: "sapien. Proin et ligula et ligula placerat pulvinar. Aliquam erat"
        text run at (10,235) width 378: "volutpat. Proin id est. Suspendisse cursus, magna at hendrerit"
        text run at (10,250) width 389: "consequat, mauris est imperdiet neque, a ultrices arcu urna non"
        text run at (10,265) width 398: "nunc. Quisque tellus. Nulla nulla justo, vehicula nec, pellentesque"
        text run at (10,280) width 386: "eu, iaculis et, ligula. Praesent mattis ante vel sem. Suspendisse"
        text run at (10,295) width 372: "porta rhoncus urna. Phasellus felis. Praesent viverra convallis"
        text run at (10,310) width 372: "libero. Maecenas non augue. Donec hendrerit lectus id enim. "
      LayoutBR {BR} at (381,322) size 1x0
      LayoutBR {BR} at (10,325) size 0x15
      LayoutText {#text} at (10,340) size 397x105
        text run at (10,340) width 397: "Nulla ligula dui, euismod et, sodales quis, sollicitudin quis, elit. In"
        text run at (10,355) width 368: "adipiscing est sed enim. Fusce at massa vitae metus semper"
        text run at (10,370) width 365: "hendrerit. Integer vitae urna. Nulla eget ligula. Etiam libero."
        text run at (10,385) width 371: "Maecenas nisi nibh, convallis a, feugiat vitae, pulvinar et, mi."
        text run at (10,400) width 381: "Curabitur arcu pede, adipiscing sed, egestas nec, commodo in,"
        text run at (10,415) width 386: "elit. Nulla facilisi. Proin varius pede et dui lacinia dapibus. Morbi"
        text run at (10,430) width 258: "nec augue. Proin imperdiet lacus eu tellus."
layer at (28,448) size 125x100 clip at (29,449) size 110x85 scrollWidth 420 scrollHeight 455
  LayoutBlockFlow {DIV} at (20,440) size 125x100 [color=#DCDCDC] [bgcolor=#718D93] [border: (1px solid #D3D3D3)]
    LayoutBlockFlow {DIV} at (1,1) size 420x455
      LayoutText {#text} at (10,10) size 398x165
        text run at (10,10) width 397: "Lorem ipsum dolor sit amet, consectetuer adipiscing elit. Morbi et"
        text run at (10,25) width 364: "nisi ut est venenatis viverra. Aenean pede orci, blandit quis,"
        text run at (10,40) width 398: "faucibus quis, egestas ut, mi. Pellentesque enim purus, venenatis"
        text run at (10,55) width 371: "dignissim, tincidunt a, ullamcorper eget, nibh. Nullam ut sem"
        text run at (10,70) width 348: "adipiscing orci vehicula interdum. Proin a enim. Phasellus"
        text run at (10,85) width 381: "sollicitudin, magna vitae vestibulum facilisis, tellus nunc iaculis"
        text run at (10,100) width 380: "arcu, in molestie sem velit tempus est. In eleifend velit at sem"
        text run at (10,115) width 350: "adipiscing sodales. Nunc sapien felis, aliquam et, volutpat"
        text run at (10,130) width 382: "rhoncus, condimentum ut, tortor. Integer est. Quisque viverra."
        text run at (10,145) width 312: "Praesent sed arcu. Maecenas id lorem a leo lobortis"
        text run at (10,160) width 91: "condimentum. "
      LayoutBR {BR} at (100,172) size 1x0
      LayoutBR {BR} at (10,175) size 0x15
      LayoutText {#text} at (10,190) size 398x135
        text run at (10,190) width 357: "Cras commodo rutrum augue. Vivamus iaculis. Nullam est."
        text run at (10,205) width 387: "Maecenas consequat. Sed id dui. Vivamus a nisl. Donec pretium"
        text run at (10,220) width 375: "sapien. Proin et ligula et ligula placerat pulvinar. Aliquam erat"
        text run at (10,235) width 378: "volutpat. Proin id est. Suspendisse cursus, magna at hendrerit"
        text run at (10,250) width 389: "consequat, mauris est imperdiet neque, a ultrices arcu urna non"
        text run at (10,265) width 398: "nunc. Quisque tellus. Nulla nulla justo, vehicula nec, pellentesque"
        text run at (10,280) width 386: "eu, iaculis et, ligula. Praesent mattis ante vel sem. Suspendisse"
        text run at (10,295) width 372: "porta rhoncus urna. Phasellus felis. Praesent viverra convallis"
        text run at (10,310) width 372: "libero. Maecenas non augue. Donec hendrerit lectus id enim. "
      LayoutBR {BR} at (381,322) size 1x0
      LayoutBR {BR} at (10,325) size 0x15
      LayoutText {#text} at (10,340) size 397x105
        text run at (10,340) width 397: "Nulla ligula dui, euismod et, sodales quis, sollicitudin quis, elit. In"
        text run at (10,355) width 368: "adipiscing est sed enim. Fusce at massa vitae metus semper"
        text run at (10,370) width 365: "hendrerit. Integer vitae urna. Nulla eget ligula. Etiam libero."
        text run at (10,385) width 371: "Maecenas nisi nibh, convallis a, feugiat vitae, pulvinar et, mi."
        text run at (10,400) width 381: "Curabitur arcu pede, adipiscing sed, egestas nec, commodo in,"
        text run at (10,415) width 386: "elit. Nulla facilisi. Proin varius pede et dui lacinia dapibus. Morbi"
        text run at (10,430) width 258: "nec augue. Proin imperdiet lacus eu tellus."
layer at (197,448) size 125x100 clip at (198,449) size 110x85 scrollWidth 420 scrollHeight 455
  LayoutBlockFlow {DIV} at (189,440) size 125x100 [color=#DCDCDC] [bgcolor=#718D93] [border: (1px solid #D3D3D3)]
    LayoutBlockFlow {DIV} at (1,1) size 420x455
      LayoutText {#text} at (10,10) size 398x165
        text run at (10,10) width 397: "Lorem ipsum dolor sit amet, consectetuer adipiscing elit. Morbi et"
        text run at (10,25) width 364: "nisi ut est venenatis viverra. Aenean pede orci, blandit quis,"
        text run at (10,40) width 398: "faucibus quis, egestas ut, mi. Pellentesque enim purus, venenatis"
        text run at (10,55) width 371: "dignissim, tincidunt a, ullamcorper eget, nibh. Nullam ut sem"
        text run at (10,70) width 348: "adipiscing orci vehicula interdum. Proin a enim. Phasellus"
        text run at (10,85) width 381: "sollicitudin, magna vitae vestibulum facilisis, tellus nunc iaculis"
        text run at (10,100) width 380: "arcu, in molestie sem velit tempus est. In eleifend velit at sem"
        text run at (10,115) width 350: "adipiscing sodales. Nunc sapien felis, aliquam et, volutpat"
        text run at (10,130) width 382: "rhoncus, condimentum ut, tortor. Integer est. Quisque viverra."
        text run at (10,145) width 312: "Praesent sed arcu. Maecenas id lorem a leo lobortis"
        text run at (10,160) width 91: "condimentum. "
      LayoutBR {BR} at (100,172) size 1x0
      LayoutBR {BR} at (10,175) size 0x15
      LayoutText {#text} at (10,190) size 398x135
        text run at (10,190) width 357: "Cras commodo rutrum augue. Vivamus iaculis. Nullam est."
        text run at (10,205) width 387: "Maecenas consequat. Sed id dui. Vivamus a nisl. Donec pretium"
        text run at (10,220) width 375: "sapien. Proin et ligula et ligula placerat pulvinar. Aliquam erat"
        text run at (10,235) width 378: "volutpat. Proin id est. Suspendisse cursus, magna at hendrerit"
        text run at (10,250) width 389: "consequat, mauris est imperdiet neque, a ultrices arcu urna non"
        text run at (10,265) width 398: "nunc. Quisque tellus. Nulla nulla justo, vehicula nec, pellentesque"
        text run at (10,280) width 386: "eu, iaculis et, ligula. Praesent mattis ante vel sem. Suspendisse"
        text run at (10,295) width 372: "porta rhoncus urna. Phasellus felis. Praesent viverra convallis"
        text run at (10,310) width 372: "libero. Maecenas non augue. Donec hendrerit lectus id enim. "
      LayoutBR {BR} at (381,322) size 1x0
      LayoutBR {BR} at (10,325) size 0x15
      LayoutText {#text} at (10,340) size 397x105
        text run at (10,340) width 397: "Nulla ligula dui, euismod et, sodales quis, sollicitudin quis, elit. In"
        text run at (10,355) width 368: "adipiscing est sed enim. Fusce at massa vitae metus semper"
        text run at (10,370) width 365: "hendrerit. Integer vitae urna. Nulla eget ligula. Etiam libero."
        text run at (10,385) width 371: "Maecenas nisi nibh, convallis a, feugiat vitae, pulvinar et, mi."
        text run at (10,400) width 381: "Curabitur arcu pede, adipiscing sed, egestas nec, commodo in,"
        text run at (10,415) width 386: "elit. Nulla facilisi. Proin varius pede et dui lacinia dapibus. Morbi"
        text run at (10,430) width 258: "nec augue. Proin imperdiet lacus eu tellus."
layer at (366,448) size 125x100 clip at (367,449) size 110x85 scrollWidth 420 scrollHeight 455
  LayoutBlockFlow {DIV} at (358,440) size 125x100 [color=#DCDCDC] [bgcolor=#718D93] [border: (1px solid #D3D3D3)]
    LayoutBlockFlow {DIV} at (1,1) size 420x455
      LayoutText {#text} at (10,10) size 398x165
        text run at (10,10) width 397: "Lorem ipsum dolor sit amet, consectetuer adipiscing elit. Morbi et"
        text run at (10,25) width 364: "nisi ut est venenatis viverra. Aenean pede orci, blandit quis,"
        text run at (10,40) width 398: "faucibus quis, egestas ut, mi. Pellentesque enim purus, venenatis"
        text run at (10,55) width 371: "dignissim, tincidunt a, ullamcorper eget, nibh. Nullam ut sem"
        text run at (10,70) width 348: "adipiscing orci vehicula interdum. Proin a enim. Phasellus"
        text run at (10,85) width 381: "sollicitudin, magna vitae vestibulum facilisis, tellus nunc iaculis"
        text run at (10,100) width 380: "arcu, in molestie sem velit tempus est. In eleifend velit at sem"
        text run at (10,115) width 350: "adipiscing sodales. Nunc sapien felis, aliquam et, volutpat"
        text run at (10,130) width 382: "rhoncus, condimentum ut, tortor. Integer est. Quisque viverra."
        text run at (10,145) width 312: "Praesent sed arcu. Maecenas id lorem a leo lobortis"
        text run at (10,160) width 91: "condimentum. "
      LayoutBR {BR} at (100,172) size 1x0
      LayoutBR {BR} at (10,175) size 0x15
      LayoutText {#text} at (10,190) size 398x135
        text run at (10,190) width 357: "Cras commodo rutrum augue. Vivamus iaculis. Nullam est."
        text run at (10,205) width 387: "Maecenas consequat. Sed id dui. Vivamus a nisl. Donec pretium"
        text run at (10,220) width 375: "sapien. Proin et ligula et ligula placerat pulvinar. Aliquam erat"
        text run at (10,235) width 378: "volutpat. Proin id est. Suspendisse cursus, magna at hendrerit"
        text run at (10,250) width 389: "consequat, mauris est imperdiet neque, a ultrices arcu urna non"
        text run at (10,265) width 398: "nunc. Quisque tellus. Nulla nulla justo, vehicula nec, pellentesque"
        text run at (10,280) width 386: "eu, iaculis et, ligula. Praesent mattis ante vel sem. Suspendisse"
        text run at (10,295) width 372: "porta rhoncus urna. Phasellus felis. Praesent viverra convallis"
        text run at (10,310) width 372: "libero. Maecenas non augue. Donec hendrerit lectus id enim. "
      LayoutBR {BR} at (381,322) size 1x0
      LayoutBR {BR} at (10,325) size 0x15
      LayoutText {#text} at (10,340) size 397x105
        text run at (10,340) width 397: "Nulla ligula dui, euismod et, sodales quis, sollicitudin quis, elit. In"
        text run at (10,355) width 368: "adipiscing est sed enim. Fusce at massa vitae metus semper"
        text run at (10,370) width 365: "hendrerit. Integer vitae urna. Nulla eget ligula. Etiam libero."
        text run at (10,385) width 371: "Maecenas nisi nibh, convallis a, feugiat vitae, pulvinar et, mi."
        text run at (10,400) width 381: "Curabitur arcu pede, adipiscing sed, egestas nec, commodo in,"
        text run at (10,415) width 386: "elit. Nulla facilisi. Proin varius pede et dui lacinia dapibus. Morbi"
        text run at (10,430) width 258: "nec augue. Proin imperdiet lacus eu tellus."
