layer at (0,0) size 800x600
  LayoutView at (0,0) size 800x600
layer at (0,0) size 800x600
  LayoutSVGRoot {svg} at (0,0) size 800x600
    LayoutSVGRect {rect} at (0,0) size 800x600 [x=-1000.00] [y=-1000.00] [width=5000.00] [height=5000.00]
    LayoutSVGText {text} at (50,12) size 342x22 contains 1 chunk(s)
      LayoutSVGInlineText {#text} at (0,0) size 342x22
        chunk 1 text run 1 at (50.00,30.00) startOffset 0 endOffset 34 width 341.16: "Demonstration of the SVG Scrollbar"
    LayoutSVGText {text} at (542,15) size 408x19 contains 1 chunk(s)
      LayoutSVGInlineText {#text} at (0,0) size 408x19
        chunk 1 (end anchor) text run 1 at (542.50,30.00) startOffset 0 endOffset 59 width 407.50: "One can also drag the images and the scrollbars will adopt."
    LayoutSVGViewportContainer {svg} at (40,60) size 760x337
      LayoutSVGContainer {g} at (40,60) size 760x337
        LayoutSVGImage {image} at (40,60) size 760x337
        LayoutSVGContainer {g} at (368,111) size 432x262
          LayoutSVGText {text} at (410,73) size 92x20 contains 1 chunk(s)
            LayoutSVGInlineText {#text} at (0,0) size 92x19
              chunk 1 (middle anchor) text run 1 at (410.38,88.80) startOffset 0 endOffset 13 width 91.25: "Furggeltihorn"
          LayoutSVGText {text} at (569,83) size 50x20 contains 1 chunk(s)
            LayoutSVGInlineText {#text} at (0,0) size 49x19
              chunk 1 (middle anchor) text run 1 at (569.42,98.80) startOffset 0 endOffset 6 width 48.75: "P 2821"
          LayoutSVGText {text} at (590,64) size 90x20 contains 1 chunk(s)
            LayoutSVGInlineText {#text} at (0,0) size 90x19
              chunk 1 (middle anchor) text run 1 at (590.00,79.80) startOffset 0 endOffset 13 width 90.00: "Zervreilahorn"
          LayoutSVGText {text} at (765,97) size 80x20 contains 1 chunk(s)
            LayoutSVGInlineText {#text} at (0,0) size 79x19
              chunk 1 (middle anchor) text run 1 at (765.63,112.80) startOffset 0 endOffset 11 width 78.75: "Plattenberg"
          LayoutSVGText {text} at (2191,163) size 60x20 contains 1 chunk(s)
            LayoutSVGInlineText {#text} at (0,0) size 59x19
              chunk 1 (middle anchor) text run 1 at (2191.52,178.80) startOffset 0 endOffset 8 width 58.75: "Piz Fess"
          LayoutSVGText {text} at (2250,147) size 83x20 contains 1 chunk(s)
            LayoutSVGInlineText {#text} at (0,0) size 83x19
              chunk 1 (middle anchor) text run 1 at (2250.15,162.60) startOffset 0 endOffset 11 width 82.50: "Crap Grisch"
          LayoutSVGText {text} at (2378,134) size 69x20 contains 1 chunk(s)
            LayoutSVGInlineText {#text} at (0,0) size 68x19
              chunk 1 (middle anchor) text run 1 at (2378.95,149.60) startOffset 0 endOffset 9 width 67.50: "Piz Tom\x{FC}l"
          LayoutSVGText {text} at (1734,97) size 57x20 contains 1 chunk(s)
            LayoutSVGInlineText {#text} at (0,0) size 57x19
              chunk 1 (middle anchor) text run 1 at (1734.47,112.60) startOffset 0 endOffset 8 width 56.25: "Fruntalp"
          LayoutSVGText {text} at (961,371) size 86x20 contains 1 chunk(s)
            LayoutSVGInlineText {#text} at (0,0) size 85x19
              chunk 1 (middle anchor) text run 1 at (961.30,386.50) startOffset 0 endOffset 12 width 85.00: "Zervreilasee"
    LayoutSVGContainer {g} at (40,60) size 733x173
      LayoutSVGContainer {g} at (40,220) size 720x13
        LayoutSVGRect {rect} at (52,220) size 696x13 [stroke={[type=SOLID] [color=#696969]}] [fill={[type=SOLID] [color=#F5F5F5]}] [x=65.50] [y=250.50] [width=869.00] [height=15.00]
        LayoutSVGRect {rect} at (52,220) size 175x13 [stroke={[type=SOLID] [color=#696969]}] [fill={[type=SOLID] [color=#D3D3D3]}] [x=65.50] [y=250.50] [width=216.82] [height=15.00]
        LayoutSVGRect {rect} at (40,220) size 13x13 [stroke={[type=SOLID] [color=#696969]}] [fill={[type=SOLID] [color=#D3D3D3]}] [x=50.50] [y=250.50] [width=15.00] [height=15.00]
        LayoutSVGRect {rect} at (747,220) size 13x13 [stroke={[type=SOLID] [color=#696969]}] [fill={[type=SOLID] [color=#D3D3D3]}] [x=934.50] [y=250.50] [width=15.00] [height=15.00]
        LayoutSVGPath {path} at (43,223) size 7x7 [fill={[type=SOLID] [color=#696969]}] [data="M 54.5 258.5 L 62.5 254.5 L 62.5 262.5 Z"]
        LayoutSVGPath {path} at (750,223) size 8x7 [fill={[type=SOLID] [color=#696969]}] [data="M 946.5 258.5 L 938.5 262.5 L 938.5 254.5 Z"]
      LayoutSVGContainer {g} at (760,60) size 13x160
        LayoutSVGRect {rect} at (760,72) size 13x136 [stroke={[type=SOLID] [color=#696969]}] [fill={[type=SOLID] [color=#F5F5F5]}] [x=950.50] [y=65.50] [width=15.00] [height=169.00]
        LayoutSVGRect {rect} at (760,72) size 13x66 [stroke={[type=SOLID] [color=#696969]}] [fill={[type=SOLID] [color=#D3D3D3]}] [x=950.50] [y=65.50] [width=15.00] [height=80.38]
        LayoutSVGRect {rect} at (760,60) size 13x13 [stroke={[type=SOLID] [color=#696969]}] [fill={[type=SOLID] [color=#D3D3D3]}] [x=950.50] [y=50.50] [width=15.00] [height=15.00]
        LayoutSVGRect {rect} at (760,207) size 13x13 [stroke={[type=SOLID] [color=#696969]}] [fill={[type=SOLID] [color=#D3D3D3]}] [x=950.50] [y=234.50] [width=15.00] [height=15.00]
        LayoutSVGPath {path} at (763,63) size 7x7 [fill={[type=SOLID] [color=#696969]}] [data="M 958 54.5 L 962.5 62.5 L 954.5 62.5 Z"]
        LayoutSVGPath {path} at (763,210) size 7x8 [fill={[type=SOLID] [color=#696969]}] [data="M 958 246.5 L 954.5 238.5 L 962.5 238.5 Z"]
    LayoutSVGText {text} at (392,267) size 558x17 contains 1 chunk(s)
      LayoutSVGInlineText {#text} at (0,0) size 558x17
        chunk 1 (end anchor) text run 1 at (392.50,280.00) startOffset 0 endOffset 89 width 557.50: "Panorama Zervreilastausee, Vals, Graub\x{FC}nden, Switzerland, taken 2006-02-04 (\x{A9} A. Neumann)"
    LayoutSVGViewportContainer {svg} at (40,300) size 760x300
      LayoutSVGContainer {g} at (40,300) size 760x300
        LayoutSVGImage {image} at (40,300) size 760x300
    LayoutSVGContainer {g} at (40,300) size 729x169
      LayoutSVGContainer {g} at (40,460) size 720x9
        LayoutSVGRect {rect} at (40,460) size 704x9 [stroke={[type=SOLID] [color=#696969]}] [fill={[type=SOLID] [color=#F5F5F5]}] [x=50.50] [y=550.50] [width=879.00] [height=10.00]
        LayoutSVGRect {rect} at (40,460) size 179x9 [stroke={[type=SOLID] [color=#696969]}] [fill={[type=SOLID] [color=#D3D3D3]}] [x=50.50] [y=550.50] [width=222.21] [height=10.00]
        LayoutSVGRect {rect} at (743,460) size 9x9 [stroke={[type=SOLID] [color=#696969]}] [fill={[type=SOLID] [color=#D3D3D3]}] [x=929.50] [y=550.50] [width=10.00] [height=10.00]
        LayoutSVGRect {rect} at (751,460) size 9x9 [stroke={[type=SOLID] [color=#696969]}] [fill={[type=SOLID] [color=#D3D3D3]}] [x=939.50] [y=550.50] [width=10.00] [height=10.00]
        LayoutSVGPath {path} at (746,462) size 5x6 [fill={[type=SOLID] [color=#696969]}] [data="M 932.5 556.5 L 938.5 553.5 L 938.5 559.5 Z"]
        LayoutSVGPath {path} at (754,462) size 5x6 [fill={[type=SOLID] [color=#696969]}] [data="M 948.5 556.5 L 942.5 559.5 L 942.5 553.5 Z"]
      LayoutSVGContainer {g} at (760,300) size 9x160
        LayoutSVGRect {rect} at (760,300) size 9x144 [stroke={[type=SOLID] [color=#696969]}] [fill={[type=SOLID] [color=#F5F5F5]}] [x=950.50] [y=350.50] [width=10.00] [height=179.00]
        LayoutSVGRect {rect} at (760,300) size 9x43 [stroke={[type=SOLID] [color=#696969]}] [fill={[type=SOLID] [color=#D3D3D3]}] [x=950.50] [y=350.50] [width=10.00] [height=51.96]
        LayoutSVGRect {rect} at (760,443) size 9x9 [stroke={[type=SOLID] [color=#696969]}] [fill={[type=SOLID] [color=#D3D3D3]}] [x=950.50] [y=529.50] [width=10.00] [height=10.00]
        LayoutSVGRect {rect} at (760,451) size 9x9 [stroke={[type=SOLID] [color=#696969]}] [fill={[type=SOLID] [color=#D3D3D3]}] [x=950.50] [y=539.50] [width=10.00] [height=10.00]
        LayoutSVGPath {path} at (762,446) size 6x5 [fill={[type=SOLID] [color=#696969]}] [data="M 955.5 532.5 L 959.5 538.5 L 953.5 538.5 Z"]
        LayoutSVGPath {path} at (762,454) size 6x5 [fill={[type=SOLID] [color=#696969]}] [data="M 955.5 548.5 L 953.5 542.5 L 959.5 542.5 Z"]
    LayoutSVGText {text} at (390,562) size 560x17 contains 1 chunk(s)
      LayoutSVGInlineText {#text} at (0,0) size 560x17
        chunk 1 (end anchor) text run 1 at (390.00,575.00) startOffset 0 endOffset 94 width 560.00: "Panorama Chalchtrittli, Tierfed, Linthal, Glarus, Switzerland, taken 2005-09-03 (\x{A9} A. Neumann)"
    LayoutSVGContainer {g} at (39,483) size 186x18
      LayoutSVGContainer {g} at (39,483) size 90x18
        LayoutSVGRect {rect} at (39,483) size 89x17 [fill={[type=SOLID] [color=#FFFFFF]}] [x=49.00] [y=579.00] [width=110.00] [height=20.00]
        LayoutSVGRect {rect} at (40,484) size 89x17 [fill={[type=SOLID] [color=#696969]}] [x=51.00] [y=581.00] [width=110.00] [height=20.00]
        LayoutSVGRect {rect} at (40,484) size 88x16 [fill={[type=SOLID] [color=#DCDCDC]}] [x=50.00] [y=580.00] [width=110.00] [height=20.00]
        LayoutSVGText {text} at (63,582) size 84x18 contains 1 chunk(s)
          LayoutSVGTSpan {tspan} at (0,0) size 84x17
            LayoutSVGInlineText {#text} at (0,0) size 84x17
              chunk 1 (middle anchor) text run 1 at (63.13,595.40) startOffset 0 endOffset 14 width 83.75: "Hide Scrollbar"
      LayoutSVGContainer {g} at (135,483) size 90x18
        LayoutSVGRect {rect} at (135,483) size 89x17 [fill={[type=SOLID] [color=#FFFFFF]}] [x=169.00] [y=579.00] [width=110.00] [height=20.00]
        LayoutSVGRect {rect} at (136,484) size 89x17 [fill={[type=SOLID] [color=#696969]}] [x=171.00] [y=581.00] [width=110.00] [height=20.00]
        LayoutSVGRect {rect} at (136,484) size 88x16 [fill={[type=SOLID] [color=#DCDCDC]}] [x=170.00] [y=580.00] [width=110.00] [height=20.00]
        LayoutSVGText {text} at (172,582) size 106x18 contains 1 chunk(s)
          LayoutSVGTSpan {tspan} at (0,0) size 105x17
            LayoutSVGInlineText {#text} at (0,0) size 105x17
              chunk 1 (middle anchor) text run 1 at (172.50,595.40) startOffset 0 endOffset 16 width 105.00: "Remove Scrollbar"
