{
  "bounds": [800, 600],
  "children": [
    {
      "bounds": [800, 600],
      "contentsOpaque": true,
      "drawsContent": true,
      "repaintRects": [
        [1, 53, 150, 150],
        [0, 52, 200, 300],
        [0, 52, 152, 151],
        [0, 16, 800, 336],
        [0, 0, 800, 352],
        [-51, 53, 150, 150],
        [-52, 52, 252, 300],
        [-52, 52, 152, 151],
        [-52, 16, 852, 336],
        [-52, 0, 852, 352]
      ]
    }
  ]
}

