{
  "bounds": [800, 600],
  "children": [
    {
      "bounds": [800, 600],
      "contentsOpaque": true,
      "drawsContent": true,
      "repaintRects": [
        [149, 53, 50, 50],
        [148, 52, 52, 150],
        [101, 53, 50, 50],
        [100, 52, 52, 150],
        [49, 53, 50, 50],
        [48, 52, 52, 150],
        [1, 53, 50, 50],
        [0, 52, 200, 300],
        [0, 52, 200, 300],
        [0, 52, 52, 150]
      ]
    }
  ]
}

