{
  "bounds": [800, 600],
  "children": [
    {
      "bounds": [800, 600],
      "contentsOpaque": true,
      "drawsContent": true,
      "repaintRects": [
        [0, 0, 100, 100]
      ],
      "paintInvalidationClients": [
        "LayoutBlockFlow HTML",
        "LayoutBlockFlow BODY",
        "LayoutBlockFlow DIV",
        "LayoutBR BR",
        "InlineTextBox '\n'",
        "LayoutBlockFlow (positioned) DIV id='target'",
        "LayoutBR BR",
        "InlineTextBox '\n'"
      ]
    }
  ]
}

