{
  "bounds": [800, 600],
  "children": [
    {
      "bounds": [800, 600],
      "contentsOpaque": true,
      "drawsContent": true,
      "repaintRects": [
        [62, 152, 492, 45],
        [58, 256, 500, 45],
        [58, 156, 500, 45],
        [58, 152, 500, 49],
        [0, 184, 800, 45]
      ],
      "paintInvalidationClients": [
        "LayoutBlockFlow HTML",
        "LayoutBlockFlow DIV",
        "LayoutBlockFlow DIV",
        "LayoutBlockFlow DIV id='target'"
      ]
    }
  ]
}

