layer at (0,0) size 800x600
  LayoutView at (0,0) size 800x600
layer at (10,10) size 780x302
  LayoutBlockFlow {fake} at (10,10) size 780x302 [bgcolor=#FFFF00]
layer at (10,10) size 282x302 clip at (11,11) size 265x300 scrollHeight 1302
  LayoutBlockFlow {channel} at (0,0) size 282x302 [bgcolor=#EEEEEE] [border: (1px solid #000000)]
    LayoutBlockFlow {title} at (11,11) size 255x19
      LayoutText {#text} at (0,0) size 156x19
        text run at (0,0) width 156: "scottandrew.com"
    LayoutBlockFlow {description} at (11,40) size 255x12
      LayoutText {#text} at (0,0) size 193x12
        text run at (0,0) width 193: "DHTML, DOM and JavaScript News"
    LayoutBlockFlow {item} at (1,62) size 265x97 [bgcolor=#FFFFFF] [border: (1px solid #CCCCCC) none (1px solid #CCCCCC) none]
      LayoutInline {title} at (0,0) size 234x15
        LayoutText {#text} at (10,11) size 234x15
          text run at (10,11) width 234: "DHTML Animation Array Generator"
      LayoutText {#text} at (0,0) size 0x0
      LayoutInline {description} at (0,0) size 237x60
        LayoutText {#text} at (10,26) size 237x60
          text run at (10,26) width 237: "Robert points us to the first third-party"
          text run at (10,41) width 217: "tool for the DomAPI: The Animation"
          text run at (10,56) width 201: "Array Generator, a visual tool for"
          text run at (10,71) width 62: "creating..."
      LayoutText {#text} at (0,0) size 0x0
      LayoutText {#text} at (0,0) size 0x0
    LayoutBlockFlow {item} at (1,169) size 265x82 [bgcolor=#FFFFFF] [border: (1px solid #CCCCCC) none (1px solid #CCCCCC) none]
      LayoutInline {title} at (0,0) size 180x15
        LayoutText {#text} at (10,11) size 180x15
          text run at (10,11) width 180: "DOM and Extended Entries"
      LayoutText {#text} at (189,11) size 5x15
        text run at (189,11) width 5: " "
      LayoutInline {description} at (0,0) size 244x60
        LayoutText {#text} at (193,11) size 244x60
          text run at (193,11) width 61: "Aarondot:"
          text run at (10,26) width 208: "A Better Way To Display Extended"
          text run at (10,41) width 226: "Entries. Very cool, and uses the DOM"
          text run at (10,56) width 243: "and JavaScript to reveal the extended..."
      LayoutText {#text} at (0,0) size 0x0
      LayoutText {#text} at (0,0) size 0x0
    LayoutBlockFlow {item} at (1,261) size 265x82 [bgcolor=#FFFFFF] [border: (1px solid #CCCCCC) none (1px solid #CCCCCC) none]
      LayoutInline {title} at (0,0) size 166x15
        LayoutText {#text} at (10,11) size 166x15
          text run at (10,11) width 166: "cellspacing and the DOM"
      LayoutText {#text} at (175,11) size 5x15
        text run at (175,11) width 5: " "
      LayoutInline {description} at (0,0) size 242x60
        LayoutText {#text} at (179,11) size 242x60
          text run at (179,11) width 73: "By the way,"
          text run at (10,26) width 217: "if you're using the DOM to generate"
          text run at (10,41) width 203: "TABLE elements, you have to use"
          text run at (10,56) width 158: "setAttribute() to set the..."
      LayoutText {#text} at (0,0) size 0x0
      LayoutText {#text} at (0,0) size 0x0
    LayoutBlockFlow {item} at (1,353) size 265x97 [bgcolor=#FFFFFF] [border: (1px solid #CCCCCC) none (1px solid #CCCCCC) none]
      LayoutInline {title} at (0,0) size 181x15
        LayoutText {#text} at (10,11) size 181x15
          text run at (10,11) width 181: "contenteditable for Mozilla"
      LayoutText {#text} at (190,11) size 5x15
        text run at (190,11) width 5: " "
      LayoutInline {description} at (0,0) size 242x75
        LayoutText {#text} at (194,11) size 242x75
          text run at (194,11) width 55: "The folks"
          text run at (10,26) width 215: "art Q42, creator of Quek (cute little"
          text run at (10,41) width 242: "avatar/chat) and Xopus (browser-based"
          text run at (10,56) width 225: "WYSIWYG XML-editor) have released"
          text run at (10,71) width 132: "code that simulates..."
      LayoutText {#text} at (0,0) size 0x0
      LayoutText {#text} at (0,0) size 0x0
    LayoutBlockFlow {item} at (1,460) size 265x82 [bgcolor=#FFFFFF] [border: (1px solid #CCCCCC) none (1px solid #CCCCCC) none]
      LayoutInline {title} at (0,0) size 182x30
        LayoutText {#text} at (10,11) size 182x30
          text run at (10,11) width 182: "DHTML Timeline/Keyframe"
          text run at (10,26) width 70: "Animation"
      LayoutText {#text} at (79,26) size 5x15
        text run at (79,26) width 5: " "
      LayoutInline {description} at (0,0) size 241x45
        LayoutText {#text} at (83,26) size 241x45
          text run at (83,26) width 168: "Tim Morgan is working on a"
          text run at (10,41) width 235: "Flash-like timeline/keyframe extension"
          text run at (10,56) width 148: "for his DHTML toolset...."
      LayoutText {#text} at (0,0) size 0x0
      LayoutText {#text} at (0,0) size 0x0
    LayoutBlockFlow {item} at (1,552) size 265x97 [bgcolor=#FFFFFF] [border: (1px solid #CCCCCC) none (1px solid #CCCCCC) none]
      LayoutInline {title} at (0,0) size 157x30
        LayoutText {#text} at (10,11) size 157x30
          text run at (10,11) width 157: "DynAPI 2.9 and Mozilla"
          text run at (10,26) width 128: "compatibility ports"
      LayoutText {#text} at (137,26) size 5x15
        text run at (137,26) width 5: " "
      LayoutInline {description} at (0,0) size 240x60
        LayoutText {#text} at (141,26) size 240x60
          text run at (141,26) width 107: "DynAPI 2.9 is the"
          text run at (10,41) width 211: "latest release of the popular cross-"
          text run at (10,56) width 240: "browser DHTML library, and is available"
          text run at (10,71) width 204: "at Dan Steinman's original site...."
      LayoutText {#text} at (0,0) size 0x0
      LayoutText {#text} at (0,0) size 0x0
    LayoutBlockFlow {item} at (1,659) size 265x67 [bgcolor=#FFFFFF] [border: (1px solid #CCCCCC) none (1px solid #CCCCCC) none]
      LayoutInline {title} at (0,0) size 155x15
        LayoutText {#text} at (10,11) size 155x15
          text run at (10,11) width 155: "!lineDraw bookmarklet"
      LayoutText {#text} at (164,11) size 5x15
        text run at (164,11) width 5: " "
      LayoutInline {description} at (0,0) size 217x45
        LayoutText {#text} at (168,11) size 217x45
          text run at (168,11) width 42: "Milov's"
          text run at (10,26) width 217: "!lineDraw bookmarklet is in fact the"
          text run at (10,41) width 174: "Coolest Bookmarklet Ever...."
      LayoutText {#text} at (0,0) size 0x0
      LayoutText {#text} at (0,0) size 0x0
    LayoutBlockFlow {item} at (1,736) size 265x97 [bgcolor=#FFFFFF] [border: (1px solid #CCCCCC) none (1px solid #CCCCCC) none]
      LayoutInline {title} at (0,0) size 204x15
        LayoutText {#text} at (10,11) size 204x15
          text run at (10,11) width 204: "Mozilla, DHTML and DOM links"
      LayoutText {#text} at (213,11) size 5x15
        text run at (213,11) width 5: " "
      LayoutInline {description} at (0,0) size 239x75
        LayoutText {#text} at (217,11) size 239x75
          text run at (217,11) width 28: "Why"
          text run at (10,26) width 214: "Mozilla Rules (Link via Dean) Steve"
          text run at (10,41) width 239: "Champeon: Why DHTML Will Win. Glish"
          text run at (10,56) width 199: "finds a not-quite-DOM-compliant"
          text run at (10,71) width 196: "replacement for innerHTML. It..."
      LayoutText {#text} at (0,0) size 0x0
      LayoutText {#text} at (0,0) size 0x0
    LayoutBlockFlow {item} at (1,843) size 265x67 [bgcolor=#FFFFFF] [border: (1px solid #CCCCCC) none (1px solid #CCCCCC) none]
      LayoutInline {title} at (0,0) size 104x15
        LayoutText {#text} at (10,11) size 104x15
          text run at (10,11) width 104: "Mozilla 1.0 RC2"
      LayoutText {#text} at (113,11) size 5x15
        text run at (113,11) width 5: " "
      LayoutInline {description} at (0,0) size 239x45
        LayoutText {#text} at (117,11) size 239x45
          text run at (117,11) width 132: "I'm late for this train:"
          text run at (10,26) width 235: "Mozilla 1.0 Release Candidate 2 is now"
          text run at (10,41) width 71: "available...."
      LayoutText {#text} at (0,0) size 0x0
      LayoutText {#text} at (0,0) size 0x0
    LayoutBlockFlow {item} at (1,920) size 265x97 [bgcolor=#FFFFFF] [border: (1px solid #CCCCCC) none (1px solid #CCCCCC) none]
      LayoutInline {title} at (0,0) size 239x30
        LayoutText {#text} at (10,11) size 239x30
          text run at (10,11) width 239: "javascript: is deprecated. Don't use"
          text run at (10,26) width 14: "it."
      LayoutText {#text} at (23,26) size 6x15
        text run at (23,26) width 6: " "
      LayoutInline {description} at (0,0) size 232x60
        LayoutText {#text} at (28,26) size 232x60
          text run at (28,26) width 186: "Repeat after me: javascript: is"
          text run at (10,41) width 232: "deprecated. Don't use it. javascript: is"
          text run at (10,56) width 232: "deprecated. Don't use it. javascript: is"
          text run at (10,71) width 147: "deprecated. Don't use..."
      LayoutText {#text} at (0,0) size 0x0
      LayoutText {#text} at (0,0) size 0x0
    LayoutBlockFlow {item} at (1,1027) size 265x67 [bgcolor=#FFFFFF] [border: (1px solid #CCCCCC) none (1px solid #CCCCCC) none]
      LayoutInline {title} at (0,0) size 178x15
        LayoutText {#text} at (10,11) size 178x15
          text run at (10,11) width 178: "Conditional Script Loading"
      LayoutText {#text} at (0,0) size 0x0
      LayoutInline {description} at (0,0) size 236x30
        LayoutText {#text} at (10,26) size 236x30
          text run at (10,26) width 236: "Webreference: DOM-Based Conditional"
          text run at (10,41) width 181: "Script Loading in JavaScript..."
      LayoutText {#text} at (0,0) size 0x0
      LayoutText {#text} at (0,0) size 0x0
    LayoutBlockFlow {item} at (1,1104) size 265x82 [bgcolor=#FFFFFF] [border: (1px solid #CCCCCC) none (1px solid #CCCCCC) none]
      LayoutInline {title} at (0,0) size 117x15
        LayoutText {#text} at (10,11) size 117x15
          text run at (10,11) width 117: "Stories and Tools"
      LayoutText {#text} at (126,11) size 5x15
        text run at (126,11) width 5: " "
      LayoutInline {description} at (0,0) size 243x60
        LayoutText {#text} at (130,11) size 243x60
          text run at (130,11) width 91: "Anil Dash talks"
          text run at (10,26) width 200: "about Stories and Tools, drawing"
          text run at (10,41) width 243: "comparisons between the Web as a text"
          text run at (10,56) width 161: "medium and the Web as..."
      LayoutText {#text} at (0,0) size 0x0
      LayoutText {#text} at (0,0) size 0x0
    LayoutBlockFlow {item} at (1,1196) size 265x97 [bgcolor=#FFFFFF] [border: (1px solid #CCCCCC) none (1px solid #CCCCCC) none]
      LayoutInline {title} at (0,0) size 167x15
        LayoutText {#text} at (10,11) size 167x15
          text run at (10,11) width 167: "Whole Lotto Gecko Links"
      LayoutText {#text} at (176,11) size 5x15
        text run at (176,11) width 5: " "
      LayoutInline {description} at (0,0) size 245x75
        LayoutText {#text} at (180,11) size 245x75
          text run at (180,11) width 67: "AOL Gecko"
          text run at (10,26) width 216: "Browser Detection Tips Establishing"
          text run at (10,41) width 195: "Dreamweaver compatibility with"
          text run at (10,56) width 245: "Netscape 6 Stylesheets and MIME Types"
          text run at (10,71) width 66: "in Gecko..."
      LayoutText {#text} at (0,0) size 0x0
      LayoutText {#text} at (0,0) size 0x0
