layer at (0,0) size 800x600
  LayoutView at (0,0) size 800x600
layer at (0,0) size 800x292
  LayoutBlockFlow {HTML} at (0,0) size 800x292
    LayoutBlockFlow {BODY} at (8,16) size 784x268
      LayoutBlockFlow {UL} at (0,0) size 784x54 [color=#000080]
        LayoutListItem {LI} at (40,0) size 744x18
          LayoutListMarker at (-17,0) size 7x18: bullet
          LayoutText {#text} at (0,0) size 340x18
            text run at (0,0) width 340: "You should not see the background under the border."
        LayoutListItem {LI} at (40,18) size 744x18
          LayoutListMarker at (-17,0) size 7x18: bullet
          LayoutText {#text} at (0,0) size 350x18
            text run at (0,0) width 350: "As you scroll the element below the cats should move."
        LayoutListItem {LI} at (40,36) size 744x18
          LayoutListMarker at (-17,0) size 7x18: bullet
          LayoutText {#text} at (0,0) size 300x18
            text run at (0,0) width 300: "The cats should be on a light grey background."
layer at (8,86) size 390x198 clip at (38,116) size 315x138 scrollHeight 360
  LayoutBlockFlow {DIV} at (0,70) size 390x198 [bgcolor=#C0C0C0] [border: (30px dotted #000000)]
    LayoutText {#text} at (30,30) size 32x360
      text run at (30,30) width 20: "   1"
      text run at (50,30) width 0: " "
      text run at (30,48) width 20: "   2"
      text run at (50,48) width 0: " "
      text run at (30,66) width 20: "   3"
      text run at (50,66) width 0: " "
      text run at (30,84) width 20: "   4"
      text run at (50,84) width 0: " "
      text run at (30,102) width 20: "   5"
      text run at (50,102) width 0: " "
      text run at (30,120) width 20: "   6"
      text run at (50,120) width 0: " "
      text run at (30,138) width 20: "   7"
      text run at (50,138) width 0: " "
      text run at (30,156) width 20: "   8"
      text run at (50,156) width 0: " "
      text run at (30,174) width 20: "   9"
      text run at (50,174) width 0: " "
      text run at (30,192) width 24: "  10"
      text run at (54,192) width 0: " "
      text run at (30,210) width 24: "  11"
      text run at (54,210) width 0: " "
      text run at (30,228) width 24: "  12"
      text run at (54,228) width 0: " "
      text run at (30,246) width 24: "  13"
      text run at (54,246) width 0: " "
      text run at (30,264) width 24: "  14"
      text run at (54,264) width 0: " "
      text run at (30,282) width 24: "  15"
      text run at (54,282) width 0: " "
      text run at (30,300) width 24: "  16"
      text run at (54,300) width 0: " "
      text run at (30,318) width 24: "  17"
      text run at (54,318) width 0: " "
      text run at (30,336) width 24: "  18"
      text run at (54,336) width 0: " "
      text run at (30,354) width 24: "  19"
      text run at (54,354) width 0: " "
      text run at (30,372) width 32: "  20  "
