{
  "bounds": [800, 600],
  "children": [
    {
      "bounds": [800, 600],
      "contentsOpaque": true,
      "drawsContent": true,
      "children": [
        {
          "position": [8, 61],
          "bounds": [200, 200],
          "drawsContent": true,
          "repaintRects": [
            [0, 0, 48, 656]
          ],
          "children": [
            {
              "bounds": [185, 185],
              "children": [
                {
                  "bounds": [185, 656],
                  "drawsContent": true,
                  "repaintRects": [
                    [0, 0, 48, 656]
                  ],
                  "children": [
                    {

                    }
                  ]
                }
              ]
            },
            {
              "children": [
                {
                  "position": [0, 185],
                  "bounds": [185, 15],
                  "drawsContent": true
                },
                {
                  "position": [185, 0],
                  "bounds": [15, 185],
                  "drawsContent": true
                },
                {
                  "position": [185, 185],
                  "bounds": [15, 15],
                  "drawsContent": true
                }
              ]
            }
          ]
        }
      ]
    }
  ]
}

