layer at (0,0) size 800x600
  LayoutView at (0,0) size 800x600
layer at (0,0) size 800x600
  LayoutBlockFlow {HTML} at (0,0) size 800x600
    LayoutBlockFlow {BODY} at (8,8) size 784x584
      LayoutMenuList {SELECT} at (0,0) size 54x20 [bgcolor=#FFFFFF] [border: (1px solid #A9A9A9)]
        LayoutBlockFlow (anonymous) at (1,1) size 52x18
          LayoutText at (4,1) size 29x16
            text run at (4,1) width 29: "Hello"
      LayoutText {#text} at (54,0) size 4x19
        text run at (54,0) width 4: " "
      LayoutMenuList {SELECT} at (58,0) size 77x20 [bgcolor=#FFFFFF] [border: (1px solid #A9A9A9)]
        LayoutBlockFlow (anonymous) at (1,1) size 75x18
          LayoutText at (4,1) size 52x16
            text run at (4,1) width 52: "Goodbye"
      LayoutText {#text} at (0,0) size 0x0
