layer at (0,0) size 800x600
  LayoutView at (0,0) size 800x600
layer at (0,0) size 800x290
  LayoutBlockFlow {HTML} at (0,0) size 800x290
    LayoutBlockFlow {BODY} at (8,16) size 784x258
      LayoutBlockFlow {P} at (0,0) size 784x258 [color=#000080]
        LayoutImage {IMG} at (0,0) size 50x50
        LayoutText {#text} at (50,4) size 334x18
          text run at (50,4) width 334: "\x{21E6} This text should flow around the box on the left. "
        LayoutInline {SPAN} at (0,0) size 784x254 [color=#C0C0C0]
          LayoutText {#text} at (383,4) size 784x254
            text run at (383,4) width 401: "dummy text dummy text dummy text dummy text dummy text"
            text run at (50,24) width 53: "dummy "
            text run at (102,24) width 487: "text dummy text dummy text dummy text dummy text dummy text dummy "
            text run at (588,24) width 186: "text dummy text dummy text"
            text run at (50,42) width 296: "dummy text dummy text dummy text dummy "
            text run at (345,42) width 429: "text dummy text dummy text dummy text dummy text dummy text"
            text run at (0,60) width 53: "dummy "
            text run at (52,60) width 487: "text dummy text dummy text dummy text dummy text dummy text dummy "
            text run at (538,60) width 239: "text dummy text dummy text dummy"
            text run at (0,78) width 243: "text dummy text dummy text dummy "
            text run at (242,78) width 486: "text dummy text dummy text dummy text dummy text dummy text dummy "
            text run at (727,78) width 25: "text"
            text run at (0,96) width 458: "dummy text dummy text dummy text dummy text dummy text dummy "
            text run at (457,96) width 320: "text dummy text dummy text dummy text dummy"
            text run at (0,114) width 162: "text dummy text dummy "
            text run at (161,114) width 487: "text dummy text dummy text dummy text dummy text dummy text dummy "
            text run at (647,114) width 105: "text dummy text"
            text run at (0,132) width 377: "dummy text dummy text dummy text dummy text dummy "
            text run at (376,132) width 401: "text dummy text dummy text dummy text dummy text dummy"
            text run at (0,150) width 81: "text dummy "
            text run at (80,150) width 487: "text dummy text dummy text dummy text dummy text dummy text dummy "
            text run at (566,150) width 186: "text dummy text dummy text"
            text run at (0,168) width 296: "dummy text dummy text dummy text dummy "
            text run at (295,168) width 482: "text dummy text dummy text dummy text dummy text dummy text dummy"
            text run at (0,186) width 486: "text dummy text dummy text dummy text dummy text dummy text dummy "
            text run at (485,186) width 267: "text dummy text dummy text dummy text"
            text run at (0,204) width 215: "dummy text dummy text dummy "
            text run at (214,204) width 486: "text dummy text dummy text dummy text dummy text dummy text dummy "
            text run at (699,204) width 78: "text dummy"
            text run at (0,222) width 405: "text dummy text dummy text dummy text dummy text dummy "
            text run at (404,222) width 348: "text dummy text dummy text dummy text dummy text"
            text run at (0,240) width 134: "dummy text dummy "
            text run at (133,240) width 430: "text dummy text dummy text dummy text dummy text dummy text"
        LayoutText {#text} at (0,0) size 0x0
