layer at (0,0) size 800x600
  LayoutView at (0,0) size 800x600
layer at (0,0) size 800x94
  LayoutBlockFlow {HTML} at (0,0) size 800x94
    LayoutBlockFlow {BODY} at (8,16) size 784x70
      LayoutBlockFlow {P} at (0,0) size 784x18
        LayoutText {#text} at (0,0) size 298x18
          text run at (0,0) width 298: "The following two lines should look the same:"
      LayoutBlockFlow {DIV} at (0,34) size 784x18
        LayoutInline {SPAN} at (0,0) size 6x18
          LayoutInline {<pseudo:before>} at (0,0) size 6x18
            LayoutCounter at (0,0) size 6x18
              text run at (0,0) width 6: "I"
        LayoutText {#text} at (5,0) size 5x18
          text run at (5,0) width 5: " "
        LayoutInline {SPAN} at (0,0) size 11x18
          LayoutInline {<pseudo:before>} at (0,0) size 11x18
            LayoutCounter at (9,0) size 11x18
              text run at (9,0) width 11: "II"
        LayoutText {#text} at (19,0) size 5x18
          text run at (19,0) width 5: " "
        LayoutInline {SPAN} at (0,0) size 17x18
          LayoutInline {<pseudo:before>} at (0,0) size 17x18
            LayoutCounter at (23,0) size 17x18
              text run at (23,0) width 17: "III"
        LayoutText {#text} at (39,0) size 5x18
          text run at (39,0) width 5: " "
        LayoutInline {SPAN} at (0,0) size 18x18
          LayoutInline {<pseudo:before>} at (0,0) size 18x18
            LayoutCounter at (43,0) size 18x18
              text run at (43,0) width 18: "IV"
        LayoutText {#text} at (60,0) size 5x18
          text run at (60,0) width 5: " "
        LayoutInline {SPAN} at (0,0) size 13x18
          LayoutInline {<pseudo:before>} at (0,0) size 13x18
            LayoutCounter at (64,0) size 13x18
              text run at (64,0) width 13: "V"
        LayoutText {#text} at (76,0) size 5x18
          text run at (76,0) width 5: " "
        LayoutInline {SPAN} at (0,0) size 18x18
          LayoutInline {<pseudo:before>} at (0,0) size 18x18
            LayoutCounter at (80,0) size 18x18
              text run at (80,0) width 18: "VI"
        LayoutText {#text} at (97,0) size 5x18
          text run at (97,0) width 5: " "
        LayoutInline {SPAN} at (0,0) size 23x18
          LayoutInline {<pseudo:before>} at (0,0) size 23x18
            LayoutCounter at (101,0) size 23x18
              text run at (101,0) width 23: "VII"
        LayoutText {#text} at (123,0) size 5x18
          text run at (123,0) width 5: " "
        LayoutInline {SPAN} at (0,0) size 29x18
          LayoutInline {<pseudo:before>} at (0,0) size 29x18
            LayoutCounter at (127,0) size 29x18
              text run at (127,0) width 29: "VIII"
        LayoutText {#text} at (155,0) size 5x18
          text run at (155,0) width 5: " "
        LayoutInline {SPAN} at (0,0) size 17x18
          LayoutInline {<pseudo:before>} at (0,0) size 17x18
            LayoutCounter at (159,0) size 17x18
              text run at (159,0) width 17: "IX"
        LayoutText {#text} at (175,0) size 5x18
          text run at (175,0) width 5: " "
        LayoutInline {SPAN} at (0,0) size 13x18
          LayoutInline {<pseudo:before>} at (0,0) size 13x18
            LayoutCounter at (179,0) size 13x18
              text run at (179,0) width 13: "X"
        LayoutText {#text} at (191,0) size 5x18
          text run at (191,0) width 5: " "
        LayoutInline {SPAN} at (0,0) size 18x18
          LayoutInline {<pseudo:before>} at (0,0) size 18x18
            LayoutCounter at (195,0) size 18x18
              text run at (195,0) width 18: "XI"
        LayoutText {#text} at (212,0) size 5x18
          text run at (212,0) width 5: " "
        LayoutInline {SPAN} at (0,0) size 23x18
          LayoutInline {<pseudo:before>} at (0,0) size 23x18
            LayoutCounter at (216,0) size 23x18
              text run at (216,0) width 23: "XII"
        LayoutText {#text} at (238,0) size 5x18
          text run at (238,0) width 5: " "
        LayoutInline {SPAN} at (0,0) size 39x18
          LayoutInline {<pseudo:before>} at (0,0) size 39x18
            LayoutCounter at (242,0) size 39x18
              text run at (242,0) width 39: "XLIX"
        LayoutText {#text} at (280,0) size 5x18
          text run at (280,0) width 5: " "
        LayoutInline {SPAN} at (0,0) size 11x18
          LayoutInline {<pseudo:before>} at (0,0) size 11x18
            LayoutCounter at (284,0) size 11x18
              text run at (284,0) width 11: "L"
        LayoutText {#text} at (294,0) size 5x18
          text run at (294,0) width 5: " "
        LayoutInline {SPAN} at (0,0) size 94x18
          LayoutInline {<pseudo:before>} at (0,0) size 94x18
            LayoutCounter at (298,0) size 94x18
              text run at (298,0) width 94: "CCCLXXXIX"
        LayoutText {#text} at (391,0) size 5x18
          text run at (391,0) width 5: " "
        LayoutInline {SPAN} at (0,0) size 56x18
          LayoutInline {<pseudo:before>} at (0,0) size 56x18
            LayoutCounter at (395,0) size 56x18
              text run at (395,0) width 56: "CCCXC"
        LayoutText {#text} at (450,0) size 5x18
          text run at (450,0) width 5: " "
        LayoutInline {SPAN} at (0,0) size 127x18
          LayoutInline {<pseudo:before>} at (0,0) size 127x18
            LayoutCounter at (454,0) size 127x18
              text run at (454,0) width 127: "MMMCDLXXXIX"
        LayoutText {#text} at (580,0) size 5x18
          text run at (580,0) width 5: " "
        LayoutInline {SPAN} at (0,0) size 88x18
          LayoutInline {<pseudo:before>} at (0,0) size 88x18
            LayoutCounter at (584,0) size 88x18
              text run at (584,0) width 88: "MMMCDXC"
        LayoutText {#text} at (671,0) size 5x18
          text run at (671,0) width 5: " "
        LayoutInline {SPAN} at (0,0) size 93x18
          LayoutInline {<pseudo:before>} at (0,0) size 93x18
            LayoutCounter at (675,0) size 93x18
              text run at (675,0) width 93: "MMMCDXCI"
        LayoutText {#text} at (0,0) size 0x0
      LayoutBlockFlow {DIV} at (0,52) size 784x18
        LayoutText {#text} at (0,0) size 768x18
          text run at (0,0) width 10: "I "
          text run at (9,0) width 15: "II "
          text run at (23,0) width 21: "III "
          text run at (43,0) width 22: "IV "
          text run at (64,0) width 17: "V "
          text run at (80,0) width 22: "VI "
          text run at (101,0) width 27: "VII "
          text run at (127,0) width 33: "VIII "
          text run at (159,0) width 21: "IX "
          text run at (179,0) width 17: "X "
          text run at (195,0) width 22: "XI "
          text run at (216,0) width 27: "XII "
          text run at (242,0) width 43: "XLIX "
          text run at (284,0) width 15: "L "
          text run at (298,0) width 98: "CCCLXXXIX "
          text run at (395,0) width 60: "CCCXC "
          text run at (454,0) width 131: "MMMCDLXXXIX "
          text run at (584,0) width 92: "MMMCDXC "
          text run at (675,0) width 93: "MMMCDXCI"
