layer at (0,0) size 480x360
  LayoutView at (0,0) size 480x360
layer at (0,0) size 480x360
  LayoutSVGRoot {svg} at (0,0) size 480x360
    LayoutSVGContainer {g} at (10,8) size 404x322
      LayoutSVGHiddenContainer {defs} at (0,0) size 0x0
      LayoutSVGHiddenContainer {defs} at (0,0) size 0x0
        LayoutSVGContainer {g} at (0,0) size 4x4
          LayoutSVGPath {line} at (0,0) size 0x0 [stroke={[type=SOLID] [color=#FF0000]}] [fill={[type=SOLID] [color=#000000]}] [x1=0.00] [y1=0.00] [x2=0.00] [y2=-15.00]
          LayoutSVGRect {rect} at (0,0) size 4x4 [fill={[type=SOLID] [color=#000000]}] [x=-4.00] [y=-4.00] [width=8.00] [height=8.00]
      LayoutSVGContainer {g} at (10,55) size 42x259 [transform={m=((1.00,0.00)(0.00,1.00)) t=(10.00,40.00)}]
        LayoutSVGText {text} at (0,15) size 42x19 contains 1 chunk(s)
          LayoutSVGInlineText {#text} at (0,0) size 42x19
            chunk 1 text run 1 at (0.00,30.00) startOffset 0 endOffset 7 width 42.00: "1.x 1.y"
        LayoutSVGText {text} at (0,45) size 42x19 contains 1 chunk(s)
          LayoutSVGInlineText {#text} at (0,0) size 42x19
            chunk 1 text run 1 at (0.00,60.00) startOffset 0 endOffset 7 width 42.00: "4.x 1.y"
        LayoutSVGText {text} at (0,75) size 42x19 contains 1 chunk(s)
          LayoutSVGInlineText {#text} at (0,0) size 42x19
            chunk 1 text run 1 at (0.00,90.00) startOffset 0 endOffset 7 width 42.00: "2.x 1.y"
        LayoutSVGText {text} at (0,105) size 42x19 contains 1 chunk(s)
          LayoutSVGInlineText {#text} at (0,0) size 42x19
            chunk 1 text run 1 at (0.00,120.00) startOffset 0 endOffset 7 width 42.00: "1.x 4.y"
        LayoutSVGText {text} at (0,135) size 42x19 contains 1 chunk(s)
          LayoutSVGInlineText {#text} at (0,0) size 42x19
            chunk 1 text run 1 at (0.00,150.00) startOffset 0 endOffset 7 width 42.00: "4.x 4.y"
        LayoutSVGText {text} at (0,165) size 42x19 contains 1 chunk(s)
          LayoutSVGInlineText {#text} at (0,0) size 42x19
            chunk 1 text run 1 at (0.00,180.00) startOffset 0 endOffset 7 width 42.00: "2.x 4.y"
        LayoutSVGText {text} at (0,195) size 42x19 contains 1 chunk(s)
          LayoutSVGInlineText {#text} at (0,0) size 42x19
            chunk 1 text run 1 at (0.00,210.00) startOffset 0 endOffset 7 width 42.00: "1.x 2.y"
        LayoutSVGText {text} at (0,225) size 42x19 contains 1 chunk(s)
          LayoutSVGInlineText {#text} at (0,0) size 42x19
            chunk 1 text run 1 at (0.00,240.00) startOffset 0 endOffset 7 width 42.00: "4.x 2.y"
        LayoutSVGText {text} at (0,255) size 42x19 contains 1 chunk(s)
          LayoutSVGInlineText {#text} at (0,0) size 42x19
            chunk 1 text run 1 at (0.00,270.00) startOffset 0 endOffset 7 width 42.00: "2.x 2.y"
      LayoutSVGContainer {g} at (115,8) size 140x322 [transform={m=((1.00,0.00)(0.00,1.00)) t=(150.00,40.00)}]
        LayoutSVGText {text} at (-35,-32) size 70x19 contains 1 chunk(s)
          LayoutSVGInlineText {#text} at (0,0) size 69x19
            chunk 1 (middle anchor) text run 1 at (-34.50,-17.00) startOffset 0 endOffset 11 width 69.00: "text-anchor"
        LayoutSVGText {text} at (-13,-18) size 26x19 contains 1 chunk(s)
          LayoutSVGInlineText {#text} at (0,0) size 26x19
            chunk 1 (middle anchor) text run 1 at (-13.00,-3.00) startOffset 0 endOffset 5 width 26.00: "start"
        LayoutSVGPath {line} at (149,50) size 2x280 [stroke={[type=SOLID] [color=#FF0000]}] [fill={[type=SOLID] [color=#000000]}] [x1=0.00] [y1=10.00] [x2=0.00] [y2=290.00]
        LayoutSVGContainer {g} at (146,55) size 109x254
          LayoutSVGContainer {use} at (146,55) size 8x19 [transform={m=((1.00,0.00)(0.00,1.00)) t=(0.00,30.00)}]
            LayoutSVGContainer {g} at (146,55) size 8x19
              LayoutSVGPath {line} at (149,55) size 2x15 [stroke={[type=SOLID] [color=#FF0000]}] [fill={[type=SOLID] [color=#8888FF]}] [x1=0.00] [y1=0.00] [x2=0.00] [y2=-15.00]
              LayoutSVGRect {rect} at (146,66) size 8x8 [fill={[type=SOLID] [color=#8888FF]}] [x=-4.00] [y=-4.00] [width=8.00] [height=8.00]
          LayoutSVGText {text} at (0,20) size 60x13 contains 1 chunk(s)
            LayoutSVGInlineText {#text} at (0,0) size 60x12
              chunk 1 text run 1 at (0.00,30.00) startOffset 0 endOffset 4 width 60.00: "1234"
          LayoutSVGContainer {use} at (156,85) size 8x19 [transform={m=((1.00,0.00)(0.00,1.00)) t=(10.00,60.00)}]
            LayoutSVGContainer {g} at (156,85) size 8x19
              LayoutSVGPath {line} at (159,85) size 2x15 [stroke={[type=SOLID] [color=#FF0000]}] [fill={[type=SOLID] [color=#8888FF]}] [x1=0.00] [y1=0.00] [x2=0.00] [y2=-15.00]
              LayoutSVGRect {rect} at (156,96) size 8x8 [fill={[type=SOLID] [color=#8888FF]}] [x=-4.00] [y=-4.00] [width=8.00] [height=8.00]
          LayoutSVGContainer {use} at (166,85) size 8x19 [transform={m=((1.00,0.00)(0.00,1.00)) t=(20.00,60.00)}]
            LayoutSVGContainer {g} at (166,85) size 8x19
              LayoutSVGPath {line} at (169,85) size 2x15 [stroke={[type=SOLID] [color=#FF0000]}] [fill={[type=SOLID] [color=#8888FF]}] [x1=0.00] [y1=0.00] [x2=0.00] [y2=-15.00]
              LayoutSVGRect {rect} at (166,96) size 8x8 [fill={[type=SOLID] [color=#8888FF]}] [x=-4.00] [y=-4.00] [width=8.00] [height=8.00]
          LayoutSVGContainer {use} at (176,85) size 8x19 [transform={m=((1.00,0.00)(0.00,1.00)) t=(30.00,60.00)}]
            LayoutSVGContainer {g} at (176,85) size 8x19
              LayoutSVGPath {line} at (179,85) size 2x15 [stroke={[type=SOLID] [color=#FF0000]}] [fill={[type=SOLID] [color=#8888FF]}] [x1=0.00] [y1=0.00] [x2=0.00] [y2=-15.00]
              LayoutSVGRect {rect} at (176,96) size 8x8 [fill={[type=SOLID] [color=#8888FF]}] [x=-4.00] [y=-4.00] [width=8.00] [height=8.00]
          LayoutSVGContainer {use} at (186,85) size 8x19 [transform={m=((1.00,0.00)(0.00,1.00)) t=(40.00,60.00)}]
            LayoutSVGContainer {g} at (186,85) size 8x19
              LayoutSVGPath {line} at (189,85) size 2x15 [stroke={[type=SOLID] [color=#FF0000]}] [fill={[type=SOLID] [color=#8888FF]}] [x1=0.00] [y1=0.00] [x2=0.00] [y2=-15.00]
              LayoutSVGRect {rect} at (186,96) size 8x8 [fill={[type=SOLID] [color=#8888FF]}] [x=-4.00] [y=-4.00] [width=8.00] [height=8.00]
          LayoutSVGText {text} at (10,50) size 45x13 contains 1 chunk(s)
            LayoutSVGInlineText {#text} at (0,0) size 45x12
              chunk 1 text run 1 at (10.00,60.00) startOffset 0 endOffset 1 width 15.00: "1"
              chunk 1 text run 1 at (20.00,60.00) startOffset 0 endOffset 1 width 15.00: "2"
              chunk 1 text run 1 at (30.00,60.00) startOffset 0 endOffset 1 width 15.00: "3"
              chunk 1 text run 1 at (40.00,60.00) startOffset 0 endOffset 1 width 15.00: "4"
          LayoutSVGContainer {use} at (156,115) size 8x19 [transform={m=((1.00,0.00)(0.00,1.00)) t=(10.00,90.00)}]
            LayoutSVGContainer {g} at (156,115) size 8x19
              LayoutSVGPath {line} at (159,115) size 2x15 [stroke={[type=SOLID] [color=#FF0000]}] [fill={[type=SOLID] [color=#8888FF]}] [x1=0.00] [y1=0.00] [x2=0.00] [y2=-15.00]
              LayoutSVGRect {rect} at (156,126) size 8x8 [fill={[type=SOLID] [color=#8888FF]}] [x=-4.00] [y=-4.00] [width=8.00] [height=8.00]
          LayoutSVGContainer {use} at (206,115) size 8x19 [transform={m=((1.00,0.00)(0.00,1.00)) t=(60.00,90.00)}]
            LayoutSVGContainer {g} at (206,115) size 8x19
              LayoutSVGPath {line} at (209,115) size 2x15 [stroke={[type=SOLID] [color=#FF0000]}] [fill={[type=SOLID] [color=#8888FF]}] [x1=0.00] [y1=0.00] [x2=0.00] [y2=-15.00]
              LayoutSVGRect {rect} at (206,126) size 8x8 [fill={[type=SOLID] [color=#8888FF]}] [x=-4.00] [y=-4.00] [width=8.00] [height=8.00]
          LayoutSVGText {text} at (10,80) size 95x13 contains 1 chunk(s)
            LayoutSVGInlineText {#text} at (0,0) size 95x12
              chunk 1 text run 1 at (10.00,90.00) startOffset 0 endOffset 1 width 15.00: "1"
              chunk 1 text run 1 at (60.00,90.00) startOffset 0 endOffset 3 width 45.00: "234"
          LayoutSVGContainer {g} at (146,135) size 64x39 [transform={m=((1.00,0.00)(0.00,1.00)) t=(0.00,120.00)}]
            LayoutSVGContainer {use} at (146,135) size 8x19 [transform={m=((1.00,0.00)(0.00,1.00)) t=(0.00,-10.00)}]
              LayoutSVGContainer {g} at (146,135) size 8x19
                LayoutSVGPath {line} at (149,135) size 2x15 [stroke={[type=SOLID] [color=#FF0000]}] [fill={[type=SOLID] [color=#8888FF]}] [x1=0.00] [y1=0.00] [x2=0.00] [y2=-15.00]
                LayoutSVGRect {rect} at (146,146) size 8x8 [fill={[type=SOLID] [color=#8888FF]}] [x=-4.00] [y=-4.00] [width=8.00] [height=8.00]
            LayoutSVGContainer {use} at (161,140) size 8x19 [transform={m=((1.00,0.00)(0.00,1.00)) t=(15.00,-5.00)}]
              LayoutSVGContainer {g} at (161,140) size 8x19
                LayoutSVGPath {line} at (164,140) size 2x15 [stroke={[type=SOLID] [color=#FF0000]}] [fill={[type=SOLID] [color=#8888FF]}] [x1=0.00] [y1=0.00] [x2=0.00] [y2=-15.00]
                LayoutSVGRect {rect} at (161,151) size 8x8 [fill={[type=SOLID] [color=#8888FF]}] [x=-4.00] [y=-4.00] [width=8.00] [height=8.00]
            LayoutSVGContainer {use} at (176,150) size 8x19 [transform={m=((1.00,0.00)(0.00,1.00)) t=(30.00,5.00)}]
              LayoutSVGContainer {g} at (176,150) size 8x19
                LayoutSVGPath {line} at (179,150) size 2x15 [stroke={[type=SOLID] [color=#FF0000]}] [fill={[type=SOLID] [color=#8888FF]}] [x1=0.00] [y1=0.00] [x2=0.00] [y2=-15.00]
                LayoutSVGRect {rect} at (176,161) size 8x8 [fill={[type=SOLID] [color=#8888FF]}] [x=-4.00] [y=-4.00] [width=8.00] [height=8.00]
            LayoutSVGContainer {use} at (191,155) size 8x19 [transform={m=((1.00,0.00)(0.00,1.00)) t=(45.00,10.00)}]
              LayoutSVGContainer {g} at (191,155) size 8x19
                LayoutSVGPath {line} at (194,155) size 2x15 [stroke={[type=SOLID] [color=#FF0000]}] [fill={[type=SOLID] [color=#8888FF]}] [x1=0.00] [y1=0.00] [x2=0.00] [y2=-15.00]
                LayoutSVGRect {rect} at (191,166) size 8x8 [fill={[type=SOLID] [color=#8888FF]}] [x=-4.00] [y=-4.00] [width=8.00] [height=8.00]
            LayoutSVGText {text} at (0,-20) size 60x33 contains 1 chunk(s)
              LayoutSVGInlineText {#text} at (0,0) size 60x32
                chunk 1 text run 1 at (0.00,-10.00) startOffset 0 endOffset 1 width 15.00: "1"
                chunk 1 text run 1 at (15.00,-5.00) startOffset 0 endOffset 1 width 15.00: "2"
                chunk 1 text run 1 at (30.00,5.00) startOffset 0 endOffset 1 width 15.00: "3"
                chunk 1 text run 1 at (45.00,10.00) startOffset 0 endOffset 1 width 15.00: "4"
          LayoutSVGContainer {g} at (156,165) size 49x39 [transform={m=((1.00,0.00)(0.00,1.00)) t=(0.00,150.00)}]
            LayoutSVGContainer {use} at (156,165) size 8x19 [transform={m=((1.00,0.00)(0.00,1.00)) t=(10.00,-10.00)}]
              LayoutSVGContainer {g} at (156,165) size 8x19
                LayoutSVGPath {line} at (159,165) size 2x15 [stroke={[type=SOLID] [color=#FF0000]}] [fill={[type=SOLID] [color=#8888FF]}] [x1=0.00] [y1=0.00] [x2=0.00] [y2=-15.00]
                LayoutSVGRect {rect} at (156,176) size 8x8 [fill={[type=SOLID] [color=#8888FF]}] [x=-4.00] [y=-4.00] [width=8.00] [height=8.00]
            LayoutSVGContainer {use} at (166,170) size 8x19 [transform={m=((1.00,0.00)(0.00,1.00)) t=(20.00,-5.00)}]
              LayoutSVGContainer {g} at (166,170) size 8x19
                LayoutSVGPath {line} at (169,170) size 2x15 [stroke={[type=SOLID] [color=#FF0000]}] [fill={[type=SOLID] [color=#8888FF]}] [x1=0.00] [y1=0.00] [x2=0.00] [y2=-15.00]
                LayoutSVGRect {rect} at (166,181) size 8x8 [fill={[type=SOLID] [color=#8888FF]}] [x=-4.00] [y=-4.00] [width=8.00] [height=8.00]
            LayoutSVGContainer {use} at (176,180) size 8x19 [transform={m=((1.00,0.00)(0.00,1.00)) t=(30.00,5.00)}]
              LayoutSVGContainer {g} at (176,180) size 8x19
                LayoutSVGPath {line} at (179,180) size 2x15 [stroke={[type=SOLID] [color=#FF0000]}] [fill={[type=SOLID] [color=#8888FF]}] [x1=0.00] [y1=0.00] [x2=0.00] [y2=-15.00]
                LayoutSVGRect {rect} at (176,191) size 8x8 [fill={[type=SOLID] [color=#8888FF]}] [x=-4.00] [y=-4.00] [width=8.00] [height=8.00]
            LayoutSVGContainer {use} at (186,185) size 8x19 [transform={m=((1.00,0.00)(0.00,1.00)) t=(40.00,10.00)}]
              LayoutSVGContainer {g} at (186,185) size 8x19
                LayoutSVGPath {line} at (189,185) size 2x15 [stroke={[type=SOLID] [color=#FF0000]}] [fill={[type=SOLID] [color=#8888FF]}] [x1=0.00] [y1=0.00] [x2=0.00] [y2=-15.00]
                LayoutSVGRect {rect} at (186,196) size 8x8 [fill={[type=SOLID] [color=#8888FF]}] [x=-4.00] [y=-4.00] [width=8.00] [height=8.00]
            LayoutSVGText {text} at (10,-20) size 45x33 contains 1 chunk(s)
              LayoutSVGInlineText {#text} at (0,0) size 45x32
                chunk 1 text run 1 at (10.00,-10.00) startOffset 0 endOffset 1 width 15.00: "1"
                chunk 1 text run 1 at (20.00,-5.00) startOffset 0 endOffset 1 width 15.00: "2"
                chunk 1 text run 1 at (30.00,5.00) startOffset 0 endOffset 1 width 15.00: "3"
                chunk 1 text run 1 at (40.00,10.00) startOffset 0 endOffset 1 width 15.00: "4"
          LayoutSVGContainer {g} at (156,195) size 59x39 [transform={m=((1.00,0.00)(0.00,1.00)) t=(0.00,180.00)}]
            LayoutSVGContainer {use} at (156,195) size 8x19 [transform={m=((1.00,0.00)(0.00,1.00)) t=(10.00,-10.00)}]
              LayoutSVGContainer {g} at (156,195) size 8x19
                LayoutSVGPath {line} at (159,195) size 2x15 [stroke={[type=SOLID] [color=#FF0000]}] [fill={[type=SOLID] [color=#8888FF]}] [x1=0.00] [y1=0.00] [x2=0.00] [y2=-15.00]
                LayoutSVGRect {rect} at (156,206) size 8x8 [fill={[type=SOLID] [color=#8888FF]}] [x=-4.00] [y=-4.00] [width=8.00] [height=8.00]
            LayoutSVGContainer {use} at (166,200) size 8x19 [transform={m=((1.00,0.00)(0.00,1.00)) t=(20.00,-5.00)}]
              LayoutSVGContainer {g} at (166,200) size 8x19
                LayoutSVGPath {line} at (169,200) size 2x15 [stroke={[type=SOLID] [color=#FF0000]}] [fill={[type=SOLID] [color=#8888FF]}] [x1=0.00] [y1=0.00] [x2=0.00] [y2=-15.00]
                LayoutSVGRect {rect} at (166,211) size 8x8 [fill={[type=SOLID] [color=#8888FF]}] [x=-4.00] [y=-4.00] [width=8.00] [height=8.00]
            LayoutSVGContainer {use} at (181,210) size 8x19 [transform={m=((1.00,0.00)(0.00,1.00)) t=(35.00,5.00)}]
              LayoutSVGContainer {g} at (181,210) size 8x19
                LayoutSVGPath {line} at (184,210) size 2x15 [stroke={[type=SOLID] [color=#FF0000]}] [fill={[type=SOLID] [color=#8888FF]}] [x1=0.00] [y1=0.00] [x2=0.00] [y2=-15.00]
                LayoutSVGRect {rect} at (181,221) size 8x8 [fill={[type=SOLID] [color=#8888FF]}] [x=-4.00] [y=-4.00] [width=8.00] [height=8.00]
            LayoutSVGContainer {use} at (196,215) size 8x19 [transform={m=((1.00,0.00)(0.00,1.00)) t=(50.00,10.00)}]
              LayoutSVGContainer {g} at (196,215) size 8x19
                LayoutSVGPath {line} at (199,215) size 2x15 [stroke={[type=SOLID] [color=#FF0000]}] [fill={[type=SOLID] [color=#8888FF]}] [x1=0.00] [y1=0.00] [x2=0.00] [y2=-15.00]
                LayoutSVGRect {rect} at (196,226) size 8x8 [fill={[type=SOLID] [color=#8888FF]}] [x=-4.00] [y=-4.00] [width=8.00] [height=8.00]
            LayoutSVGText {text} at (10,-20) size 55x33 contains 1 chunk(s)
              LayoutSVGInlineText {#text} at (0,0) size 55x32
                chunk 1 text run 1 at (10.00,-10.00) startOffset 0 endOffset 1 width 15.00: "1"
                chunk 1 text run 1 at (20.00,-5.00) startOffset 0 endOffset 1 width 15.00: "2"
                chunk 1 text run 1 at (35.00,5.00) startOffset 0 endOffset 1 width 15.00: "3"
                chunk 1 text run 1 at (50.00,10.00) startOffset 0 endOffset 1 width 15.00: "4"
          LayoutSVGContainer {g} at (146,225) size 64x34 [transform={m=((1.00,0.00)(0.00,1.00)) t=(0.00,210.00)}]
            LayoutSVGContainer {use} at (146,225) size 8x19 [transform={m=((1.00,0.00)(0.00,1.00)) t=(0.00,-10.00)}]
              LayoutSVGContainer {g} at (146,225) size 8x19
                LayoutSVGPath {line} at (149,225) size 2x15 [stroke={[type=SOLID] [color=#FF0000]}] [fill={[type=SOLID] [color=#8888FF]}] [x1=0.00] [y1=0.00] [x2=0.00] [y2=-15.00]
                LayoutSVGRect {rect} at (146,236) size 8x8 [fill={[type=SOLID] [color=#8888FF]}] [x=-4.00] [y=-4.00] [width=8.00] [height=8.00]
            LayoutSVGContainer {use} at (161,240) size 8x19 [transform={m=((1.00,0.00)(0.00,1.00)) t=(15.00,5.00)}]
              LayoutSVGContainer {g} at (161,240) size 8x19
                LayoutSVGPath {line} at (164,240) size 2x15 [stroke={[type=SOLID] [color=#FF0000]}] [fill={[type=SOLID] [color=#8888FF]}] [x1=0.00] [y1=0.00] [x2=0.00] [y2=-15.00]
                LayoutSVGRect {rect} at (161,251) size 8x8 [fill={[type=SOLID] [color=#8888FF]}] [x=-4.00] [y=-4.00] [width=8.00] [height=8.00]
            LayoutSVGText {text} at (0,-20) size 60x28 contains 1 chunk(s)
              LayoutSVGInlineText {#text} at (0,0) size 60x27
                chunk 1 text run 1 at (0.00,-10.00) startOffset 0 endOffset 1 width 15.00: "1"
                chunk 1 text run 1 at (15.00,5.00) startOffset 0 endOffset 3 width 45.00: "234"
          LayoutSVGContainer {g} at (156,255) size 49x24 [transform={m=((1.00,0.00)(0.00,1.00)) t=(0.00,240.00)}]
            LayoutSVGContainer {use} at (156,255) size 8x19 [transform={m=((1.00,0.00)(0.00,1.00)) t=(10.00,-10.00)}]
              LayoutSVGContainer {g} at (156,255) size 8x19
                LayoutSVGPath {line} at (159,255) size 2x15 [stroke={[type=SOLID] [color=#FF0000]}] [fill={[type=SOLID] [color=#8888FF]}] [x1=0.00] [y1=0.00] [x2=0.00] [y2=-15.00]
                LayoutSVGRect {rect} at (156,266) size 8x8 [fill={[type=SOLID] [color=#8888FF]}] [x=-4.00] [y=-4.00] [width=8.00] [height=8.00]
            LayoutSVGContainer {use} at (166,260) size 8x19 [transform={m=((1.00,0.00)(0.00,1.00)) t=(20.00,-5.00)}]
              LayoutSVGContainer {g} at (166,260) size 8x19
                LayoutSVGPath {line} at (169,260) size 2x15 [stroke={[type=SOLID] [color=#FF0000]}] [fill={[type=SOLID] [color=#8888FF]}] [x1=0.00] [y1=0.00] [x2=0.00] [y2=-15.00]
                LayoutSVGRect {rect} at (166,271) size 8x8 [fill={[type=SOLID] [color=#8888FF]}] [x=-4.00] [y=-4.00] [width=8.00] [height=8.00]
            LayoutSVGContainer {use} at (176,260) size 8x19 [transform={m=((1.00,0.00)(0.00,1.00)) t=(30.00,-5.00)}]
              LayoutSVGContainer {g} at (176,260) size 8x19
                LayoutSVGPath {line} at (179,260) size 2x15 [stroke={[type=SOLID] [color=#FF0000]}] [fill={[type=SOLID] [color=#8888FF]}] [x1=0.00] [y1=0.00] [x2=0.00] [y2=-15.00]
                LayoutSVGRect {rect} at (176,271) size 8x8 [fill={[type=SOLID] [color=#8888FF]}] [x=-4.00] [y=-4.00] [width=8.00] [height=8.00]
            LayoutSVGContainer {use} at (186,260) size 8x19 [transform={m=((1.00,0.00)(0.00,1.00)) t=(40.00,-5.00)}]
              LayoutSVGContainer {g} at (186,260) size 8x19
                LayoutSVGPath {line} at (189,260) size 2x15 [stroke={[type=SOLID] [color=#FF0000]}] [fill={[type=SOLID] [color=#8888FF]}] [x1=0.00] [y1=0.00] [x2=0.00] [y2=-15.00]
                LayoutSVGRect {rect} at (186,271) size 8x8 [fill={[type=SOLID] [color=#8888FF]}] [x=-4.00] [y=-4.00] [width=8.00] [height=8.00]
            LayoutSVGText {text} at (10,-20) size 45x18 contains 1 chunk(s)
              LayoutSVGInlineText {#text} at (0,0) size 45x17
                chunk 1 text run 1 at (10.00,-10.00) startOffset 0 endOffset 1 width 15.00: "1"
                chunk 1 text run 1 at (20.00,-5.00) startOffset 0 endOffset 1 width 15.00: "2"
                chunk 1 text run 1 at (30.00,-5.00) startOffset 0 endOffset 1 width 15.00: "3"
                chunk 1 text run 1 at (40.00,-5.00) startOffset 0 endOffset 1 width 15.00: "4"
          LayoutSVGContainer {g} at (156,285) size 99x24 [transform={m=((1.00,0.00)(0.00,1.00)) t=(0.00,270.00)}]
            LayoutSVGContainer {use} at (156,285) size 8x19 [transform={m=((1.00,0.00)(0.00,1.00)) t=(10.00,-10.00)}]
              LayoutSVGContainer {g} at (156,285) size 8x19
                LayoutSVGPath {line} at (159,285) size 2x15 [stroke={[type=SOLID] [color=#FF0000]}] [fill={[type=SOLID] [color=#8888FF]}] [x1=0.00] [y1=0.00] [x2=0.00] [y2=-15.00]
                LayoutSVGRect {rect} at (156,296) size 8x8 [fill={[type=SOLID] [color=#8888FF]}] [x=-4.00] [y=-4.00] [width=8.00] [height=8.00]
            LayoutSVGContainer {use} at (206,290) size 8x19 [transform={m=((1.00,0.00)(0.00,1.00)) t=(60.00,-5.00)}]
              LayoutSVGContainer {g} at (206,290) size 8x19
                LayoutSVGPath {line} at (209,290) size 2x15 [stroke={[type=SOLID] [color=#FF0000]}] [fill={[type=SOLID] [color=#8888FF]}] [x1=0.00] [y1=0.00] [x2=0.00] [y2=-15.00]
                LayoutSVGRect {rect} at (206,301) size 8x8 [fill={[type=SOLID] [color=#8888FF]}] [x=-4.00] [y=-4.00] [width=8.00] [height=8.00]
            LayoutSVGText {text} at (10,-20) size 95x18 contains 1 chunk(s)
              LayoutSVGInlineText {#text} at (0,0) size 95x17
                chunk 1 text run 1 at (10.00,-10.00) startOffset 0 endOffset 1 width 15.00: "1"
                chunk 1 text run 1 at (60.00,-5.00) startOffset 0 endOffset 3 width 45.00: "234"
      LayoutSVGContainer {g} at (215,8) size 118x322 [transform={m=((1.00,0.00)(0.00,1.00)) t=(250.00,40.00)}]
        LayoutSVGText {text} at (-35,-32) size 70x19 contains 1 chunk(s)
          LayoutSVGInlineText {#text} at (0,0) size 69x19
            chunk 1 (middle anchor) text run 1 at (-34.50,-17.00) startOffset 0 endOffset 11 width 69.00: "text-anchor"
        LayoutSVGText {text} at (-20,-18) size 40x19 contains 1 chunk(s)
          LayoutSVGInlineText {#text} at (0,0) size 40x19
            chunk 1 (middle anchor) text run 1 at (-20.00,-3.00) startOffset 0 endOffset 6 width 40.00: "middle"
        LayoutSVGPath {line} at (249,50) size 2x280 [stroke={[type=SOLID] [color=#FF0000]}] [fill={[type=SOLID] [color=#000000]}] [x1=0.00] [y1=10.00] [x2=0.00] [y2=290.00]
        LayoutSVGContainer {use} at (220,55) size 113x254
          LayoutSVGContainer {g} at (220,55) size 113x254
            LayoutSVGContainer {g} at (246,55) size 8x19 [transform={m=((1.00,0.00)(0.00,1.00)) t=(0.00,30.00)}]
              LayoutSVGContainer {g} at (246,55) size 8x19
                LayoutSVGPath {line} at (249,55) size 2x15 [stroke={[type=SOLID] [color=#FF0000]}] [fill={[type=SOLID] [color=#8888FF]}] [x1=0.00] [y1=0.00] [x2=0.00] [y2=-15.00]
                LayoutSVGRect {rect} at (246,66) size 8x8 [fill={[type=SOLID] [color=#8888FF]}] [x=-4.00] [y=-4.00] [width=8.00] [height=8.00]
            LayoutSVGText {text} at (-30,20) size 60x13 contains 1 chunk(s)
              LayoutSVGInlineText {#text} at (0,0) size 60x12
                chunk 1 (middle anchor) text run 1 at (-30.00,30.00) startOffset 0 endOffset 4 width 60.00: "1234"
            LayoutSVGContainer {g} at (256,85) size 8x19 [transform={m=((1.00,0.00)(0.00,1.00)) t=(10.00,60.00)}]
              LayoutSVGContainer {g} at (256,85) size 8x19
                LayoutSVGPath {line} at (259,85) size 2x15 [stroke={[type=SOLID] [color=#FF0000]}] [fill={[type=SOLID] [color=#8888FF]}] [x1=0.00] [y1=0.00] [x2=0.00] [y2=-15.00]
                LayoutSVGRect {rect} at (256,96) size 8x8 [fill={[type=SOLID] [color=#8888FF]}] [x=-4.00] [y=-4.00] [width=8.00] [height=8.00]
            LayoutSVGContainer {g} at (266,85) size 8x19 [transform={m=((1.00,0.00)(0.00,1.00)) t=(20.00,60.00)}]
              LayoutSVGContainer {g} at (266,85) size 8x19
                LayoutSVGPath {line} at (269,85) size 2x15 [stroke={[type=SOLID] [color=#FF0000]}] [fill={[type=SOLID] [color=#8888FF]}] [x1=0.00] [y1=0.00] [x2=0.00] [y2=-15.00]
                LayoutSVGRect {rect} at (266,96) size 8x8 [fill={[type=SOLID] [color=#8888FF]}] [x=-4.00] [y=-4.00] [width=8.00] [height=8.00]
            LayoutSVGContainer {g} at (276,85) size 8x19 [transform={m=((1.00,0.00)(0.00,1.00)) t=(30.00,60.00)}]
              LayoutSVGContainer {g} at (276,85) size 8x19
                LayoutSVGPath {line} at (279,85) size 2x15 [stroke={[type=SOLID] [color=#FF0000]}] [fill={[type=SOLID] [color=#8888FF]}] [x1=0.00] [y1=0.00] [x2=0.00] [y2=-15.00]
                LayoutSVGRect {rect} at (276,96) size 8x8 [fill={[type=SOLID] [color=#8888FF]}] [x=-4.00] [y=-4.00] [width=8.00] [height=8.00]
            LayoutSVGContainer {g} at (286,85) size 8x19 [transform={m=((1.00,0.00)(0.00,1.00)) t=(40.00,60.00)}]
              LayoutSVGContainer {g} at (286,85) size 8x19
                LayoutSVGPath {line} at (289,85) size 2x15 [stroke={[type=SOLID] [color=#FF0000]}] [fill={[type=SOLID] [color=#8888FF]}] [x1=0.00] [y1=0.00] [x2=0.00] [y2=-15.00]
                LayoutSVGRect {rect} at (286,96) size 8x8 [fill={[type=SOLID] [color=#8888FF]}] [x=-4.00] [y=-4.00] [width=8.00] [height=8.00]
            LayoutSVGText {text} at (2,50) size 46x13 contains 1 chunk(s)
              LayoutSVGInlineText {#text} at (0,0) size 45x12
                chunk 1 (middle anchor) text run 1 at (2.50,60.00) startOffset 0 endOffset 1 width 15.00: "1"
                chunk 1 (middle anchor) text run 1 at (12.50,60.00) startOffset 0 endOffset 1 width 15.00: "2"
                chunk 1 (middle anchor) text run 1 at (22.50,60.00) startOffset 0 endOffset 1 width 15.00: "3"
                chunk 1 (middle anchor) text run 1 at (32.50,60.00) startOffset 0 endOffset 1 width 15.00: "4"
            LayoutSVGContainer {g} at (256,115) size 8x19 [transform={m=((1.00,0.00)(0.00,1.00)) t=(10.00,90.00)}]
              LayoutSVGContainer {g} at (256,115) size 8x19
                LayoutSVGPath {line} at (259,115) size 2x15 [stroke={[type=SOLID] [color=#FF0000]}] [fill={[type=SOLID] [color=#8888FF]}] [x1=0.00] [y1=0.00] [x2=0.00] [y2=-15.00]
                LayoutSVGRect {rect} at (256,126) size 8x8 [fill={[type=SOLID] [color=#8888FF]}] [x=-4.00] [y=-4.00] [width=8.00] [height=8.00]
            LayoutSVGContainer {g} at (306,115) size 8x19 [transform={m=((1.00,0.00)(0.00,1.00)) t=(60.00,90.00)}]
              LayoutSVGContainer {g} at (306,115) size 8x19
                LayoutSVGPath {line} at (309,115) size 2x15 [stroke={[type=SOLID] [color=#FF0000]}] [fill={[type=SOLID] [color=#8888FF]}] [x1=0.00] [y1=0.00] [x2=0.00] [y2=-15.00]
                LayoutSVGRect {rect} at (306,126) size 8x8 [fill={[type=SOLID] [color=#8888FF]}] [x=-4.00] [y=-4.00] [width=8.00] [height=8.00]
            LayoutSVGText {text} at (2,80) size 81x13 contains 1 chunk(s)
              LayoutSVGInlineText {#text} at (0,0) size 80x12
                chunk 1 (middle anchor) text run 1 at (2.50,90.00) startOffset 0 endOffset 1 width 15.00: "1"
                chunk 1 (middle anchor) text run 1 at (37.50,90.00) startOffset 0 endOffset 3 width 45.00: "234"
            LayoutSVGContainer {g} at (242,135) size 61x39 [transform={m=((1.00,0.00)(0.00,1.00)) t=(0.00,120.00)}]
              LayoutSVGContainer {g} at (246,135) size 8x19 [transform={m=((1.00,0.00)(0.00,1.00)) t=(0.00,-10.00)}]
                LayoutSVGContainer {g} at (246,135) size 8x19
                  LayoutSVGPath {line} at (249,135) size 2x15 [stroke={[type=SOLID] [color=#FF0000]}] [fill={[type=SOLID] [color=#8888FF]}] [x1=0.00] [y1=0.00] [x2=0.00] [y2=-15.00]
                  LayoutSVGRect {rect} at (246,146) size 8x8 [fill={[type=SOLID] [color=#8888FF]}] [x=-4.00] [y=-4.00] [width=8.00] [height=8.00]
              LayoutSVGContainer {g} at (261,140) size 8x19 [transform={m=((1.00,0.00)(0.00,1.00)) t=(15.00,-5.00)}]
                LayoutSVGContainer {g} at (261,140) size 8x19
                  LayoutSVGPath {line} at (264,140) size 2x15 [stroke={[type=SOLID] [color=#FF0000]}] [fill={[type=SOLID] [color=#8888FF]}] [x1=0.00] [y1=0.00] [x2=0.00] [y2=-15.00]
                  LayoutSVGRect {rect} at (261,151) size 8x8 [fill={[type=SOLID] [color=#8888FF]}] [x=-4.00] [y=-4.00] [width=8.00] [height=8.00]
              LayoutSVGContainer {g} at (276,150) size 8x19 [transform={m=((1.00,0.00)(0.00,1.00)) t=(30.00,5.00)}]
                LayoutSVGContainer {g} at (276,150) size 8x19
                  LayoutSVGPath {line} at (279,150) size 2x15 [stroke={[type=SOLID] [color=#FF0000]}] [fill={[type=SOLID] [color=#8888FF]}] [x1=0.00] [y1=0.00] [x2=0.00] [y2=-15.00]
                  LayoutSVGRect {rect} at (276,161) size 8x8 [fill={[type=SOLID] [color=#8888FF]}] [x=-4.00] [y=-4.00] [width=8.00] [height=8.00]
              LayoutSVGContainer {g} at (291,155) size 8x19 [transform={m=((1.00,0.00)(0.00,1.00)) t=(45.00,10.00)}]
                LayoutSVGContainer {g} at (291,155) size 8x19
                  LayoutSVGPath {line} at (294,155) size 2x15 [stroke={[type=SOLID] [color=#FF0000]}] [fill={[type=SOLID] [color=#8888FF]}] [x1=0.00] [y1=0.00] [x2=0.00] [y2=-15.00]
                  LayoutSVGRect {rect} at (291,166) size 8x8 [fill={[type=SOLID] [color=#8888FF]}] [x=-4.00] [y=-4.00] [width=8.00] [height=8.00]
              LayoutSVGText {text} at (-8,-20) size 61x33 contains 1 chunk(s)
                LayoutSVGInlineText {#text} at (0,0) size 60x32
                  chunk 1 (middle anchor) text run 1 at (-7.50,-10.00) startOffset 0 endOffset 1 width 15.00: "1"
                  chunk 1 (middle anchor) text run 1 at (7.50,-5.00) startOffset 0 endOffset 1 width 15.00: "2"
                  chunk 1 (middle anchor) text run 1 at (22.50,5.00) startOffset 0 endOffset 1 width 15.00: "3"
                  chunk 1 (middle anchor) text run 1 at (37.50,10.00) startOffset 0 endOffset 1 width 15.00: "4"
            LayoutSVGContainer {g} at (252,165) size 46x39 [transform={m=((1.00,0.00)(0.00,1.00)) t=(0.00,150.00)}]
              LayoutSVGContainer {g} at (256,165) size 8x19 [transform={m=((1.00,0.00)(0.00,1.00)) t=(10.00,-10.00)}]
                LayoutSVGContainer {g} at (256,165) size 8x19
                  LayoutSVGPath {line} at (259,165) size 2x15 [stroke={[type=SOLID] [color=#FF0000]}] [fill={[type=SOLID] [color=#8888FF]}] [x1=0.00] [y1=0.00] [x2=0.00] [y2=-15.00]
                  LayoutSVGRect {rect} at (256,176) size 8x8 [fill={[type=SOLID] [color=#8888FF]}] [x=-4.00] [y=-4.00] [width=8.00] [height=8.00]
              LayoutSVGContainer {g} at (266,170) size 8x19 [transform={m=((1.00,0.00)(0.00,1.00)) t=(20.00,-5.00)}]
                LayoutSVGContainer {g} at (266,170) size 8x19
                  LayoutSVGPath {line} at (269,170) size 2x15 [stroke={[type=SOLID] [color=#FF0000]}] [fill={[type=SOLID] [color=#8888FF]}] [x1=0.00] [y1=0.00] [x2=0.00] [y2=-15.00]
                  LayoutSVGRect {rect} at (266,181) size 8x8 [fill={[type=SOLID] [color=#8888FF]}] [x=-4.00] [y=-4.00] [width=8.00] [height=8.00]
              LayoutSVGContainer {g} at (276,180) size 8x19 [transform={m=((1.00,0.00)(0.00,1.00)) t=(30.00,5.00)}]
                LayoutSVGContainer {g} at (276,180) size 8x19
                  LayoutSVGPath {line} at (279,180) size 2x15 [stroke={[type=SOLID] [color=#FF0000]}] [fill={[type=SOLID] [color=#8888FF]}] [x1=0.00] [y1=0.00] [x2=0.00] [y2=-15.00]
                  LayoutSVGRect {rect} at (276,191) size 8x8 [fill={[type=SOLID] [color=#8888FF]}] [x=-4.00] [y=-4.00] [width=8.00] [height=8.00]
              LayoutSVGContainer {g} at (286,185) size 8x19 [transform={m=((1.00,0.00)(0.00,1.00)) t=(40.00,10.00)}]
                LayoutSVGContainer {g} at (286,185) size 8x19
                  LayoutSVGPath {line} at (289,185) size 2x15 [stroke={[type=SOLID] [color=#FF0000]}] [fill={[type=SOLID] [color=#8888FF]}] [x1=0.00] [y1=0.00] [x2=0.00] [y2=-15.00]
                  LayoutSVGRect {rect} at (286,196) size 8x8 [fill={[type=SOLID] [color=#8888FF]}] [x=-4.00] [y=-4.00] [width=8.00] [height=8.00]
              LayoutSVGText {text} at (2,-20) size 46x33 contains 1 chunk(s)
                LayoutSVGInlineText {#text} at (0,0) size 45x32
                  chunk 1 (middle anchor) text run 1 at (2.50,-10.00) startOffset 0 endOffset 1 width 15.00: "1"
                  chunk 1 (middle anchor) text run 1 at (12.50,-5.00) startOffset 0 endOffset 1 width 15.00: "2"
                  chunk 1 (middle anchor) text run 1 at (22.50,5.00) startOffset 0 endOffset 1 width 15.00: "3"
                  chunk 1 (middle anchor) text run 1 at (32.50,10.00) startOffset 0 endOffset 1 width 15.00: "4"
            LayoutSVGContainer {g} at (252,195) size 56x39 [transform={m=((1.00,0.00)(0.00,1.00)) t=(0.00,180.00)}]
              LayoutSVGContainer {g} at (256,195) size 8x19 [transform={m=((1.00,0.00)(0.00,1.00)) t=(10.00,-10.00)}]
                LayoutSVGContainer {g} at (256,195) size 8x19
                  LayoutSVGPath {line} at (259,195) size 2x15 [stroke={[type=SOLID] [color=#FF0000]}] [fill={[type=SOLID] [color=#8888FF]}] [x1=0.00] [y1=0.00] [x2=0.00] [y2=-15.00]
                  LayoutSVGRect {rect} at (256,206) size 8x8 [fill={[type=SOLID] [color=#8888FF]}] [x=-4.00] [y=-4.00] [width=8.00] [height=8.00]
              LayoutSVGContainer {g} at (266,200) size 8x19 [transform={m=((1.00,0.00)(0.00,1.00)) t=(20.00,-5.00)}]
                LayoutSVGContainer {g} at (266,200) size 8x19
                  LayoutSVGPath {line} at (269,200) size 2x15 [stroke={[type=SOLID] [color=#FF0000]}] [fill={[type=SOLID] [color=#8888FF]}] [x1=0.00] [y1=0.00] [x2=0.00] [y2=-15.00]
                  LayoutSVGRect {rect} at (266,211) size 8x8 [fill={[type=SOLID] [color=#8888FF]}] [x=-4.00] [y=-4.00] [width=8.00] [height=8.00]
              LayoutSVGContainer {g} at (281,210) size 8x19 [transform={m=((1.00,0.00)(0.00,1.00)) t=(35.00,5.00)}]
                LayoutSVGContainer {g} at (281,210) size 8x19
                  LayoutSVGPath {line} at (284,210) size 2x15 [stroke={[type=SOLID] [color=#FF0000]}] [fill={[type=SOLID] [color=#8888FF]}] [x1=0.00] [y1=0.00] [x2=0.00] [y2=-15.00]
                  LayoutSVGRect {rect} at (281,221) size 8x8 [fill={[type=SOLID] [color=#8888FF]}] [x=-4.00] [y=-4.00] [width=8.00] [height=8.00]
              LayoutSVGContainer {g} at (296,215) size 8x19 [transform={m=((1.00,0.00)(0.00,1.00)) t=(50.00,10.00)}]
                LayoutSVGContainer {g} at (296,215) size 8x19
                  LayoutSVGPath {line} at (299,215) size 2x15 [stroke={[type=SOLID] [color=#FF0000]}] [fill={[type=SOLID] [color=#8888FF]}] [x1=0.00] [y1=0.00] [x2=0.00] [y2=-15.00]
                  LayoutSVGRect {rect} at (296,226) size 8x8 [fill={[type=SOLID] [color=#8888FF]}] [x=-4.00] [y=-4.00] [width=8.00] [height=8.00]
              LayoutSVGText {text} at (2,-20) size 56x33 contains 1 chunk(s)
                LayoutSVGInlineText {#text} at (0,0) size 55x32
                  chunk 1 (middle anchor) text run 1 at (2.50,-10.00) startOffset 0 endOffset 1 width 15.00: "1"
                  chunk 1 (middle anchor) text run 1 at (12.50,-5.00) startOffset 0 endOffset 1 width 15.00: "2"
                  chunk 1 (middle anchor) text run 1 at (27.50,5.00) startOffset 0 endOffset 1 width 15.00: "3"
                  chunk 1 (middle anchor) text run 1 at (42.50,10.00) startOffset 0 endOffset 1 width 15.00: "4"
            LayoutSVGContainer {g} at (242,225) size 46x34 [transform={m=((1.00,0.00)(0.00,1.00)) t=(0.00,210.00)}]
              LayoutSVGContainer {g} at (246,225) size 8x19 [transform={m=((1.00,0.00)(0.00,1.00)) t=(0.00,-10.00)}]
                LayoutSVGContainer {g} at (246,225) size 8x19
                  LayoutSVGPath {line} at (249,225) size 2x15 [stroke={[type=SOLID] [color=#FF0000]}] [fill={[type=SOLID] [color=#8888FF]}] [x1=0.00] [y1=0.00] [x2=0.00] [y2=-15.00]
                  LayoutSVGRect {rect} at (246,236) size 8x8 [fill={[type=SOLID] [color=#8888FF]}] [x=-4.00] [y=-4.00] [width=8.00] [height=8.00]
              LayoutSVGContainer {g} at (261,240) size 8x19 [transform={m=((1.00,0.00)(0.00,1.00)) t=(15.00,5.00)}]
                LayoutSVGContainer {g} at (261,240) size 8x19
                  LayoutSVGPath {line} at (264,240) size 2x15 [stroke={[type=SOLID] [color=#FF0000]}] [fill={[type=SOLID] [color=#8888FF]}] [x1=0.00] [y1=0.00] [x2=0.00] [y2=-15.00]
                  LayoutSVGRect {rect} at (261,251) size 8x8 [fill={[type=SOLID] [color=#8888FF]}] [x=-4.00] [y=-4.00] [width=8.00] [height=8.00]
              LayoutSVGText {text} at (-8,-20) size 46x28 contains 1 chunk(s)
                LayoutSVGInlineText {#text} at (0,0) size 45x27
                  chunk 1 (middle anchor) text run 1 at (-7.50,-10.00) startOffset 0 endOffset 1 width 15.00: "1"
                  chunk 1 (middle anchor) text run 1 at (-7.50,5.00) startOffset 0 endOffset 3 width 45.00: "234"
            LayoutSVGContainer {g} at (252,255) size 46x24 [transform={m=((1.00,0.00)(0.00,1.00)) t=(0.00,240.00)}]
              LayoutSVGContainer {g} at (256,255) size 8x19 [transform={m=((1.00,0.00)(0.00,1.00)) t=(10.00,-10.00)}]
                LayoutSVGContainer {g} at (256,255) size 8x19
                  LayoutSVGPath {line} at (259,255) size 2x15 [stroke={[type=SOLID] [color=#FF0000]}] [fill={[type=SOLID] [color=#8888FF]}] [x1=0.00] [y1=0.00] [x2=0.00] [y2=-15.00]
                  LayoutSVGRect {rect} at (256,266) size 8x8 [fill={[type=SOLID] [color=#8888FF]}] [x=-4.00] [y=-4.00] [width=8.00] [height=8.00]
              LayoutSVGContainer {g} at (266,260) size 8x19 [transform={m=((1.00,0.00)(0.00,1.00)) t=(20.00,-5.00)}]
                LayoutSVGContainer {g} at (266,260) size 8x19
                  LayoutSVGPath {line} at (269,260) size 2x15 [stroke={[type=SOLID] [color=#FF0000]}] [fill={[type=SOLID] [color=#8888FF]}] [x1=0.00] [y1=0.00] [x2=0.00] [y2=-15.00]
                  LayoutSVGRect {rect} at (266,271) size 8x8 [fill={[type=SOLID] [color=#8888FF]}] [x=-4.00] [y=-4.00] [width=8.00] [height=8.00]
              LayoutSVGContainer {g} at (276,260) size 8x19 [transform={m=((1.00,0.00)(0.00,1.00)) t=(30.00,-5.00)}]
                LayoutSVGContainer {g} at (276,260) size 8x19
                  LayoutSVGPath {line} at (279,260) size 2x15 [stroke={[type=SOLID] [color=#FF0000]}] [fill={[type=SOLID] [color=#8888FF]}] [x1=0.00] [y1=0.00] [x2=0.00] [y2=-15.00]
                  LayoutSVGRect {rect} at (276,271) size 8x8 [fill={[type=SOLID] [color=#8888FF]}] [x=-4.00] [y=-4.00] [width=8.00] [height=8.00]
              LayoutSVGContainer {g} at (286,260) size 8x19 [transform={m=((1.00,0.00)(0.00,1.00)) t=(40.00,-5.00)}]
                LayoutSVGContainer {g} at (286,260) size 8x19
                  LayoutSVGPath {line} at (289,260) size 2x15 [stroke={[type=SOLID] [color=#FF0000]}] [fill={[type=SOLID] [color=#8888FF]}] [x1=0.00] [y1=0.00] [x2=0.00] [y2=-15.00]
                  LayoutSVGRect {rect} at (286,271) size 8x8 [fill={[type=SOLID] [color=#8888FF]}] [x=-4.00] [y=-4.00] [width=8.00] [height=8.00]
              LayoutSVGText {text} at (2,-20) size 46x18 contains 1 chunk(s)
                LayoutSVGInlineText {#text} at (0,0) size 45x17
                  chunk 1 (middle anchor) text run 1 at (2.50,-10.00) startOffset 0 endOffset 1 width 15.00: "1"
                  chunk 1 (middle anchor) text run 1 at (12.50,-5.00) startOffset 0 endOffset 1 width 15.00: "2"
                  chunk 1 (middle anchor) text run 1 at (22.50,-5.00) startOffset 0 endOffset 1 width 15.00: "3"
                  chunk 1 (middle anchor) text run 1 at (32.50,-5.00) startOffset 0 endOffset 1 width 15.00: "4"
            LayoutSVGContainer {g} at (252,285) size 81x24 [transform={m=((1.00,0.00)(0.00,1.00)) t=(0.00,270.00)}]
              LayoutSVGContainer {g} at (256,285) size 8x19 [transform={m=((1.00,0.00)(0.00,1.00)) t=(10.00,-10.00)}]
                LayoutSVGContainer {g} at (256,285) size 8x19
                  LayoutSVGPath {line} at (259,285) size 2x15 [stroke={[type=SOLID] [color=#FF0000]}] [fill={[type=SOLID] [color=#8888FF]}] [x1=0.00] [y1=0.00] [x2=0.00] [y2=-15.00]
                  LayoutSVGRect {rect} at (256,296) size 8x8 [fill={[type=SOLID] [color=#8888FF]}] [x=-4.00] [y=-4.00] [width=8.00] [height=8.00]
              LayoutSVGContainer {g} at (306,290) size 8x19 [transform={m=((1.00,0.00)(0.00,1.00)) t=(60.00,-5.00)}]
                LayoutSVGContainer {g} at (306,290) size 8x19
                  LayoutSVGPath {line} at (309,290) size 2x15 [stroke={[type=SOLID] [color=#FF0000]}] [fill={[type=SOLID] [color=#8888FF]}] [x1=0.00] [y1=0.00] [x2=0.00] [y2=-15.00]
                  LayoutSVGRect {rect} at (306,301) size 8x8 [fill={[type=SOLID] [color=#8888FF]}] [x=-4.00] [y=-4.00] [width=8.00] [height=8.00]
              LayoutSVGText {text} at (2,-20) size 81x18 contains 1 chunk(s)
                LayoutSVGInlineText {#text} at (0,0) size 80x17
                  chunk 1 (middle anchor) text run 1 at (2.50,-10.00) startOffset 0 endOffset 1 width 15.00: "1"
                  chunk 1 (middle anchor) text run 1 at (37.50,-5.00) startOffset 0 endOffset 3 width 45.00: "234"
      LayoutSVGContainer {g} at (290,8) size 124x322 [transform={m=((1.00,0.00)(0.00,1.00)) t=(350.00,40.00)}]
        LayoutSVGText {text} at (-35,-32) size 70x19 contains 1 chunk(s)
          LayoutSVGInlineText {#text} at (0,0) size 69x19
            chunk 1 (middle anchor) text run 1 at (-34.50,-17.00) startOffset 0 endOffset 11 width 69.00: "text-anchor"
        LayoutSVGText {text} at (-11,-18) size 22x19 contains 1 chunk(s)
          LayoutSVGInlineText {#text} at (0,0) size 22x19
            chunk 1 (middle anchor) text run 1 at (-11.00,-3.00) startOffset 0 endOffset 3 width 22.00: "end"
        LayoutSVGPath {line} at (349,50) size 2x280 [stroke={[type=SOLID] [color=#FF0000]}] [fill={[type=SOLID] [color=#000000]}] [x1=0.00] [y1=10.00] [x2=0.00] [y2=290.00]
        LayoutSVGContainer {use} at (290,55) size 124x254
          LayoutSVGContainer {g} at (290,55) size 124x254
            LayoutSVGContainer {g} at (346,55) size 8x19 [transform={m=((1.00,0.00)(0.00,1.00)) t=(0.00,30.00)}]
              LayoutSVGContainer {g} at (346,55) size 8x19
                LayoutSVGPath {line} at (349,55) size 2x15 [stroke={[type=SOLID] [color=#FF0000]}] [fill={[type=SOLID] [color=#8888FF]}] [x1=0.00] [y1=0.00] [x2=0.00] [y2=-15.00]
                LayoutSVGRect {rect} at (346,66) size 8x8 [fill={[type=SOLID] [color=#8888FF]}] [x=-4.00] [y=-4.00] [width=8.00] [height=8.00]
            LayoutSVGText {text} at (-60,20) size 60x13 contains 1 chunk(s)
              LayoutSVGInlineText {#text} at (0,0) size 60x12
                chunk 1 (end anchor) text run 1 at (-60.00,30.00) startOffset 0 endOffset 4 width 60.00: "1234"
            LayoutSVGContainer {g} at (356,85) size 8x19 [transform={m=((1.00,0.00)(0.00,1.00)) t=(10.00,60.00)}]
              LayoutSVGContainer {g} at (356,85) size 8x19
                LayoutSVGPath {line} at (359,85) size 2x15 [stroke={[type=SOLID] [color=#FF0000]}] [fill={[type=SOLID] [color=#8888FF]}] [x1=0.00] [y1=0.00] [x2=0.00] [y2=-15.00]
                LayoutSVGRect {rect} at (356,96) size 8x8 [fill={[type=SOLID] [color=#8888FF]}] [x=-4.00] [y=-4.00] [width=8.00] [height=8.00]
            LayoutSVGContainer {g} at (366,85) size 8x19 [transform={m=((1.00,0.00)(0.00,1.00)) t=(20.00,60.00)}]
              LayoutSVGContainer {g} at (366,85) size 8x19
                LayoutSVGPath {line} at (369,85) size 2x15 [stroke={[type=SOLID] [color=#FF0000]}] [fill={[type=SOLID] [color=#8888FF]}] [x1=0.00] [y1=0.00] [x2=0.00] [y2=-15.00]
                LayoutSVGRect {rect} at (366,96) size 8x8 [fill={[type=SOLID] [color=#8888FF]}] [x=-4.00] [y=-4.00] [width=8.00] [height=8.00]
            LayoutSVGContainer {g} at (376,85) size 8x19 [transform={m=((1.00,0.00)(0.00,1.00)) t=(30.00,60.00)}]
              LayoutSVGContainer {g} at (376,85) size 8x19
                LayoutSVGPath {line} at (379,85) size 2x15 [stroke={[type=SOLID] [color=#FF0000]}] [fill={[type=SOLID] [color=#8888FF]}] [x1=0.00] [y1=0.00] [x2=0.00] [y2=-15.00]
                LayoutSVGRect {rect} at (376,96) size 8x8 [fill={[type=SOLID] [color=#8888FF]}] [x=-4.00] [y=-4.00] [width=8.00] [height=8.00]
            LayoutSVGContainer {g} at (386,85) size 8x19 [transform={m=((1.00,0.00)(0.00,1.00)) t=(40.00,60.00)}]
              LayoutSVGContainer {g} at (386,85) size 8x19
                LayoutSVGPath {line} at (389,85) size 2x15 [stroke={[type=SOLID] [color=#FF0000]}] [fill={[type=SOLID] [color=#8888FF]}] [x1=0.00] [y1=0.00] [x2=0.00] [y2=-15.00]
                LayoutSVGRect {rect} at (386,96) size 8x8 [fill={[type=SOLID] [color=#8888FF]}] [x=-4.00] [y=-4.00] [width=8.00] [height=8.00]
            LayoutSVGText {text} at (-5,50) size 45x13 contains 1 chunk(s)
              LayoutSVGInlineText {#text} at (0,0) size 45x12
                chunk 1 (end anchor) text run 1 at (-5.00,60.00) startOffset 0 endOffset 1 width 15.00: "1"
                chunk 1 (end anchor) text run 1 at (5.00,60.00) startOffset 0 endOffset 1 width 15.00: "2"
                chunk 1 (end anchor) text run 1 at (15.00,60.00) startOffset 0 endOffset 1 width 15.00: "3"
                chunk 1 (end anchor) text run 1 at (25.00,60.00) startOffset 0 endOffset 1 width 15.00: "4"
            LayoutSVGContainer {g} at (356,115) size 8x19 [transform={m=((1.00,0.00)(0.00,1.00)) t=(10.00,90.00)}]
              LayoutSVGContainer {g} at (356,115) size 8x19
                LayoutSVGPath {line} at (359,115) size 2x15 [stroke={[type=SOLID] [color=#FF0000]}] [fill={[type=SOLID] [color=#8888FF]}] [x1=0.00] [y1=0.00] [x2=0.00] [y2=-15.00]
                LayoutSVGRect {rect} at (356,126) size 8x8 [fill={[type=SOLID] [color=#8888FF]}] [x=-4.00] [y=-4.00] [width=8.00] [height=8.00]
            LayoutSVGContainer {g} at (406,115) size 8x19 [transform={m=((1.00,0.00)(0.00,1.00)) t=(60.00,90.00)}]
              LayoutSVGContainer {g} at (406,115) size 8x19
                LayoutSVGPath {line} at (409,115) size 2x15 [stroke={[type=SOLID] [color=#FF0000]}] [fill={[type=SOLID] [color=#8888FF]}] [x1=0.00] [y1=0.00] [x2=0.00] [y2=-15.00]
                LayoutSVGRect {rect} at (406,126) size 8x8 [fill={[type=SOLID] [color=#8888FF]}] [x=-4.00] [y=-4.00] [width=8.00] [height=8.00]
            LayoutSVGText {text} at (-5,80) size 65x13 contains 1 chunk(s)
              LayoutSVGInlineText {#text} at (0,0) size 65x12
                chunk 1 (end anchor) text run 1 at (-5.00,90.00) startOffset 0 endOffset 1 width 15.00: "1"
                chunk 1 (end anchor) text run 1 at (15.00,90.00) startOffset 0 endOffset 3 width 45.00: "234"
            LayoutSVGContainer {g} at (335,135) size 64x39 [transform={m=((1.00,0.00)(0.00,1.00)) t=(0.00,120.00)}]
              LayoutSVGContainer {g} at (346,135) size 8x19 [transform={m=((1.00,0.00)(0.00,1.00)) t=(0.00,-10.00)}]
                LayoutSVGContainer {g} at (346,135) size 8x19
                  LayoutSVGPath {line} at (349,135) size 2x15 [stroke={[type=SOLID] [color=#FF0000]}] [fill={[type=SOLID] [color=#8888FF]}] [x1=0.00] [y1=0.00] [x2=0.00] [y2=-15.00]
                  LayoutSVGRect {rect} at (346,146) size 8x8 [fill={[type=SOLID] [color=#8888FF]}] [x=-4.00] [y=-4.00] [width=8.00] [height=8.00]
              LayoutSVGContainer {g} at (361,140) size 8x19 [transform={m=((1.00,0.00)(0.00,1.00)) t=(15.00,-5.00)}]
                LayoutSVGContainer {g} at (361,140) size 8x19
                  LayoutSVGPath {line} at (364,140) size 2x15 [stroke={[type=SOLID] [color=#FF0000]}] [fill={[type=SOLID] [color=#8888FF]}] [x1=0.00] [y1=0.00] [x2=0.00] [y2=-15.00]
                  LayoutSVGRect {rect} at (361,151) size 8x8 [fill={[type=SOLID] [color=#8888FF]}] [x=-4.00] [y=-4.00] [width=8.00] [height=8.00]
              LayoutSVGContainer {g} at (376,150) size 8x19 [transform={m=((1.00,0.00)(0.00,1.00)) t=(30.00,5.00)}]
                LayoutSVGContainer {g} at (376,150) size 8x19
                  LayoutSVGPath {line} at (379,150) size 2x15 [stroke={[type=SOLID] [color=#FF0000]}] [fill={[type=SOLID] [color=#8888FF]}] [x1=0.00] [y1=0.00] [x2=0.00] [y2=-15.00]
                  LayoutSVGRect {rect} at (376,161) size 8x8 [fill={[type=SOLID] [color=#8888FF]}] [x=-4.00] [y=-4.00] [width=8.00] [height=8.00]
              LayoutSVGContainer {g} at (391,155) size 8x19 [transform={m=((1.00,0.00)(0.00,1.00)) t=(45.00,10.00)}]
                LayoutSVGContainer {g} at (391,155) size 8x19
                  LayoutSVGPath {line} at (394,155) size 2x15 [stroke={[type=SOLID] [color=#FF0000]}] [fill={[type=SOLID] [color=#8888FF]}] [x1=0.00] [y1=0.00] [x2=0.00] [y2=-15.00]
                  LayoutSVGRect {rect} at (391,166) size 8x8 [fill={[type=SOLID] [color=#8888FF]}] [x=-4.00] [y=-4.00] [width=8.00] [height=8.00]
              LayoutSVGText {text} at (-15,-20) size 60x33 contains 1 chunk(s)
                LayoutSVGInlineText {#text} at (0,0) size 60x32
                  chunk 1 (end anchor) text run 1 at (-15.00,-10.00) startOffset 0 endOffset 1 width 15.00: "1"
                  chunk 1 (end anchor) text run 1 at (0.00,-5.00) startOffset 0 endOffset 1 width 15.00: "2"
                  chunk 1 (end anchor) text run 1 at (15.00,5.00) startOffset 0 endOffset 1 width 15.00: "3"
                  chunk 1 (end anchor) text run 1 at (30.00,10.00) startOffset 0 endOffset 1 width 15.00: "4"
            LayoutSVGContainer {g} at (345,165) size 49x39 [transform={m=((1.00,0.00)(0.00,1.00)) t=(0.00,150.00)}]
              LayoutSVGContainer {g} at (356,165) size 8x19 [transform={m=((1.00,0.00)(0.00,1.00)) t=(10.00,-10.00)}]
                LayoutSVGContainer {g} at (356,165) size 8x19
                  LayoutSVGPath {line} at (359,165) size 2x15 [stroke={[type=SOLID] [color=#FF0000]}] [fill={[type=SOLID] [color=#8888FF]}] [x1=0.00] [y1=0.00] [x2=0.00] [y2=-15.00]
                  LayoutSVGRect {rect} at (356,176) size 8x8 [fill={[type=SOLID] [color=#8888FF]}] [x=-4.00] [y=-4.00] [width=8.00] [height=8.00]
              LayoutSVGContainer {g} at (366,170) size 8x19 [transform={m=((1.00,0.00)(0.00,1.00)) t=(20.00,-5.00)}]
                LayoutSVGContainer {g} at (366,170) size 8x19
                  LayoutSVGPath {line} at (369,170) size 2x15 [stroke={[type=SOLID] [color=#FF0000]}] [fill={[type=SOLID] [color=#8888FF]}] [x1=0.00] [y1=0.00] [x2=0.00] [y2=-15.00]
                  LayoutSVGRect {rect} at (366,181) size 8x8 [fill={[type=SOLID] [color=#8888FF]}] [x=-4.00] [y=-4.00] [width=8.00] [height=8.00]
              LayoutSVGContainer {g} at (376,180) size 8x19 [transform={m=((1.00,0.00)(0.00,1.00)) t=(30.00,5.00)}]
                LayoutSVGContainer {g} at (376,180) size 8x19
                  LayoutSVGPath {line} at (379,180) size 2x15 [stroke={[type=SOLID] [color=#FF0000]}] [fill={[type=SOLID] [color=#8888FF]}] [x1=0.00] [y1=0.00] [x2=0.00] [y2=-15.00]
                  LayoutSVGRect {rect} at (376,191) size 8x8 [fill={[type=SOLID] [color=#8888FF]}] [x=-4.00] [y=-4.00] [width=8.00] [height=8.00]
              LayoutSVGContainer {g} at (386,185) size 8x19 [transform={m=((1.00,0.00)(0.00,1.00)) t=(40.00,10.00)}]
                LayoutSVGContainer {g} at (386,185) size 8x19
                  LayoutSVGPath {line} at (389,185) size 2x15 [stroke={[type=SOLID] [color=#FF0000]}] [fill={[type=SOLID] [color=#8888FF]}] [x1=0.00] [y1=0.00] [x2=0.00] [y2=-15.00]
                  LayoutSVGRect {rect} at (386,196) size 8x8 [fill={[type=SOLID] [color=#8888FF]}] [x=-4.00] [y=-4.00] [width=8.00] [height=8.00]
              LayoutSVGText {text} at (-5,-20) size 45x33 contains 1 chunk(s)
                LayoutSVGInlineText {#text} at (0,0) size 45x32
                  chunk 1 (end anchor) text run 1 at (-5.00,-10.00) startOffset 0 endOffset 1 width 15.00: "1"
                  chunk 1 (end anchor) text run 1 at (5.00,-5.00) startOffset 0 endOffset 1 width 15.00: "2"
                  chunk 1 (end anchor) text run 1 at (15.00,5.00) startOffset 0 endOffset 1 width 15.00: "3"
                  chunk 1 (end anchor) text run 1 at (25.00,10.00) startOffset 0 endOffset 1 width 15.00: "4"
            LayoutSVGContainer {g} at (345,195) size 59x39 [transform={m=((1.00,0.00)(0.00,1.00)) t=(0.00,180.00)}]
              LayoutSVGContainer {g} at (356,195) size 8x19 [transform={m=((1.00,0.00)(0.00,1.00)) t=(10.00,-10.00)}]
                LayoutSVGContainer {g} at (356,195) size 8x19
                  LayoutSVGPath {line} at (359,195) size 2x15 [stroke={[type=SOLID] [color=#FF0000]}] [fill={[type=SOLID] [color=#8888FF]}] [x1=0.00] [y1=0.00] [x2=0.00] [y2=-15.00]
                  LayoutSVGRect {rect} at (356,206) size 8x8 [fill={[type=SOLID] [color=#8888FF]}] [x=-4.00] [y=-4.00] [width=8.00] [height=8.00]
              LayoutSVGContainer {g} at (366,200) size 8x19 [transform={m=((1.00,0.00)(0.00,1.00)) t=(20.00,-5.00)}]
                LayoutSVGContainer {g} at (366,200) size 8x19
                  LayoutSVGPath {line} at (369,200) size 2x15 [stroke={[type=SOLID] [color=#FF0000]}] [fill={[type=SOLID] [color=#8888FF]}] [x1=0.00] [y1=0.00] [x2=0.00] [y2=-15.00]
                  LayoutSVGRect {rect} at (366,211) size 8x8 [fill={[type=SOLID] [color=#8888FF]}] [x=-4.00] [y=-4.00] [width=8.00] [height=8.00]
              LayoutSVGContainer {g} at (381,210) size 8x19 [transform={m=((1.00,0.00)(0.00,1.00)) t=(35.00,5.00)}]
                LayoutSVGContainer {g} at (381,210) size 8x19
                  LayoutSVGPath {line} at (384,210) size 2x15 [stroke={[type=SOLID] [color=#FF0000]}] [fill={[type=SOLID] [color=#8888FF]}] [x1=0.00] [y1=0.00] [x2=0.00] [y2=-15.00]
                  LayoutSVGRect {rect} at (381,221) size 8x8 [fill={[type=SOLID] [color=#8888FF]}] [x=-4.00] [y=-4.00] [width=8.00] [height=8.00]
              LayoutSVGContainer {g} at (396,215) size 8x19 [transform={m=((1.00,0.00)(0.00,1.00)) t=(50.00,10.00)}]
                LayoutSVGContainer {g} at (396,215) size 8x19
                  LayoutSVGPath {line} at (399,215) size 2x15 [stroke={[type=SOLID] [color=#FF0000]}] [fill={[type=SOLID] [color=#8888FF]}] [x1=0.00] [y1=0.00] [x2=0.00] [y2=-15.00]
                  LayoutSVGRect {rect} at (396,226) size 8x8 [fill={[type=SOLID] [color=#8888FF]}] [x=-4.00] [y=-4.00] [width=8.00] [height=8.00]
              LayoutSVGText {text} at (-5,-20) size 55x33 contains 1 chunk(s)
                LayoutSVGInlineText {#text} at (0,0) size 55x32
                  chunk 1 (end anchor) text run 1 at (-5.00,-10.00) startOffset 0 endOffset 1 width 15.00: "1"
                  chunk 1 (end anchor) text run 1 at (5.00,-5.00) startOffset 0 endOffset 1 width 15.00: "2"
                  chunk 1 (end anchor) text run 1 at (20.00,5.00) startOffset 0 endOffset 1 width 15.00: "3"
                  chunk 1 (end anchor) text run 1 at (35.00,10.00) startOffset 0 endOffset 1 width 15.00: "4"
            LayoutSVGContainer {g} at (320,225) size 49x34 [transform={m=((1.00,0.00)(0.00,1.00)) t=(0.00,210.00)}]
              LayoutSVGContainer {g} at (346,225) size 8x19 [transform={m=((1.00,0.00)(0.00,1.00)) t=(0.00,-10.00)}]
                LayoutSVGContainer {g} at (346,225) size 8x19
                  LayoutSVGPath {line} at (349,225) size 2x15 [stroke={[type=SOLID] [color=#FF0000]}] [fill={[type=SOLID] [color=#8888FF]}] [x1=0.00] [y1=0.00] [x2=0.00] [y2=-15.00]
                  LayoutSVGRect {rect} at (346,236) size 8x8 [fill={[type=SOLID] [color=#8888FF]}] [x=-4.00] [y=-4.00] [width=8.00] [height=8.00]
              LayoutSVGContainer {g} at (361,240) size 8x19 [transform={m=((1.00,0.00)(0.00,1.00)) t=(15.00,5.00)}]
                LayoutSVGContainer {g} at (361,240) size 8x19
                  LayoutSVGPath {line} at (364,240) size 2x15 [stroke={[type=SOLID] [color=#FF0000]}] [fill={[type=SOLID] [color=#8888FF]}] [x1=0.00] [y1=0.00] [x2=0.00] [y2=-15.00]
                  LayoutSVGRect {rect} at (361,251) size 8x8 [fill={[type=SOLID] [color=#8888FF]}] [x=-4.00] [y=-4.00] [width=8.00] [height=8.00]
              LayoutSVGText {text} at (-30,-20) size 45x28 contains 1 chunk(s)
                LayoutSVGInlineText {#text} at (15,0) size 45x27
                  chunk 1 (end anchor) text run 1 at (-15.00,-10.00) startOffset 0 endOffset 1 width 15.00: "1"
                  chunk 1 (end anchor) text run 1 at (-30.00,5.00) startOffset 0 endOffset 3 width 45.00: "234"
            LayoutSVGContainer {g} at (345,255) size 49x24 [transform={m=((1.00,0.00)(0.00,1.00)) t=(0.00,240.00)}]
              LayoutSVGContainer {g} at (356,255) size 8x19 [transform={m=((1.00,0.00)(0.00,1.00)) t=(10.00,-10.00)}]
                LayoutSVGContainer {g} at (356,255) size 8x19
                  LayoutSVGPath {line} at (359,255) size 2x15 [stroke={[type=SOLID] [color=#FF0000]}] [fill={[type=SOLID] [color=#8888FF]}] [x1=0.00] [y1=0.00] [x2=0.00] [y2=-15.00]
                  LayoutSVGRect {rect} at (356,266) size 8x8 [fill={[type=SOLID] [color=#8888FF]}] [x=-4.00] [y=-4.00] [width=8.00] [height=8.00]
              LayoutSVGContainer {g} at (366,260) size 8x19 [transform={m=((1.00,0.00)(0.00,1.00)) t=(20.00,-5.00)}]
                LayoutSVGContainer {g} at (366,260) size 8x19
                  LayoutSVGPath {line} at (369,260) size 2x15 [stroke={[type=SOLID] [color=#FF0000]}] [fill={[type=SOLID] [color=#8888FF]}] [x1=0.00] [y1=0.00] [x2=0.00] [y2=-15.00]
                  LayoutSVGRect {rect} at (366,271) size 8x8 [fill={[type=SOLID] [color=#8888FF]}] [x=-4.00] [y=-4.00] [width=8.00] [height=8.00]
              LayoutSVGContainer {g} at (376,260) size 8x19 [transform={m=((1.00,0.00)(0.00,1.00)) t=(30.00,-5.00)}]
                LayoutSVGContainer {g} at (376,260) size 8x19
                  LayoutSVGPath {line} at (379,260) size 2x15 [stroke={[type=SOLID] [color=#FF0000]}] [fill={[type=SOLID] [color=#8888FF]}] [x1=0.00] [y1=0.00] [x2=0.00] [y2=-15.00]
                  LayoutSVGRect {rect} at (376,271) size 8x8 [fill={[type=SOLID] [color=#8888FF]}] [x=-4.00] [y=-4.00] [width=8.00] [height=8.00]
              LayoutSVGContainer {g} at (386,260) size 8x19 [transform={m=((1.00,0.00)(0.00,1.00)) t=(40.00,-5.00)}]
                LayoutSVGContainer {g} at (386,260) size 8x19
                  LayoutSVGPath {line} at (389,260) size 2x15 [stroke={[type=SOLID] [color=#FF0000]}] [fill={[type=SOLID] [color=#8888FF]}] [x1=0.00] [y1=0.00] [x2=0.00] [y2=-15.00]
                  LayoutSVGRect {rect} at (386,271) size 8x8 [fill={[type=SOLID] [color=#8888FF]}] [x=-4.00] [y=-4.00] [width=8.00] [height=8.00]
              LayoutSVGText {text} at (-5,-20) size 45x18 contains 1 chunk(s)
                LayoutSVGInlineText {#text} at (0,0) size 45x17
                  chunk 1 (end anchor) text run 1 at (-5.00,-10.00) startOffset 0 endOffset 1 width 15.00: "1"
                  chunk 1 (end anchor) text run 1 at (5.00,-5.00) startOffset 0 endOffset 1 width 15.00: "2"
                  chunk 1 (end anchor) text run 1 at (15.00,-5.00) startOffset 0 endOffset 1 width 15.00: "3"
                  chunk 1 (end anchor) text run 1 at (25.00,-5.00) startOffset 0 endOffset 1 width 15.00: "4"
            LayoutSVGContainer {g} at (345,285) size 69x24 [transform={m=((1.00,0.00)(0.00,1.00)) t=(0.00,270.00)}]
              LayoutSVGContainer {g} at (356,285) size 8x19 [transform={m=((1.00,0.00)(0.00,1.00)) t=(10.00,-10.00)}]
                LayoutSVGContainer {g} at (356,285) size 8x19
                  LayoutSVGPath {line} at (359,285) size 2x15 [stroke={[type=SOLID] [color=#FF0000]}] [fill={[type=SOLID] [color=#8888FF]}] [x1=0.00] [y1=0.00] [x2=0.00] [y2=-15.00]
                  LayoutSVGRect {rect} at (356,296) size 8x8 [fill={[type=SOLID] [color=#8888FF]}] [x=-4.00] [y=-4.00] [width=8.00] [height=8.00]
              LayoutSVGContainer {g} at (406,290) size 8x19 [transform={m=((1.00,0.00)(0.00,1.00)) t=(60.00,-5.00)}]
                LayoutSVGContainer {g} at (406,290) size 8x19
                  LayoutSVGPath {line} at (409,290) size 2x15 [stroke={[type=SOLID] [color=#FF0000]}] [fill={[type=SOLID] [color=#8888FF]}] [x1=0.00] [y1=0.00] [x2=0.00] [y2=-15.00]
                  LayoutSVGRect {rect} at (406,301) size 8x8 [fill={[type=SOLID] [color=#8888FF]}] [x=-4.00] [y=-4.00] [width=8.00] [height=8.00]
              LayoutSVGText {text} at (-5,-20) size 65x18 contains 1 chunk(s)
                LayoutSVGInlineText {#text} at (0,0) size 65x17
                  chunk 1 (end anchor) text run 1 at (-5.00,-10.00) startOffset 0 endOffset 1 width 15.00: "1"
                  chunk 1 (end anchor) text run 1 at (15.00,-5.00) startOffset 0 endOffset 3 width 45.00: "234"
    LayoutSVGText {text} at (10,314) size 261x46 contains 1 chunk(s)
      LayoutSVGInlineText {#text} at (0,0) size 261x46
        chunk 1 text run 1 at (10.00,350.00) startOffset 0 endOffset 16 width 261.00: "$Revision: 1.8 $"
    LayoutSVGRect {rect} at (0,0) size 480x360 [stroke={[type=SOLID] [color=#000000]}] [x=1.00] [y=1.00] [width=478.00] [height=358.00]
