layer at (0,0) size 800x600
  LayoutView at (0,0) size 800x600
layer at (0,0) size 800x600
  LayoutSVGRoot {svg} at (0,0) size 800x600
    LayoutSVGContainer {g} at (33,221) size 651x144
      LayoutSVGText {text} at (86,133) size 288x22 contains 1 chunk(s)
        LayoutSVGInlineText {#text} at (205,0) size 83x21
          chunk 1 (middle anchor) text run 1 at (291.20,150.00) startOffset 0 endOffset 14 width 82.80 RTL: "\x{646}\x{634}\x{627}\x{637} \x{627}\x{644}\x{62A}\x{62F}\x{648}\x{64A}\x{644} \""
        LayoutSVGTSpan {tspan} at (0,0) size 194x21
          LayoutSVGInlineText {#text} at (12,0) size 194x21
            chunk 1 (middle anchor) text run 1 at (98.00,150.00) startOffset 0 endOffset 25 width 193.20 RTL override: "dirRTL ubOverride, \x{627}\x{62E}\x{62A}\x{628}\x{627}\x{631}"
        LayoutSVGInlineText {#text} at (0,0) size 12x21
          chunk 1 (middle anchor) text run 1 at (86.00,150.00) startOffset 0 endOffset 2 width 12.00 RTL: "\"!"
      LayoutSVGText {text} at (20,171) size 85x12 contains 1 chunk(s)
        LayoutSVGInlineText {#text} at (0,0) size 85x12
          chunk 1 text run 1 at (20.00,180.00) startOffset 0 endOffset 18 width 84.60: "Reference graphic:"
      LayoutSVGImage {image} at (100,300) size 584x65
    LayoutSVGContainer {g} at (16,556) size 77x14
      LayoutSVGText {text} at (10,334) size 46x8 contains 1 chunk(s)
        LayoutSVGInlineText {#text} at (0,0) size 46x8
          chunk 1 text run 1 at (10.00,340.00) startOffset 0 endOffset 16 width 45.60: "$Revision: 1.7 $"
    LayoutSVGRect {rect} at (0,0) size 800x600 [stroke={[type=SOLID] [color=#000000]}] [x=1.00] [y=1.00] [width=478.00] [height=358.00]
    LayoutSVGContainer {g} at (0,0) size 800x38
      LayoutSVGRect {rect} at (0,0) size 800x36 [stroke={[type=SOLID] [color=#000000]}] [fill={[type=SOLID] [color=#FF0000]}] [x=1.00] [y=1.00] [width=478.00] [height=20.00]
      LayoutSVGText {text} at (206,-1) size 68x24 contains 1 chunk(s)
        LayoutSVGInlineText {#text} at (0,0) size 67x23
          chunk 1 (middle anchor) text run 1 at (206.70,18.00) startOffset 0 endOffset 5 width 66.60: "DRAFT"
